[Source][172]: online object tracking with sparse prototypes . online object tracking is a challenging problem as it entails learning an effective model to account for appearance change caused by intrinsic and extrinsic factors . in this paper , we propose a novel online object tracking algorithm with sparse prototypes , which exploits both classic principal component analysis ( pca ) algorithms with recent sparse representation schemes for learning effective appearance models . we introduce l ( <digit> ) regularization into the pca reconstruction , and develop a novel algorithm to represent an object by sparse prototypes that account explicitly for data and noise . for tracking , objects are represented by the sparse prototypes learned online with update . in order to reduce tracking drift , we present a method that takes occlusion and motion blur into account rather than simply includes image observations for model update . both qualitative and quantitative evaluations on challenging image sequences demonstrate that the proposed tracking algorithm performs favorably against several state of the art methods . 

Source Input: 
 <s> online object tracking with sparse prototypes . online object tracking is a challenging problem as it entails learning an effective model to account for appearance change caused by intrinsic and extrinsic factors . in this paper , we propose a novel online object tracking algorithm with sparse prototypes , which exploits both classic principal component analysis ( pca ) algorithms with recent sparse representation schemes for learning effective appearance models . we introduce l ( <digit> ) regularization into the pca reconstruction , and develop a novel algorithm to represent an object by sparse prototypes that account explicitly for data and noise . for tracking , objects are represented by the sparse prototypes learned online with update . in order to reduce tracking drift , we present a method that takes occlusion and motion blur into account rather than simply includes image observations for model update . both qualitative and quantitative evaluations on challenging image sequences demonstrate that the proposed tracking algorithm performs favorably against several state of the art methods . </s> <pad> <pad> <pad>
Real Target String [5] 
		[['appearance', 'model'], ['l', 'minimization'], ['object', 'tracking'], ['principal', 'component', 'analysis'], ['sparse', 'prototypes']] 
Real Target Input:  
		[['<s>', 'appearance', 'model', '</s>'], ['<s>', 'l', 'minimization', '</s>'], ['<s>', 'object', 'tracking', '</s>'], ['<s>', 'principal', 'component', 'analysis', '</s>'], ['<s>', 'sparse', 'prototypes', '</s>']] 
Real Target Copy:   
		[['appearance', 'model', '</s>'], ['l', 'minimization', '</s>'], ['object', 'tracking', '</s>'], ['principal', 'component', 'analysis', '</s>'], ['sparse', 'prototypes', '</s>']] 
[GROUND-TRUTH] #(present)/#(all targets)=4/5
		[appearance model]
		l minimization
		[object tracking]
		[principal component analysis]
		[sparse prototypes]
oov_list:   
		[] 
[PREDICTION] #(valid)=117, #(present)=117, #(retained&present)=117, #(all)=117
		[3.2601]	*[classification] 	 [181, 2] 
		[4.6012]	*[principal component analysis] 	 [1288, 414, 43, 2] [correct!]
		[4.6496]	*[ensemble learning] 	 [1756, 77, 2] 
		[4.6865]	*[feature extraction] 	 [187, 591, 2] 
		[4.7314]	*[feature selection] 	 [187, 240, 2] 
		[4.7860]	*[genetic algorithm] 	 [340, 37, 2] 
		[4.8097]	*[adaboost] 	 [5405, 2] 
		[4.8630]	*[machine learning] 	 [281, 77, 2] 
		[4.8684]	*[face recognition] 	 [515, 255, 2] 
		[4.9869]	*[motion estimation] 	 [321, 223, 2] 
		[5.0434]	*[clustering] 	 [274, 2] 
		[5.1006]	*[genetic algorithms] 	 [340, 75, 2] 
		[5.2330]	*[image segmentation] 	 [89, 421, 2] 
		[5.2434]	*[regression] 	 [607, 2] 
		[5.4786]	*[neural networks] 	 [184, 62, 2] 
		[5.4837]	*[uncertainty] 	 [685, 2] 
		[5.6179]	*[animation] 	 [1747, 2] 
		[5.7960]	*[neural network] 	 [184, 52, 2] 
		[5.9672]	*[deformable models] 	 [2565, 69, 2] 
		[5.9920]	*[support vector machines] 	 [130, 310, 791, 2] 
		[6.0005]	*[markov random fields] 	 [752, 276, 842, 2] 
		[6.0302]	*[feature] 	 [187, 2] 
		[6.2360]	*[multi objective optimization] 	 [100, 349, 95, 2] 
		[6.2988]	*[image processing] 	 [89, 192, 2] 
		[6.3229]	*[active learning] 	 [573, 77, 2] 
		[6.4525]	*[learning] 	 [77, 2] 
		[6.5274]	*[support vector machine] 	 [130, 310, 281, 2] 
		[6.5425]	*[shape optimization] 	 [334, 95, 2] 
		[6.5654]	*[object tracking] 	 [210, 480, 2] [correct!]
		[6.6353]	*[object detection] 	 [210, 161, 2] 
		[6.7415]	*[object recognition] 	 [210, 255, 2] 
		[6.7620]	*[bayesian estimation] 	 [824, 223, 2] 
		[6.8122]	*[bayesian optimization] 	 [824, 95, 2] 
		[6.8135]	*[fuzzy logic] 	 [83, 287, 2] 
		[6.8428]	*[adaptive learning] 	 [194, 77, 2] 
		[6.9308]	*[learning vector quantization] 	 [77, 310, 2174, 2] 
		[7.0706]	*[markov chain monte carlo] 	 [752, 596, 1225, 1226, 2] 
		[7.3281]	*[object] 	 [210, 2] 
		[7.5860]	*[markov chain] 	 [752, 596, 2] 
		[7.6132]	*[markov random field] 	 [752, 276, 236, 2] 
		[7.6550]	*[3d] 	 [305, 2] 
		[7.6834]	*[motion] 	 [321, 2] 
		[7.8643]	*[bayesian] 	 [824, 2] 
		[7.9056]	*[adaptive] 	 [194, 2] 
		[8.1197]	*[human motion analysis] 	 [252, 321, 43, 2] 
		[8.1855]	*[multi resolution] 	 [100, 656, 2] 
		[8.2453]	*[shape] 	 [334, 2] 
		[8.3673]	*[learning vector machines] 	 [77, 310, 791, 2] 
		[8.4007]	*[deformable] 	 [2565, 2] 
		[8.4578]	*[face] 	 [515, 2] 
		[8.5364]	*[human motion] 	 [252, 321, 2] 
		[8.6937]	*[roc] 	 [4794, 2] 
		[8.7094]	*[image] 	 [89, 2] 
		[8.7211]	*[object based animation] 	 [210, 26, 1747, 2] 
		[8.8108]	*[support vector regression] 	 [130, 310, 607, 2] 
		[8.8359]	*[feature based animation] 	 [187, 26, 1747, 2] 
		[8.8489]	*[fuzzy logic controllers] 	 [83, 287, 2062, 2] 
		[8.8686]	*[nuclei] 	 [6272, 2] 
		[8.9390]	*[multi objective optimisation] 	 [100, 349, 1629, 2] 
		[8.9764]	*[feature based classification] 	 [187, 26, 181, 2] 
		[8.9873]	*[neural] 	 [184, 2] 
		[9.0190]	*[ensemble] 	 [1756, 2] 
		[9.1246]	*[video] 	 [215, 2] 
		[9.1497]	*[learning vector machine] 	 [77, 310, 281, 2] 
		[9.1605]	*[neural network analysis] 	 [184, 52, 43, 2] 
		[9.2142]	*[feature based modeling] 	 [187, 26, 148, 2] 
		[9.3203]	*[support vector memory] 	 [130, 310, 225, 2] 
		[9.3219]	*[markov] 	 [752, 2] 
		[9.4376]	*[principal component] 	 [1288, 414, 2] 
		[9.4410]	*[fuzzy logic system] 	 [83, 287, 35, 2] 
		[9.4509]	*[support] 	 [130, 2] 
		[9.5040]	*[object based modeling] 	 [210, 26, 148, 2] 
		[9.5108]	*[adaptive learning environments] 	 [194, 77, 432, 2] 
		[9.5429]	*[multi resolution learning] 	 [100, 656, 77, 2] 
		[9.5609]	*[feature based synthesis] 	 [187, 26, 694, 2] 
		[9.8049]	*[genetic] 	 [340, 2] 
		[9.9483]	*[human] 	 [252, 2] 
		[9.9640]	*[object based image retrieval] 	 [210, 26, 89, 323, 2] 
		[10.0797]	*[learning vector] 	 [77, 310, 2] 
		[10.1077]	*[support vector] 	 [130, 310, 2] 
		[10.2560]	*[feature based] 	 [187, 26, 2] 
		[10.3050]	*[multi objective evolutionary algorithm] 	 [100, 349, 611, 37, 2] 
		[10.3160]	*[object based] 	 [210, 26, 2] 
		[10.3489]	*[feature based image retrieval] 	 [187, 26, 89, 323, 2] 
		[10.5290]	*[multi objective] 	 [100, 349, 2] 
		[10.6387]	*[object based image analysis] 	 [210, 26, 89, 43, 2] 
		[10.6662]	*[visual] 	 [399, 2] 
		[10.7074]	*[feature based feature extraction] 	 [187, 26, 187, 591, 2] 
		[10.8888]	*[object based feature extraction] 	 [210, 26, 187, 591, 2] 
		[11.0641]	*[multi objective evolutionary algorithms] 	 [100, 349, 611, 75, 2] 
		[11.1849]	*[principal component analysis algorithms] 	 [1288, 414, 43, 75, 2] 
		[11.2126]	*[principal component analysis analysis] 	 [1288, 414, 43, 43, 2] 
		[11.2757]	*[feature based image registration] 	 [187, 26, 89, 1621, 2] 
		[11.2827]	*[support vector machine algorithm] 	 [130, 310, 281, 37, 2] 
		[11.3062]	*[feature based image analysis] 	 [187, 26, 89, 43, 2] 
		[11.3947]	*[markov random field model] 	 [752, 276, 236, 30, 2] 
		[11.4135]	*[object based image segmentation] 	 [210, 26, 89, 421, 2] 
		[11.4562]	*[multi objective evolutionary optimization] 	 [100, 349, 611, 95, 2] 
		[11.5195]	*[principal component analysis algorithm] 	 [1288, 414, 43, 37, 2] 
		[11.5337]	*[feature based image segmentation] 	 [187, 26, 89, 421, 2] 
		[11.5695]	*[object based image processing] 	 [210, 26, 89, 192, 2] 
		[11.6995]	*[object based image registration] 	 [210, 26, 89, 1621, 2] 
		[11.7019]	*[multi objective optimization algorithm] 	 [100, 349, 95, 37, 2] 
		[11.8205]	*[principal component analysis method] 	 [1288, 414, 43, 34, 2] 
		[11.8489]	*[feature based image processing] 	 [187, 26, 89, 192, 2] 
		[11.8608]	*[support vector machine models] 	 [130, 310, 281, 69, 2] 
		[11.8708]	*[feature based image transform] 	 [187, 26, 89, 547, 2] 
		[11.8750]	*[principal component analysis optimization] 	 [1288, 414, 43, 95, 2] 
		[11.9517]	*[support vector machine system] 	 [130, 310, 281, 35, 2] 
		[11.9791]	*[multi objective evolutionary learning] 	 [100, 349, 611, 77, 2] 
		[12.0233]	*[markov random] 	 [752, 276, 2] 
		[12.0676]	*[object based image] 	 [210, 26, 89, 2] 
		[12.1657]	*[multi objective evolutionary] 	 [100, 349, 611, 2] 
		[12.4295]	*[machine] 	 [281, 2] 
		[12.8446]	*[object based feature] 	 [210, 26, 187, 2] 
		[13.1082]	*[feature based feature] 	 [187, 26, 187, 2] 
		[13.4369]	*[feature based image] 	 [187, 26, 89, 2] 

 =======================================================
 ------------------------------------------------- EXACT, k=5
 --- batch precision, recall, fscore: 0.2 , 0.25 , 0.22222222222222224
 --- total precision, recall, fscore: 0.02950819672131148 , 0.03979313036690085 , 0.030940657435353677
 ------------------------------------------------- EXACT, k=10
 --- batch precision, recall, fscore: 0.1 , 0.25 , 0.14285714285714288
 --- total precision, recall, fscore: 0.018852459016393444 , 0.04902419984387198 , 0.025286460481608434
 ------------------------------------------------- SOFT, k=5
 --- batch precision, recall, fscore: 0.2 , 0.25 , 0.22222222222222224
 --- total precision, recall, fscore: 0.05430913391660472 , 0.07655057661107376 , 0.058452027633222374
 ------------------------------------------------- SOFT, k=10
 --- batch precision, recall, fscore: 0.1 , 0.25 , 0.14285714285714288
 --- total precision, recall, fscore: 0.039443794259282405 , 0.11618477037703519 , 0.05475387239307151
 =======================================================