[Source][166]: a constraint based system for product design and manufacturing . constraint based modeling is one of the most modern methods of product design . this paper illustrates a collaborative design and manufacture procedures based on a new approach under the constraint based solver for product design . such a method can be used for the collaborative computer aided design manufacture systems . a developing model will be constructed from conceptual design to tool paths generation , and a case study of how to make a playing doll house was presented to verify this system . the solver generates geometric models automatically and hierarchically when sufficient constraint relationships between geometric objects are given . by examining this developing model , all different operations can be integrated tightly and quickly from different locations and sub systems . also , benefits such as reduction in designing time , prototype testing time and engineering personnel requirements , as well as mistake free operation and simplification of manufacturing are attainable . 

Source Input: 
 <s> a constraint based system for product design and manufacturing . constraint based modeling is one of the most modern methods of product design . this paper illustrates a collaborative design and manufacture procedures based on a new approach under the constraint based solver for product design . such a method can be used for the collaborative computer aided design manufacture systems . a developing model will be constructed from conceptual design to tool paths generation , and a case study of how to make a playing <unk> house was presented to verify this system . the solver generates geometric models automatically and hierarchically when sufficient constraint relationships between geometric objects are given . by examining this developing model , all different operations can be integrated tightly and quickly from different locations and sub systems . also , benefits such as reduction in designing time , prototype testing time and engineering personnel requirements , as well as mistake free operation and simplification of manufacturing are attainable . </s> <pad> <pad> <pad>
Real Target String [3] 
		[['constraint', 'based', 'solver'], ['collaborative'], ['cad', 'cam']] 
Real Target Input:  
		[['<s>', 'constraint', 'based', 'solver', '</s>'], ['<s>', 'collaborative', '</s>'], ['<s>', 'cad', 'cam', '</s>']] 
Real Target Copy:   
		[['constraint', 'based', 'solver', '</s>'], ['collaborative', '</s>'], ['cad', 'cam', '</s>']] 
[GROUND-TRUTH] #(present)/#(all targets)=2/3
		[constraint based solver]
		[collaborative]
		cad cam
oov_list:   
		['doll'] 
[PREDICTION] #(valid)=109, #(present)=109, #(retained&present)=109, #(all)=109
		[3.6703]	*[design] 	 [50, 2] 
		[3.8827]	*[simulation] 	 [93, 2] 
		[3.9764]	*[systems] 	 [41, 2] 
		[4.4300]	*[software engineering] 	 [98, 416, 2] 
		[4.5922]	*[computer animation] 	 [157, 1747, 2] 
		[4.6957]	*[process] 	 [73, 2] 
		[4.8764]	*[management] 	 [144, 2] 
		[5.0018]	*[implementation] 	 [186, 2] 
		[5.0273]	*[method] 	 [34, 2] 
		[5.1144]	*[reliability] 	 [542, 2] 
		[5.1665]	*[tools] 	 [347, 2] 
		[5.2160]	*[learning] 	 [77, 2] 
		[5.3510]	*[performance] 	 [45, 2] 
		[5.4228]	*[evaluation] 	 [172, 2] 
		[5.4685]	*[java] 	 [1075, 2] 
		[5.4763]	*[animation] 	 [1747, 2] 
		[5.4901]	*[analysis] 	 [43, 2] 
		[5.6230]	*[model] 	 [30, 2] 
		[5.6987]	*[embedded systems] 	 [584, 41, 2] 
		[5.7829]	*[multi agent systems] 	 [100, 465, 41, 2] 
		[5.8387]	*[model checking] 	 [30, 1069, 2] 
		[5.9440]	*[case based reasoning] 	 [128, 26, 812, 2] 
		[6.0408]	*[support] 	 [130, 2] 
		[6.1561]	*[distributed systems] 	 [156, 41, 2] 
		[6.1583]	*[software] 	 [98, 2] 
		[6.2655]	*[model driven engineering] 	 [30, 655, 416, 2] 
		[6.2751]	*[software testing] 	 [98, 475, 2] 
		[6.3214]	*[collaborative filtering] 	 [682, 800, 2] 
		[6.3482]	*[performance evaluation] 	 [45, 172, 2] 
		[6.3918]	*[system buses] 	 [35, 6434, 2] 
		[6.4077]	*[computer aided design] 	 [157, 2031, 50, 2] 
		[6.4517]	*[parallel] 	 [193, 2] 
		[6.5716]	*[process improvement] 	 [73, 701, 2] 
		[6.5857]	*[process design] 	 [73, 50, 2] 
		[6.5861]	*[collaborative learning] 	 [682, 77, 2] 
		[6.6027]	*[computer graphics] 	 [157, 1249, 2] 
		[6.6247]	*[decision support system] 	 [173, 130, 35, 2] 
		[6.6680]	*[software architecture] 	 [98, 212, 2] 
		[6.6769]	*[runtime system] 	 [1403, 35, 2] 
		[6.6892]	*[support vector machines] 	 [130, 310, 791, 2] 
		[6.6922]	*[knowledge acquisition] 	 [134, 1575, 2] 
		[6.7125]	*[power] 	 [107, 2] 
		[6.7300]	*[system] 	 [35, 2] 
		[6.7938]	*[design process] 	 [50, 73, 2] 
		[6.8462]	*[performance analysis] 	 [45, 43, 2] 
		[6.8928]	*[process modeling] 	 [73, 148, 2] 
		[6.9990]	*[decision support systems] 	 [173, 130, 41, 2] 
		[7.0917]	*[distributed] 	 [156, 2] 
		[7.1236]	*[software development] 	 [98, 155, 2] 
		[7.1666]	*[case] 	 [128, 2] 
		[7.2210]	*[runtime] 	 [1403, 2] 
		[7.2468]	*[knowledge based systems] 	 [134, 26, 41, 2] 
		[7.3976]	*[multi agent system] 	 [100, 465, 35, 2] 
		[7.4757]	*[decision support] 	 [173, 130, 2] 
		[7.5714]	*[multi agent] 	 [100, 465, 2] 
		[7.6162]	*[adaptive] 	 [194, 2] 
		[7.8183]	*[knowledge] 	 [134, 2] 
		[8.0405]	*[design of experiments] 	 [50, 6, 213, 2] 
		[8.0745]	*[analysis of design] 	 [43, 6, 50, 2] 
		[8.1143]	*[analysis of algorithms] 	 [43, 6, 75, 2] 
		[8.1289]	*[model driven development] 	 [30, 655, 155, 2] 
		[8.1354]	*[support vector machine] 	 [130, 310, 281, 2] 
		[8.1999]	*[empirical] 	 [640, 2] 
		[8.2272]	*[system level] 	 [35, 108, 2] 
		[8.2666]	*[model based design] 	 [30, 26, 50, 2] 
		[8.3265]	*[embedded] 	 [584, 2] 
		[8.3582]	*[model based testing] 	 [30, 26, 475, 2] 
		[8.4277]	*[knowledge based system] 	 [134, 26, 35, 2] 
		[8.4505]	*[multi agent simulation] 	 [100, 465, 93, 2] 
		[8.4638]	*[design process exploration] 	 [50, 73, 1335, 2] 
		[8.5687]	*[software engineering design] 	 [98, 416, 50, 2] 
		[8.5906]	*[design of design] 	 [50, 6, 50, 2] 
		[8.6185]	*[computer] 	 [157, 2] 
		[8.6944]	*[system level synthesis] 	 [35, 108, 694, 2] 
		[8.7055]	*[collaborative] 	 [682, 2] [correct!]
		[9.0940]	*[computer aided diagnosis] 	 [157, 2031, 997, 2] 
		[9.1131]	*[design of cal systems] 	 [50, 6, 10316, 41, 2] 
		[9.2109]	*[model driven design] 	 [30, 655, 50, 2] 
		[9.2440]	*[model based reasoning] 	 [30, 26, 812, 2] 
		[9.3006]	*[decision] 	 [173, 2] 
		[9.3126]	*[analysis of evaluation] 	 [43, 6, 172, 2] 
		[9.4517]	*[model based engineering] 	 [30, 26, 416, 2] 
		[9.7601]	*[model based systems] 	 [30, 26, 41, 2] 
		[9.8240]	*[computer aided] 	 [157, 2031, 2] 
		[9.8563]	*[model based] 	 [30, 26, 2] 
		[10.2068]	*[model driven] 	 [30, 655, 2] 
		[10.6226]	*[knowledge based] 	 [134, 26, 2] 
		[10.7309]	*[support vector] 	 [130, 310, 2] 
		[10.7511]	*[software development and design] 	 [98, 155, 8, 50, 2] 
		[11.1597]	*[software engineering and design] 	 [98, 416, 8, 50, 2] 
		[11.5913]	*[model driven engineering design] 	 [30, 655, 416, 50, 2] 
		[11.6160]	*[design of cal system] 	 [50, 6, 10316, 35, 2] 
		[12.0272]	*[multi agent systems design] 	 [100, 465, 41, 50, 2] 
		[12.0325]	*[model based design engineering] 	 [30, 26, 50, 416, 2] 
		[12.0643]	*[case based reasoning systems] 	 [128, 26, 812, 41, 2] 
		[12.1337]	*[model driven development system] 	 [30, 655, 155, 35, 2] 
		[12.2452]	*[case based reasoning algorithms] 	 [128, 26, 812, 75, 2] 
		[12.2468]	*[software development and testing] 	 [98, 155, 8, 475, 2] 
		[12.2626]	*[computer aided design tool] 	 [157, 2031, 50, 295, 2] 
		[12.3181]	*[multi agent system design] 	 [100, 465, 35, 50, 2] 
		[12.3572]	*[computer aided design development] 	 [157, 2031, 50, 155, 2] 
		[12.3597]	*[computer aided design systems] 	 [157, 2031, 50, 41, 2] 
		[12.4991]	*[method of the loop] 	 [34, 6, 4, 977, 2] 
		[12.4997]	*[design of cal] 	 [50, 6, 10316, 2] 
		[12.6764]	*[case based] 	 [128, 26, 2] 
		[13.4363]	*[software development and] 	 [98, 155, 8, 2] 
		[14.3822]	*[computer aided design and] 	 [157, 2031, 50, 8, 2] 
		[15.1824]	*[design process exploration and] 	 [50, 73, 1335, 8, 2] 
		[16.3328]	*[software engineering design and] 	 [98, 416, 50, 8, 2] 

 =======================================================
 ------------------------------------------------- EXACT, k=5
 --- batch precision, recall, fscore: 0.0 , 0.0 , 0.0
 --- total precision, recall, fscore: 0.029629629629629627 , 0.04066725455614345 , 0.03194296424143919
 ------------------------------------------------- EXACT, k=10
 --- batch precision, recall, fscore: 0.0 , 0.0 , 0.0
 --- total precision, recall, fscore: 0.019135802469135807 , 0.051048402900254745 , 0.02595737468458487
 ------------------------------------------------- SOFT, k=5
 --- batch precision, recall, fscore: 0.0 , 0.0 , 0.0
 --- total precision, recall, fscore: 0.05303938900247033 , 0.08148321920150628 , 0.05899502202904285
 ------------------------------------------------- SOFT, k=10
 --- batch precision, recall, fscore: 0.0 , 0.0 , 0.0
 --- total precision, recall, fscore: 0.04013668466129421 , 0.12501432003640756 , 0.05658652261008206
 =======================================================