[Source][126]: stab an r package for drug stability data analysis . in the pharmaceutical industry , drug stability studies are routinely performed to measure the degradation of an active pharmaceutical ingredient ( api ) within a drug product . the purpose of drug stability studies is to examine how the api in a drug product varies with time under influence of a variety of environmental factors . the most important study is to establish the expiration date ( i . e . , the shelf life ) of the product . thus , the aim of this study was to develop an r package to calculate the shelf life based on drug stability data according to the suggested algorithms by ich tripartite guidelines for q1e evaluation . 

Source Input: 
 <s> stab an r package for drug stability data analysis . in the pharmaceutical industry , drug stability studies are routinely performed to measure the degradation of an active pharmaceutical ingredient ( api ) within a drug product . the purpose of drug stability studies is to examine how the api in a drug product varies with time under influence of a variety of environmental factors . the most important study is to establish the expiration date ( i . e . , the shelf life ) of the product . thus , the aim of this study was to develop an r package to calculate the shelf life based on drug stability data according to the suggested algorithms by ich tripartite guidelines for <unk> evaluation . </s> <pad> <pad> <pad>
Real Target String [5] 
		[['drug', 'stability'], ['shelf', 'life'], ['ich', 'q1e'], ['ancova'], ['r']] 
Real Target Input:  
		[['<s>', 'drug', 'stability', '</s>'], ['<s>', 'shelf', 'life', '</s>'], ['<s>', 'ich', '<unk>', '</s>'], ['<s>', 'ancova', '</s>'], ['<s>', 'r', '</s>']] 
Real Target Copy:   
		[['drug', 'stability', '</s>'], ['shelf', 'life', '</s>'], ['ich', 'q1e', '</s>'], ['ancova', '</s>'], ['r', '</s>']] 
[GROUND-TRUTH] #(present)/#(all targets)=3/5
		[drug stability]
		[shelf life]
		ich q1e
		ancova
		[r]
oov_list:   
		['q1e'] 
[PREDICTION] #(valid)=112, #(present)=112, #(retained&present)=112, #(all)=112
		[4.6873]	*[mri] 	 [2742, 2] 
		[4.6909]	*[accelerometry] 	 [26880, 2] 
		[5.2610]	*[radiograph] 	 [14858, 2] 
		[5.2730]	*[breast cancer] 	 [2817, 1696, 2] 
		[5.4126]	*[micromotors] 	 [16260, 2] 
		[5.5009]	*[wobble] 	 [20776, 2] 
		[5.5218]	*[super resolution] 	 [2505, 656, 2] 
		[5.5304]	*[chest radiograph] 	 [7021, 14858, 2] 
		[6.0554]	*[charge pumping] 	 [2314, 6763, 2] 
		[6.2110]	*[wd] 	 [14493, 2] 
		[6.3276]	*[computer animation] 	 [157, 1747, 2] 
		[6.4641]	*[surface pretreatment] 	 [317, 13946, 2] 
		[6.4807]	*[bzier curves] 	 [7307, 1316, 2] 
		[6.4995]	*[3d ladar scanning] 	 [305, 47817, 2770, 2] 
		[6.5038]	*[non natives] 	 [123, 16916, 2] 
		[6.5599]	*[anisotropic diffusion] 	 [2626, 783, 2] 
		[6.5718]	*[motion artefact] 	 [321, 13325, 2] 
		[6.6065]	*[comparative genomics] 	 [1637, 6307, 2] 
		[6.6769]	*[comparative study] 	 [1637, 67, 2] 
		[6.6796]	*[3d qsar] 	 [305, 3664, 2] 
		[6.7869]	*[surface roughness] 	 [317, 3230, 2] 
		[6.8445]	*[self organized criticality] 	 [339, 2799, 9670, 2] 
		[6.9085]	*[coronary disease] 	 [4424, 1200, 2] 
		[6.9262]	*[molecular docking] 	 [943, 3493, 2] 
		[6.9648]	*[coronary artery] 	 [4424, 5044, 2] 
		[6.9826]	*[x ray] 	 [376, 1922, 2] 
		[7.0312]	*[molecular dynamics] 	 [943, 455, 2] 
		[7.0901]	*[blood pressure] 	 [2559, 1043, 2] 
		[7.1527]	*[silicon nitride] 	 [1957, 7322, 2] 
		[7.2168]	*[motion estimation] 	 [321, 223, 2] 
		[7.4042]	*[magnetic resonance imaging] 	 [1047, 1947, 987, 2] 
		[7.4453]	*[3d] 	 [305, 2] 
		[7.4519]	*[bzier curve] 	 [7307, 1014, 2] 
		[7.4713]	*[breast cancer metastasis] 	 [2817, 1696, 9669, 2] 
		[7.4729]	*[molecular] 	 [943, 2] 
		[7.6428]	*[active contour] 	 [573, 1832, 2] 
		[7.7239]	*[protein] 	 [983, 2] 
		[8.0232]	*[motion] 	 [321, 2] 
		[8.0250]	*[computer aided diagnosis] 	 [157, 2031, 997, 2] 
		[8.2749]	*[x ray angiography] 	 [376, 1922, 6828, 2] 
		[8.5156]	*[surface] 	 [317, 2] 
		[8.5432]	*[volumetric] 	 [3228, 2] 
		[8.6473]	*[bzier] 	 [7307, 2] 
		[8.6758]	*[3d ladar sounds] 	 [305, 47817, 5545, 2] 
		[8.6800]	*[x ray mask] 	 [376, 1922, 3176, 2] 
		[8.7011]	*[3d ladar modulation] 	 [305, 47817, 1664, 2] 
		[8.7424]	*[3d ladar lasers] 	 [305, 47817, 7545, 2] 
		[8.7641]	*[nuclei] 	 [6272, 2] 
		[8.7960]	*[3d ladar angiography] 	 [305, 47817, 6828, 2] 
		[9.0274]	*[3d shape] 	 [305, 334, 2] 
		[9.1392]	*[nuclei chromatin] 	 [6272, 10040, 2] 
		[9.1485]	*[charge pumping rate] 	 [2314, 6763, 209, 2] 
		[9.2206]	*[3d ladar disease] 	 [305, 47817, 1200, 2] 
		[9.2360]	*[3d ladar acid] 	 [305, 47817, 3022, 2] 
		[9.3595]	*[computer aided design] 	 [157, 2031, 50, 2] 
		[9.3750]	*[x ray modulation] 	 [376, 1922, 1664, 2] 
		[9.4989]	*[3d ladar lithography] 	 [305, 47817, 3006, 2] 
		[9.5297]	*[3d shape models] 	 [305, 334, 69, 2] 
		[9.5428]	*[3d ladar imaging] 	 [305, 47817, 987, 2] 
		[9.5553]	*[x ray imaging] 	 [376, 1922, 987, 2] 
		[9.5851]	*[3d ladar diode] 	 [305, 47817, 5195, 2] 
		[9.6266]	*[charge pumping activity] 	 [2314, 6763, 608, 2] 
		[9.6426]	*[3d ladar mask] 	 [305, 47817, 3176, 2] 
		[9.7061]	*[3d shape optimization] 	 [305, 334, 95, 2] 
		[9.7891]	*[x ray lithography] 	 [376, 1922, 3006, 2] 
		[9.7940]	*[x ray tomography] 	 [376, 1922, 2160, 2] 
		[9.8164]	*[protein protein structure] 	 [983, 983, 143, 2] 
		[9.8939]	*[3d shape analysis] 	 [305, 334, 43, 2] 
		[9.9411]	*[3d ladar cryptosystem] 	 [305, 47817, 6665, 2] 
		[9.9493]	*[3d ladar etch] 	 [305, 47817, 4917, 2] 
		[10.1980]	*[protein protein] 	 [983, 983, 2] 
		[10.2495]	*[comparative] 	 [1637, 2] 
		[10.4520]	*[magnetic resonance] 	 [1047, 1947, 2] 
		[10.4722]	*[x] 	 [376, 2] 
		[10.6189]	*[active] 	 [573, 2] 
		[10.7799]	*[breast cancer of carriers] 	 [2817, 1696, 6, 5118, 2] 
		[10.7894]	*[magnetic] 	 [1047, 2] 
		[10.8228]	*[charge] 	 [2314, 2] 
		[10.8322]	*[blood] 	 [2559, 2] 
		[10.9967]	*[computer aided] 	 [157, 2031, 2] 
		[11.2661]	*[computer] 	 [157, 2] 
		[11.9952]	*[non reflecting stationary] 	 [123, 4151, 1882, 2] 
		[12.1856]	*[non reflecting stationary logics] 	 [123, 4151, 1882, 2820, 2] 
		[12.4843]	*[non reflecting stationary method] 	 [123, 4151, 1882, 34, 2] 
		[12.6048]	*[self organized] 	 [339, 2799, 2] 
		[12.6101]	*[3d ladar scanning mask] 	 [305, 47817, 2770, 3176, 2] 
		[12.6237]	*[non reflecting stationary formulation] 	 [123, 4151, 1882, 600, 2] 
		[12.7392]	*[protein protein structure models] 	 [983, 983, 143, 69, 2] 
		[12.8135]	*[non reflecting stationary decomposition] 	 [123, 4151, 1882, 634, 2] 
		[12.8178]	*[non reflecting stationary condition] 	 [123, 4151, 1882, 609, 2] 
		[12.8502]	*[protein protein structure activity] 	 [983, 983, 143, 608, 2] 
		[12.9629]	*[non reflecting stationary functions] 	 [123, 4151, 1882, 171, 2] 
		[12.9759]	*[breast cancer of minima] 	 [2817, 1696, 6, 4463, 2] 
		[13.0323]	*[non reflecting stationary effects] 	 [123, 4151, 1882, 337, 2] 
		[13.0515]	*[non reflecting stationary set] 	 [123, 4151, 1882, 79, 2] 
		[13.0657]	*[non reflecting stationary channels] 	 [123, 4151, 1882, 756, 2] 
		[13.0884]	*[non reflecting stationary approximation] 	 [123, 4151, 1882, 320, 2] 
		[13.2438]	*[charge pumping activity recognition] 	 [2314, 6763, 608, 255, 2] 
		[13.3113]	*[protein protein structure analysis] 	 [983, 983, 143, 43, 2] 
		[13.3893]	*[3d ladar scanning test] 	 [305, 47817, 2770, 164, 2] 
		[13.3967]	*[3d ladar scanning metastasis] 	 [305, 47817, 2770, 9669, 2] 
		[13.4301]	*[non reflecting stationary lens] 	 [123, 4151, 1882, 4793, 2] 
		[13.4396]	*[non reflecting stationary learning] 	 [123, 4151, 1882, 77, 2] 
		[13.4510]	*[3d ladar scanning method] 	 [305, 47817, 2770, 34, 2] 
		[13.4764]	*[non reflecting stationary preconditioners] 	 [123, 4151, 1882, 6118, 2] 
		[13.6732]	*[non reflecting stationary concrete] 	 [123, 4151, 1882, 1617, 2] 
		[14.0078]	*[non reflecting stationary group] 	 [123, 4151, 1882, 288, 2] 
		[14.3191]	*[chest] 	 [7021, 2] 
		[17.3368]	*[non reflecting stationary linear] 	 [123, 4151, 1882, 109, 2] 
		[17.7773]	*[non reflecting stationary neural] 	 [123, 4151, 1882, 184, 2] 
		[18.3191]	*[non reflecting stationary decision] 	 [123, 4151, 1882, 173, 2] 
		[18.5466]	*[non reflecting stationary wavelet] 	 [123, 4151, 1882, 615, 2] 

 =======================================================
 ------------------------------------------------- EXACT, k=5
 --- batch precision, recall, fscore: 0.0 , 0.0 , 0.0
 --- total precision, recall, fscore: 0.030270270270270273 , 0.04317889317889318 , 0.03322264204617146
 ------------------------------------------------- EXACT, k=10
 --- batch precision, recall, fscore: 0.0 , 0.0 , 0.0
 --- total precision, recall, fscore: 0.01891891891891892 , 0.05226941226941228 , 0.025973484858933776
 ------------------------------------------------- SOFT, k=5
 --- batch precision, recall, fscore: 0.0 , 0.0 , 0.0
 --- total precision, recall, fscore: 0.05303989743864214 , 0.08246398420426683 , 0.05965921882516701
 ------------------------------------------------- SOFT, k=10
 --- batch precision, recall, fscore: 0.0 , 0.0 , 0.0
 --- total precision, recall, fscore: 0.039137709479074224 , 0.12279031758020094 , 0.05553698744881174
 =======================================================