[Source][70]: adwords and generalized online matching . how does a search engine company decide what ads to display with each query so as to maximize its revenue this turns out to be a generalization of the online bipartite matching problem . we introduce the notion of a trade off revealing lp and use it to derive an optimal algorithm achieving a competitive ratio of <digit> <digit> e for this problem . 

Source Input: 
 <s> <unk> and generalized online matching . how does a search engine company decide what ads to display with each query so as to maximize its revenue this turns out to be a generalization of the online bipartite matching problem . we introduce the notion of a trade off revealing lp and use it to derive an optimal algorithm achieving a competitive ratio of <digit> <digit> e for this problem . </s> <pad> <pad> <pad>
Real Target String [6] 
		[['algorithms'], ['economics'], ['theory'], ['keyword', 'auctions'], ['search', 'engines'], ['online', 'algorithms']] 
Real Target Input:  
		[['<s>', 'algorithms', '</s>'], ['<s>', 'economics', '</s>'], ['<s>', 'theory', '</s>'], ['<s>', 'keyword', 'auctions', '</s>'], ['<s>', 'search', 'engines', '</s>'], ['<s>', 'online', 'algorithms', '</s>']] 
Real Target Copy:   
		[['algorithms', '</s>'], ['economics', '</s>'], ['theory', '</s>'], ['keyword', 'auctions', '</s>'], ['search', 'engines', '</s>'], ['online', 'algorithms', '</s>']] 
[GROUND-TRUTH] #(present)/#(all targets)=2/6
		[algorithms]
		economics
		theory
		keyword auctions
		[search engines]
		online algorithms
oov_list:   
		['adwords'] 
[PREDICTION] #(valid)=114, #(present)=114, #(retained&present)=114, #(all)=114
		[3.3914]	*[scheduling] 	 [263, 2] 
		[4.7684]	*[simulation] 	 [93, 2] 
		[5.1270]	*[multi agent systems] 	 [100, 465, 41, 2] 
		[5.2082]	*[distributed systems] 	 [156, 41, 2] 
		[5.2405]	*[systems] 	 [41, 2] 
		[5.3999]	*[system buses] 	 [35, 6434, 2] 
		[5.4243]	*[decision support system] 	 [173, 130, 35, 2] 
		[5.5337]	*[qos] 	 [769, 2] 
		[5.6579]	*[routing] 	 [241, 2] 
		[5.8980]	*[distributed] 	 [156, 2] 
		[5.8986]	*[network] 	 [52, 2] 
		[6.0467]	*[computational complexity] 	 [201, 211, 2] 
		[6.0882]	*[multi agent system] 	 [100, 465, 35, 2] 
		[6.1526]	*[group] 	 [288, 2] 
		[6.1832]	*[decision making] 	 [173, 428, 2] 
		[6.2474]	*[self stabilization] 	 [339, 3091, 2] 
		[6.2859]	*[self organization] 	 [339, 1252, 2] 
		[6.3203]	*[real time] 	 [102, 38, 2] 
		[6.3749]	*[resource allocation] 	 [366, 528, 2] 
		[6.3760]	*[computer animation] 	 [157, 1747, 2] 
		[6.3760]	*[network minimisation] 	 [52, 7527, 2] 
		[6.5500]	*[decision support systems] 	 [173, 130, 41, 2] 
		[6.5518]	*[fuzzy logic] 	 [83, 287, 2] 
		[6.5541]	*[artificial neural network] 	 [661, 184, 52, 2] 
		[6.6556]	*[system] 	 [35, 2] 
		[6.6877]	*[model] 	 [30, 2] 
		[6.7042]	*[wireless] 	 [208, 2] 
		[6.7131]	*[system identification] 	 [35, 590, 2] 
		[6.7443]	*[distributed algorithms] 	 [156, 75, 2] 
		[6.7644]	*[multi homing] 	 [100, 9450, 2] 
		[6.7885]	*[facility location] 	 [2039, 430, 2] 
		[6.8252]	*[software engineering] 	 [98, 416, 2] 
		[6.8556]	*[manufacturing systems] 	 [955, 41, 2] 
		[6.9495]	*[system on chip] 	 [35, 19, 861, 2] 
		[6.9820]	*[multi agent] 	 [100, 465, 2] 
		[7.0120]	*[multi agent simulation] 	 [100, 465, 93, 2] 
		[7.0163]	*[network security] 	 [52, 264, 2] 
		[7.1045]	*[network shop] 	 [52, 3280, 2] 
		[7.1050]	*[manufacturing] 	 [955, 2] 
		[7.2270]	*[real time systems] 	 [102, 38, 41, 2] 
		[7.2619]	*[real time scheduling] 	 [102, 38, 263, 2] 
		[7.2730]	*[artificial neural networks] 	 [661, 184, 62, 2] 
		[7.2755]	*[fuzzy logic controllers] 	 [83, 287, 2062, 2] 
		[7.3332]	*[dynamic] 	 [132, 2] 
		[7.3380]	*[distributed system] 	 [156, 35, 2] 
		[7.3541]	*[distributed hash table] 	 [156, 2427, 1793, 2] 
		[7.4227]	*[decision support] 	 [173, 130, 2] 
		[7.4376]	*[power] 	 [107, 2] 
		[7.4419]	*[group key cryptosystem] 	 [288, 261, 6665, 2] 
		[7.4677]	*[mobile ad hoc networks] 	 [198, 757, 827, 62, 2] 
		[7.4894]	*[real time simulation] 	 [102, 38, 93, 2] 
		[7.7216]	*[real time system] 	 [102, 38, 35, 2] 
		[7.7741]	*[open] 	 [551, 2] 
		[7.8237]	*[mobile ad hoc network] 	 [198, 757, 827, 52, 2] 
		[7.9552]	*[software] 	 [98, 2] 
		[7.9616]	*[distributed hash tables] 	 [156, 2427, 2355, 2] 
		[7.9881]	*[multi objective optimization] 	 [100, 349, 95, 2] 
		[8.0110]	*[group key distribution] 	 [288, 261, 207, 2] 
		[8.0159]	*[power system] 	 [107, 35, 2] 
		[8.0841]	*[adaptive] 	 [194, 2] 
		[8.2061]	*[universal audiovisual] 	 [1938, 7158, 2] 
		[8.2183]	*[universal] 	 [1938, 2] 
		[8.3533]	*[decision] 	 [173, 2] 
		[8.4303]	*[group key agreement] 	 [288, 261, 1458, 2] 
		[8.4834]	*[system level] 	 [35, 108, 2] 
		[8.7678]	*[real time animation] 	 [102, 38, 1747, 2] 
		[8.8954]	*[resource] 	 [366, 2] 
		[8.8991]	*[real time communication] 	 [102, 38, 180, 2] 
		[8.9485]	*[fuzzy logic system] 	 [83, 287, 35, 2] 
		[9.0021]	*[multi user] 	 [100, 103, 2] 
		[9.0104]	*[fuzzy logic programming] 	 [83, 287, 160, 2] 
		[9.0272]	*[information] 	 [47, 2] 
		[9.0470]	*[real time rendering] 	 [102, 38, 1243, 2] 
		[9.0626]	*[real time processing] 	 [102, 38, 192, 2] 
		[9.0758]	*[mobile] 	 [198, 2] 
		[9.0830]	*[group key out] 	 [288, 261, 326, 2] 
		[9.0885]	*[universal audiovisual streaming] 	 [1938, 7158, 1518, 2] 
		[9.0971]	*[multi objective programming] 	 [100, 349, 160, 2] 
		[9.1522]	*[real time learning] 	 [102, 38, 77, 2] 
		[9.2005]	*[real time model] 	 [102, 38, 30, 2] 
		[9.2040]	*[fuzzy] 	 [83, 2] 
		[9.4366]	*[computer] 	 [157, 2] 
		[9.5300]	*[group key exchange] 	 [288, 261, 1265, 2] 
		[9.7032]	*[multi objective] 	 [100, 349, 2] 
		[9.8803]	*[time] 	 [38, 2] 
		[10.1036]	*[distributed hash] 	 [156, 2427, 2] 
		[10.5241]	*[real] 	 [102, 2] 
		[10.6486]	*[group key agreement protocol] 	 [288, 261, 1458, 342, 2] 
		[10.7255]	*[group key] 	 [288, 261, 2] 
		[11.0494]	*[multi agent systems design] 	 [100, 465, 41, 50, 2] 
		[11.1560]	*[group key out protocol] 	 [288, 261, 326, 342, 2] 
		[11.2489]	*[group key exchange protocol] 	 [288, 261, 1265, 342, 2] 
		[11.2870]	*[multi agent system design] 	 [100, 465, 35, 50, 2] 
		[11.3236]	*[group key distribution systems] 	 [288, 261, 207, 41, 2] 
		[11.4647]	*[multi agent systems optimization] 	 [100, 465, 41, 95, 2] 
		[11.5407]	*[real time scheduling problem] 	 [102, 38, 263, 44, 2] 
		[11.5411]	*[decision support system design] 	 [173, 130, 35, 50, 2] 
		[11.5546]	*[mobile ad hoc system] 	 [198, 757, 827, 35, 2] 
		[11.6027]	*[multi agent systems engineering] 	 [100, 465, 41, 416, 2] 
		[11.6458]	*[multi agent systems systems] 	 [100, 465, 41, 41, 2] 
		[11.6775]	*[mobile ad hoc] 	 [198, 757, 827, 2] 
		[11.7628]	*[multi agent systems system] 	 [100, 465, 41, 35, 2] 
		[11.8094]	*[group key distribution system] 	 [288, 261, 207, 35, 2] 
		[11.8202]	*[group key exchange realization] 	 [288, 261, 1265, 3159, 2] 
		[11.8540]	*[multi agent system systems] 	 [100, 465, 35, 41, 2] 
		[11.8648]	*[multi agent system system] 	 [100, 465, 35, 35, 2] 
		[12.0739]	*[group key distribution algorithms] 	 [288, 261, 207, 75, 2] 
		[12.0879]	*[real time model checking] 	 [102, 38, 30, 1069, 2] 
		[12.1142]	*[decision support system development] 	 [173, 130, 35, 155, 2] 
		[12.1360]	*[artificial neural] 	 [661, 184, 2] 
		[14.4706]	*[real time systems and] 	 [102, 38, 41, 8, 2] 
		[16.1901]	*[group key distribution and] 	 [288, 261, 207, 8, 2] 
		[16.4426]	*[decision support system and] 	 [173, 130, 35, 8, 2] 
		[16.5779]	*[decision support systems and] 	 [173, 130, 41, 8, 2] 

 =======================================================
 ------------------------------------------------- EXACT, k=5
 --- batch precision, recall, fscore: 0.0 , 0.0 , 0.0
 --- total precision, recall, fscore: 0.03225806451612903 , 0.045260039499670834 , 0.03561991756624448
 ------------------------------------------------- EXACT, k=10
 --- batch precision, recall, fscore: 0.0 , 0.0 , 0.0
 --- total precision, recall, fscore: 0.01935483870967742 , 0.05301002121278619 , 0.02680222907784221
 ------------------------------------------------- SOFT, k=5
 --- batch precision, recall, fscore: 0.0 , 0.0 , 0.0
 --- total precision, recall, fscore: 0.05366688646753813 , 0.08222735983752645 , 0.060618513328308476
 ------------------------------------------------- SOFT, k=10
 --- batch precision, recall, fscore: 0.0 , 0.0 , 0.0
 --- total precision, recall, fscore: 0.04025565098782288 , 0.12392902153882872 , 0.057361802727722795
 =======================================================