[Source][147]: a new class of independence tests for interval forecasts evaluation . interval forecasts evaluation can be reduced to examining the unconditional coverage and independence properties of the hit sequence . a new class of exact independence tests for the hit sequence and a definition for tendency to clustering of violations are proposed . the tests are suitable for detecting models with a tendency to generate clusters of violations and are based on an exact distribution that does not depend on an unknown parameter . the asymptotic distribution is also derived . the choice of one test within the class is studied . moreover , a simulation study provides evidence that , in order to test the independence hypothesis , the suggested tests perform better than other tests presented in the literature . an empirical application is given for a period that includes the <digit> financial crisis . 

Source Input: 
 <s> a new class of independence tests for interval forecasts evaluation . interval forecasts evaluation can be reduced to examining the unconditional coverage and independence properties of the hit sequence . a new class of exact independence tests for the hit sequence and a definition for tendency to clustering of violations are proposed . the tests are suitable for detecting models with a tendency to generate clusters of violations and are based on an exact distribution that does not depend on an unknown parameter . the asymptotic distribution is also derived . the choice of one test within the class is studied . moreover , a simulation study provides evidence that , in order to test the independence hypothesis , the suggested tests perform better than other tests presented in the literature . an empirical application is given for a period that includes the <digit> financial crisis . </s> <pad> <pad> <pad>
Real Target String [3] 
		[['hit', 'sequence'], ['backtesting'], ['quantitative', 'risk', 'management']] 
Real Target Input:  
		[['<s>', 'hit', 'sequence', '</s>'], ['<s>', '<unk>', '</s>'], ['<s>', 'quantitative', 'risk', 'management', '</s>']] 
Real Target Copy:   
		[['hit', 'sequence', '</s>'], ['<unk>', '</s>'], ['quantitative', 'risk', 'management', '</s>']] 
[GROUND-TRUTH] #(present)/#(all targets)=1/3
		[hit sequence]
		backtesting
		quantitative risk management
oov_list:   
		[] 
[PREDICTION] #(valid)=113, #(present)=113, #(retained&present)=113, #(all)=113
		[4.9852]	*[genetic algorithm] 	 [340, 37, 2] 
		[5.1944]	*[genetic algorithms] 	 [340, 75, 2] 
		[5.3783]	*[fuzzy logic] 	 [83, 287, 2] 
		[5.5163]	*[computer animation] 	 [157, 1747, 2] 
		[5.6037]	*[adaptive meshing] 	 [194, 6276, 2] 
		[5.7794]	*[uncertainty] 	 [685, 2] 
		[5.8460]	*[neural networks] 	 [184, 62, 2] 
		[5.8525]	*[neural network] 	 [184, 52, 2] 
		[5.8600]	*[decision making] 	 [173, 428, 2] 
		[5.9357]	*[animation] 	 [1747, 2] 
		[6.0549]	*[non natives] 	 [123, 16916, 2] 
		[6.0594]	*[decision support system] 	 [173, 130, 35, 2] 
		[6.2199]	*[multiple stressors] 	 [125, 14366, 2] 
		[6.2827]	*[computer vision] 	 [157, 1051, 2] 
		[6.3400]	*[fuzzy logic controllers] 	 [83, 287, 2062, 2] 
		[6.4784]	*[particle swarm optimization] 	 [689, 1313, 95, 2] 
		[6.5035]	*[multi objective optimization] 	 [100, 349, 95, 2] 
		[6.5526]	*[cellular automata] 	 [940, 1064, 2] 
		[6.6179]	*[adaptive learning] 	 [194, 77, 2] 
		[6.6488]	*[learning] 	 [77, 2] 
		[6.6812]	*[adaptive control] 	 [194, 66, 2] 
		[6.6948]	*[adaptive] 	 [194, 2] 
		[6.7554]	*[fuzzy set] 	 [83, 79, 2] 
		[6.7630]	*[computational complexity] 	 [201, 211, 2] 
		[6.8171]	*[artificial neural network] 	 [661, 184, 52, 2] 
		[6.8798]	*[active learning] 	 [573, 77, 2] 
		[6.9290]	*[fuzzy sets] 	 [83, 229, 2] 
		[6.9655]	*[evolutionary algorithms] 	 [611, 75, 2] 
		[7.0058]	*[computer aided diagnosis] 	 [157, 2031, 997, 2] 
		[7.0227]	*[motion estimation] 	 [321, 223, 2] 
		[7.1315]	*[markov chain monte carlo] 	 [752, 596, 1225, 1226, 2] 
		[7.1419]	*[markov random fields] 	 [752, 276, 842, 2] 
		[7.1556]	*[artificial neural networks] 	 [661, 184, 62, 2] 
		[7.1700]	*[3d ladar scanning] 	 [305, 47817, 2770, 2] 
		[7.2047]	*[decision support systems] 	 [173, 130, 41, 2] 
		[7.3394]	*[multilayer] 	 [3406, 2] 
		[7.3494]	*[computer aided design] 	 [157, 2031, 50, 2] 
		[7.3893]	*[fuzzy c means] 	 [83, 378, 413, 2] 
		[7.4014]	*[particle swarm optimizers] 	 [689, 1313, 10752, 2] 
		[7.5121]	*[markov chain] 	 [752, 596, 2] 
		[7.5326]	*[decision support] 	 [173, 130, 2] 
		[7.5612]	*[fuzzy logic system] 	 [83, 287, 35, 2] 
		[7.8552]	*[multi agent systems] 	 [100, 465, 41, 2] 
		[7.8818]	*[finite element method] 	 [163, 257, 34, 2] 
		[7.9244]	*[finite element] 	 [163, 257, 2] 
		[7.9465]	*[artificial bee colony optimization] 	 [661, 5922, 2614, 95, 2] 
		[8.1251]	*[fuzzy logic systems] 	 [83, 287, 41, 2] 
		[8.2575]	*[power] 	 [107, 2] 
		[8.4110]	*[fuzzy logic programming] 	 [83, 287, 160, 2] 
		[8.4529]	*[finite element analysis] 	 [163, 257, 43, 2] 
		[8.4665]	*[multi objective optimisation] 	 [100, 349, 1629, 2] 
		[8.4799]	*[decision] 	 [173, 2] 
		[8.5176]	*[fuzzy] 	 [83, 2] 
		[8.5958]	*[3d] 	 [305, 2] 
		[8.6693]	*[multi agent system] 	 [100, 465, 35, 2] 
		[8.7080]	*[nonlinear] 	 [271, 2] 
		[8.8004]	*[multi agent simulation] 	 [100, 465, 93, 2] 
		[8.8644]	*[artificial bee colony algorithm] 	 [661, 5922, 2614, 37, 2] 
		[8.8757]	*[motion] 	 [321, 2] 
		[8.8801]	*[particle swarm optimisation] 	 [689, 1313, 1629, 2] 
		[8.9281]	*[bayesian] 	 [824, 2] 
		[9.1009]	*[mathematical] 	 [743, 2] 
		[9.1403]	*[fuzzy logic controller] 	 [83, 287, 767, 2] 
		[9.1576]	*[multi objective programming] 	 [100, 349, 160, 2] 
		[9.1873]	*[multi agent] 	 [100, 465, 2] 
		[9.2273]	*[bzier] 	 [7307, 2] 
		[9.2373]	*[neural] 	 [184, 2] 
		[9.2557]	*[3d ladar lasers] 	 [305, 47817, 7545, 2] 
		[9.2770]	*[markov random field] 	 [752, 276, 236, 2] 
		[9.3554]	*[artificial bee colony] 	 [661, 5922, 2614, 2] 
		[9.5415]	*[evolutionary] 	 [611, 2] 
		[9.5570]	*[cellular] 	 [940, 2] 
		[9.6398]	*[soft] 	 [1048, 2] 
		[9.6613]	*[artificial bee colony system] 	 [661, 5922, 2614, 35, 2] 
		[9.7621]	*[genetic] 	 [340, 2] 
		[9.9578]	*[particle] 	 [689, 2] 
		[9.9610]	*[artificial bee colony programming] 	 [661, 5922, 2614, 160, 2] 
		[10.1474]	*[fuzzy c means clustering] 	 [83, 378, 413, 274, 2] 
		[10.1906]	*[multi objective] 	 [100, 349, 2] 
		[10.2004]	*[artificial bee colony systems] 	 [661, 5922, 2614, 41, 2] 
		[10.2008]	*[markov] 	 [752, 2] 
		[10.2499]	*[multi objective evolutionary algorithm] 	 [100, 349, 611, 37, 2] 
		[10.4246]	*[computer aided] 	 [157, 2031, 2] 
		[10.4494]	*[computer] 	 [157, 2] 
		[10.7630]	*[active] 	 [573, 2] 
		[10.8618]	*[artificial bee colony optimisation] 	 [661, 5922, 2614, 1629, 2] 
		[10.8741]	*[artificial bee colony learning] 	 [661, 5922, 2614, 77, 2] 
		[10.9115]	*[multi objective evolutionary algorithms] 	 [100, 349, 611, 75, 2] 
		[10.9330]	*[particle swarm] 	 [689, 1313, 2] 
		[11.0456]	*[3d ladar] 	 [305, 47817, 2] 
		[11.1966]	*[fuzzy c means algorithm] 	 [83, 378, 413, 37, 2] 
		[11.4800]	*[multi objective evolutionary] 	 [100, 349, 611, 2] 
		[11.4935]	*[artificial bee colony robot] 	 [661, 5922, 2614, 629, 2] 
		[11.5754]	*[fuzzy c means system] 	 [83, 378, 413, 35, 2] 
		[11.6138]	*[artificial neural] 	 [661, 184, 2] 
		[11.6686]	*[artificial bee colony optimizers] 	 [661, 5922, 2614, 10752, 2] 
		[11.6765]	*[multi objective evolutionary optimization] 	 [100, 349, 611, 95, 2] 
		[11.6833]	*[artificial bee colony methods] 	 [661, 5922, 2614, 74, 2] 
		[11.7102]	*[artificial bee colony algorithms] 	 [661, 5922, 2614, 75, 2] 
		[11.7672]	*[fuzzy c means problem] 	 [83, 378, 413, 44, 2] 
		[11.9074]	*[artificial bee colony networks] 	 [661, 5922, 2614, 62, 2] 
		[12.0339]	*[artificial bee colony modeling] 	 [661, 5922, 2614, 148, 2] 
		[12.1487]	*[fuzzy c means method] 	 [83, 378, 413, 34, 2] 
		[12.1668]	*[computer aided diagnosis system] 	 [157, 2031, 997, 35, 2] 
		[12.1986]	*[multi objective evolutionary systems] 	 [100, 349, 611, 41, 2] 
		[12.8317]	*[artificial bee colony support] 	 [661, 5922, 2614, 130, 2] 
		[13.0707]	*[adaptive learning of alternatives] 	 [194, 77, 6, 2138, 2] 
		[13.2553]	*[markov random] 	 [752, 276, 2] 
		[13.3764]	*[artificial bee] 	 [661, 5922, 2] 
		[15.3255]	*[computer aided design and] 	 [157, 2031, 50, 8, 2] 
		[15.7290]	*[fuzzy logic of fuzzy] 	 [83, 287, 6, 83, 2] 
		[16.9106]	*[fuzzy logic of neural] 	 [83, 287, 6, 184, 2] 
		[17.6434]	*[artificial bee colony neural] 	 [661, 5922, 2614, 184, 2] 

 =======================================================
 ------------------------------------------------- EXACT, k=5
 --- batch precision, recall, fscore: 0.0 , 0.0 , 0.0
 --- total precision, recall, fscore: 0.03017241379310345 , 0.04233374384236453 , 0.03331690565463385
 ------------------------------------------------- EXACT, k=10
 --- batch precision, recall, fscore: 0.0 , 0.0 , 0.0
 --- total precision, recall, fscore: 0.018965517241379314 , 0.050013683634373286 , 0.025644038979418506
 ------------------------------------------------- SOFT, k=5
 --- batch precision, recall, fscore: 0.0 , 0.0 , 0.0
 --- total precision, recall, fscore: 0.050843596394205916 , 0.07719829203193923 , 0.057067551455592606
 ------------------------------------------------- SOFT, k=10
 --- batch precision, recall, fscore: 0.0 , 0.0 , 0.0
 --- total precision, recall, fscore: 0.039197455166742716 , 0.11807154170866103 , 0.05507060448687093
 =======================================================