[Source][168]: a novel compound regularization and fast algorithm for compressive sensing deconvolution . compressive sensing deconvolution ( cs deconvolution ) is a new challenge problem encountered in a wide variety of image processing fields . since cs is more efficient for sparse signals , in our scheme , the input image is firstly sparse represented by curvelet frame system then the curvelet coefficients are encoded by a structurally random matrix based cs sampling technique . in order to improve the cs deconvolution performance , a compound variational regularization model , which combined total variation and curvelet based sparsity prior , is proposed to recovery blurred image from compressive measurements . given the compressive measurements , we propose a novel fast algorithm using variable splitting and dual douglasrachford operator splitting methods to produce high quality deblurred results . our method considerably improves the visual quality of cs reconstruction for the given number of random measurements and reduces the decoding computational complexity , compared to the existing cs deconvolution methods . 

Source Input: 
 <s> a novel compound regularization and fast algorithm for compressive sensing deconvolution . compressive sensing deconvolution ( cs deconvolution ) is a new challenge problem encountered in a wide variety of image processing fields . since cs is more efficient for sparse signals , in our scheme , the input image is firstly sparse represented by curvelet frame system then the curvelet coefficients are encoded by a structurally random matrix based cs sampling technique . in order to improve the cs deconvolution performance , a compound variational regularization model , which combined total variation and curvelet based sparsity prior , is proposed to recovery blurred image from compressive measurements . given the compressive measurements , we propose a novel fast algorithm using variable splitting and dual <unk> operator splitting methods to produce high quality <unk> results . our method considerably improves the visual quality of cs reconstruction for the given number of random measurements and reduces the decoding computational complexity , compared to the existing cs deconvolution methods . </s> <pad> <pad> <pad>
Real Target String [4] 
		[['compressive', 'sensing'], ['deconvolution', 'from', 'incomplete', 'measurements'], ['compound', 'regularization'], ['variable', 'splitting']] 
Real Target Input:  
		[['<s>', 'compressive', 'sensing', '</s>'], ['<s>', 'deconvolution', 'from', 'incomplete', 'measurements', '</s>'], ['<s>', 'compound', 'regularization', '</s>'], ['<s>', 'variable', 'splitting', '</s>']] 
Real Target Copy:   
		[['compressive', 'sensing', '</s>'], ['deconvolution', 'from', 'incomplete', 'measurements', '</s>'], ['compound', 'regularization', '</s>'], ['variable', 'splitting', '</s>']] 
[GROUND-TRUTH] #(present)/#(all targets)=3/4
		[compressive sensing]
		deconvolution from incomplete measurements
		[compound regularization]
		[variable splitting]
oov_list:   
		['douglasrachford', 'deblurred'] 
[PREDICTION] #(valid)=119, #(present)=119, #(retained&present)=119, #(all)=119
		[4.8783]	*[registration] 	 [1621, 2] 
		[4.8903]	*[super resolution] 	 [2505, 656, 2] 
		[4.9362]	*[classification] 	 [181, 2] 
		[5.0252]	*[image segmentation] 	 [89, 421, 2] 
		[5.0563]	*[principal component analysis] 	 [1288, 414, 43, 2] 
		[5.1741]	*[face recognition] 	 [515, 255, 2] 
		[5.2463]	*[shape optimization] 	 [334, 95, 2] 
		[5.2956]	*[mri] 	 [2742, 2] 
		[5.3378]	*[imaging] 	 [987, 2] 
		[5.4318]	*[motion estimation] 	 [321, 223, 2] 
		[5.4634]	*[anisotropic diffusion] 	 [2626, 783, 2] 
		[5.6030]	*[icp] 	 [8030, 2] 
		[5.6566]	*[wavelet transform] 	 [615, 547, 2] 
		[5.7601]	*[surface fitting] 	 [317, 1762, 2] 
		[5.8143]	*[image processing] 	 [89, 192, 2] 
		[5.8499]	*[image registration] 	 [89, 1621, 2] 
		[5.9149]	*[image restoration] 	 [89, 2977, 2] 
		[5.9213]	*[image denoising] 	 [89, 2827, 2] 
		[6.0389]	*[computer animation] 	 [157, 1747, 2] 
		[6.1654]	*[deformable models] 	 [2565, 69, 2] 
		[6.1869]	*[feature extraction] 	 [187, 591, 2] 
		[6.2946]	*[surface roughness] 	 [317, 3230, 2] 
		[6.4308]	*[feature selection] 	 [187, 240, 2] 
		[6.4666]	*[active contour] 	 [573, 1832, 2] 
		[6.5271]	*[shape priors] 	 [334, 6145, 2] 
		[6.5465]	*[illumination] 	 [2243, 2] 
		[6.6190]	*[multiresolution analysis] 	 [3276, 43, 2] 
		[6.7624]	*[nuclei recognition] 	 [6272, 255, 2] 
		[6.7624]	*[multiresolution] 	 [3276, 2] 
		[6.7729]	*[image fusion] 	 [89, 1125, 2] 
		[6.7910]	*[adaptive meshing] 	 [194, 6276, 2] 
		[6.8134]	*[image sharpening] 	 [89, 7915, 2] 
		[6.8168]	*[shape] 	 [334, 2] 
		[7.0259]	*[3d] 	 [305, 2] 
		[7.0651]	*[computer aided diagnosis] 	 [157, 2031, 997, 2] 
		[7.2028]	*[feature] 	 [187, 2] 
		[7.3462]	*[surface] 	 [317, 2] 
		[7.3664]	*[motion] 	 [321, 2] 
		[7.5900]	*[level set] 	 [108, 79, 2] 
		[7.5934]	*[level set method] 	 [108, 79, 34, 2] 
		[7.6526]	*[deformable] 	 [2565, 2] 
		[7.7283]	*[3d shape optimization] 	 [305, 334, 95, 2] 
		[7.7334]	*[image] 	 [89, 2] 
		[7.8107]	*[magnetic field] 	 [1047, 236, 2] 
		[7.8563]	*[3d shape] 	 [305, 334, 2] 
		[7.9731]	*[3d ladar scanning] 	 [305, 47817, 2770, 2] 
		[7.9814]	*[3d shape models] 	 [305, 334, 69, 2] 
		[7.9974]	*[nuclei] 	 [6272, 2] 
		[8.0258]	*[volumetric] 	 [3228, 2] 
		[8.1086]	*[wavelet] 	 [615, 2] 
		[8.1810]	*[nonlinear] 	 [271, 2] 
		[8.2657]	*[level of detail] 	 [108, 6, 1332, 2] 
		[8.2928]	*[3d shape analysis] 	 [305, 334, 43, 2] 
		[8.3952]	*[adaptive] 	 [194, 2] 
		[8.8043]	*[face] 	 [515, 2] 
		[8.8756]	*[3d shape correlation] 	 [305, 334, 652, 2] 
		[8.8825]	*[active shape models] 	 [573, 334, 69, 2] 
		[8.9108]	*[3d shape tracking] 	 [305, 334, 480, 2] 
		[8.9126]	*[level] 	 [108, 2] 
		[8.9437]	*[active contour models] 	 [573, 1832, 69, 2] 
		[9.0506]	*[3d shape estimation] 	 [305, 334, 223, 2] 
		[9.0568]	*[3d shape detection] 	 [305, 334, 161, 2] 
		[9.1199]	*[active shape] 	 [573, 334, 2] 
		[9.1236]	*[3d ladar modulation] 	 [305, 47817, 1664, 2] 
		[9.1633]	*[principal component transform] 	 [1288, 414, 547, 2] 
		[9.1710]	*[principal component method] 	 [1288, 414, 34, 2] 
		[9.2859]	*[vector] 	 [310, 2] 
		[9.3016]	*[magnetic field junction] 	 [1047, 236, 4573, 2] 
		[9.3608]	*[3d shape modeling] 	 [305, 334, 148, 2] 
		[9.4262]	*[3d shape segmentation] 	 [305, 334, 421, 2] 
		[9.4624]	*[active contour model] 	 [573, 1832, 30, 2] 
		[9.5220]	*[principal component] 	 [1288, 414, 2] 
		[9.6077]	*[level set methods] 	 [108, 79, 74, 2] 
		[9.6474]	*[sparse] 	 [894, 2] 
		[9.6569]	*[3d shape representation] 	 [305, 334, 309, 2] 
		[9.6969]	*[3d shape model] 	 [305, 334, 30, 2] 
		[9.7236]	*[active shape optimization] 	 [573, 334, 95, 2] 
		[9.7537]	*[3d shape decomposition] 	 [305, 334, 634, 2] 
		[9.8116]	*[active contour detection] 	 [573, 1832, 161, 2] 
		[9.8459]	*[active contour estimation] 	 [573, 1832, 223, 2] 
		[9.8653]	*[3d ladar imaging] 	 [305, 47817, 987, 2] 
		[9.8969]	*[level of detail optimization] 	 [108, 6, 1332, 95, 2] 
		[9.9565]	*[spectral] 	 [874, 2] 
		[10.0585]	*[3d shape vector] 	 [305, 334, 310, 2] 
		[10.5694]	*[active shape vector] 	 [573, 334, 310, 2] 
		[10.6469]	*[magnetic] 	 [1047, 2] 
		[10.7739]	*[active shape vector fields] 	 [573, 334, 310, 842, 2] 
		[10.8553]	*[3d shape vector fields] 	 [305, 334, 310, 842, 2] 
		[10.9529]	*[super resolution image] 	 [2505, 656, 89, 2] 
		[11.0440]	*[3d ladar] 	 [305, 47817, 2] 
		[11.0559]	*[level of detail models] 	 [108, 6, 1332, 69, 2] 
		[11.3412]	*[level of detail algorithms] 	 [108, 6, 1332, 75, 2] 
		[11.3822]	*[level of detail analysis] 	 [108, 6, 1332, 43, 2] 
		[11.4134]	*[level of detail algorithm] 	 [108, 6, 1332, 37, 2] 
		[11.5067]	*[computer aided] 	 [157, 2031, 2] 
		[11.5280]	*[level of detail estimation] 	 [108, 6, 1332, 223, 2] 
		[11.6438]	*[level of detail constraints] 	 [108, 6, 1332, 306, 2] 
		[11.6511]	*[level of detail method] 	 [108, 6, 1332, 34, 2] 
		[11.8085]	*[computer] 	 [157, 2] 
		[11.9171]	*[level of detail system] 	 [108, 6, 1332, 35, 2] 
		[12.0134]	*[super resolution image analysis] 	 [2505, 656, 89, 43, 2] 
		[12.1223]	*[principal component analysis method] 	 [1288, 414, 43, 34, 2] 
		[12.1682]	*[level of detail expansion] 	 [108, 6, 1332, 1386, 2] 
		[12.3690]	*[principal component analysis analysis] 	 [1288, 414, 43, 43, 2] 
		[12.3721]	*[level of detail model] 	 [108, 6, 1332, 30, 2] 
		[12.4351]	*[level of detail processing] 	 [108, 6, 1332, 192, 2] 
		[12.5141]	*[super resolution image segmentation] 	 [2505, 656, 89, 421, 2] 
		[12.5714]	*[3d shape correlation method] 	 [305, 334, 652, 34, 2] 
		[12.6196]	*[level of detail mapping] 	 [108, 6, 1332, 601, 2] 
		[12.6367]	*[level of detail extraction] 	 [108, 6, 1332, 591, 2] 
		[12.6962]	*[level of detail characterization] 	 [108, 6, 1332, 1193, 2] 
		[12.7611]	*[level of detail measure] 	 [108, 6, 1332, 434, 2] 
		[12.8108]	*[principal component analysis algorithms] 	 [1288, 414, 43, 75, 2] 
		[12.8713]	*[3d shape vector mask] 	 [305, 334, 310, 3176, 2] 
		[12.9499]	*[active shape vector field] 	 [573, 334, 310, 236, 2] 
		[13.0050]	*[3d shape vector field] 	 [305, 334, 310, 236, 2] 
		[13.1638]	*[level of detail vector] 	 [108, 6, 1332, 310, 2] 
		[16.3657]	*[principal component analysis and] 	 [1288, 414, 43, 8, 2] 
		[16.6598]	*[principal component analysis in] 	 [1288, 414, 43, 11, 2] 

 =======================================================
 ------------------------------------------------- EXACT, k=5
 --- batch precision, recall, fscore: 0.0 , 0.0 , 0.0
 --- total precision, recall, fscore: 0.02647058823529412 , 0.037333683473389355 , 0.029336478352481817
 ------------------------------------------------- EXACT, k=10
 --- batch precision, recall, fscore: 0.0 , 0.0 , 0.0
 --- total precision, recall, fscore: 0.016544117647058824 , 0.043884220354808594 , 0.02243846763629135
 ------------------------------------------------- SOFT, k=5
 --- batch precision, recall, fscore: 0.0 , 0.0 , 0.0
 --- total precision, recall, fscore: 0.04575630282873617 , 0.0697773831034293 , 0.05156723568392563
 ------------------------------------------------- SOFT, k=10
 --- batch precision, recall, fscore: 0.0 , 0.0 , 0.0
 --- total precision, recall, fscore: 0.03595763336428825 , 0.10850015496077785 , 0.05066162005042541
 =======================================================