[Source][151]: xcsf with local deletion preventing detrimental forgetting . the xcsf classifier system iteratively solves regression problems with a population of overlapping , local approximators . we show that problem solution stability and accuracy may be lost in particular settingsmainly due to xcsfs global deletion . we introduce local deletion , which prevents these detrimental effects to large extents . we show experimentally that local deletion can prevent forgetting in various problemsparticularly where the problem space is non uniformly or non independently sampled . while we use xcsf with hyper ellipsoidal receptive fields and linear approximations herein , local deletion can be applied to any xcs version where locality can be similarly defined . for future work , we propose to apply xcsf with local deletion to unbalanced , non uniformly distributed , locally sampled problems with complex manifold structures , within which varying target error values may be reached selectively . 

Source Input: 
 <s> xcsf with local deletion preventing detrimental forgetting . the xcsf classifier system iteratively solves regression problems with a population of overlapping , local approximators . we show that problem solution stability and accuracy may be lost in particular <unk> due to <unk> global deletion . we introduce local deletion , which prevents these detrimental effects to large extents . we show experimentally that local deletion can prevent forgetting in various <unk> where the problem space is non uniformly or non independently sampled . while we use xcsf with hyper ellipsoidal receptive fields and linear approximations herein , local deletion can be applied to any xcs version where locality can be similarly defined . for future work , we propose to apply xcsf with local deletion to unbalanced , non uniformly distributed , locally sampled problems with complex manifold structures , within which varying target error values may be reached selectively . </s> <pad> <pad> <pad>
Real Target String [5] 
		[['xcsf'], ['function', 'approximation'], ['local', 'deletion'], ['unbalanced', 'problem', 'sampling'], ['manifold']] 
Real Target Input:  
		[['<s>', 'xcsf', '</s>'], ['<s>', 'function', 'approximation', '</s>'], ['<s>', 'local', 'deletion', '</s>'], ['<s>', 'unbalanced', 'problem', 'sampling', '</s>'], ['<s>', 'manifold', '</s>']] 
Real Target Copy:   
		[['xcsf', '</s>'], ['function', 'approximation', '</s>'], ['local', 'deletion', '</s>'], ['unbalanced', 'problem', 'sampling', '</s>'], ['manifold', '</s>']] 
[GROUND-TRUTH] #(present)/#(all targets)=3/5
		[xcsf]
		function approximation
		[local deletion]
		unbalanced problem sampling
		[manifold]
oov_list:   
		['settingsmainly', 'xcsfs', 'problemsparticularly'] 
[PREDICTION] #(valid)=111, #(present)=111, #(retained&present)=111, #(all)=111
		[5.7835]	*[self organized criticality] 	 [339, 2799, 9670, 2] 
		[5.8382]	*[neural network] 	 [184, 52, 2] 
		[5.8565]	*[computer animation] 	 [157, 1747, 2] 
		[5.8661]	*[computational complexity] 	 [201, 211, 2] 
		[6.0761]	*[neural networks] 	 [184, 62, 2] 
		[6.1001]	*[multiple stressors] 	 [125, 14366, 2] 
		[6.1868]	*[convex hull] 	 [881, 3335, 2] 
		[6.3504]	*[non natives] 	 [123, 16916, 2] 
		[6.4133]	*[adaptive meshing] 	 [194, 6276, 2] 
		[6.4914]	*[computer vision] 	 [157, 1051, 2] 
		[6.6683]	*[computational geometry] 	 [201, 937, 2] 
		[6.7091]	*[graph recoloring] 	 [204, 14467, 2] 
		[6.7341]	*[signal processing] 	 [371, 192, 2] 
		[6.8012]	*[self stabilization] 	 [339, 3091, 2] 
		[6.8408]	*[convex optimization] 	 [881, 95, 2] 
		[6.9112]	*[gibbs sampler] 	 [4924, 7571, 2] 
		[6.9142]	*[fuzzy logic] 	 [83, 287, 2] 
		[6.9168]	*[particle swarm optimization] 	 [689, 1313, 95, 2] 
		[6.9189]	*[signal transduction] 	 [371, 8710, 2] 
		[6.9410]	*[multilayer] 	 [3406, 2] 
		[6.9739]	*[random forest] 	 [276, 2846, 2] 
		[6.9942]	*[motion estimation] 	 [321, 223, 2] 
		[7.0728]	*[adaptive] 	 [194, 2] 
		[7.1098]	*[active steering] 	 [573, 5318, 2] 
		[7.1132]	*[finite element method] 	 [163, 257, 34, 2] 
		[7.1306]	*[maximum likelihood] 	 [464, 1191, 2] 
		[7.1936]	*[error correction] 	 [189, 1444, 2] 
		[7.2152]	*[computer aided diagnosis] 	 [157, 2031, 997, 2] 
		[7.2200]	*[self tuned] 	 [339, 3888, 2] 
		[7.3440]	*[multi objective optimization] 	 [100, 349, 95, 2] 
		[7.5110]	*[particle swarm optimizers] 	 [689, 1313, 10752, 2] 
		[7.6157]	*[finite element] 	 [163, 257, 2] 
		[7.8639]	*[3d ladar scanning] 	 [305, 47817, 2770, 2] 
		[7.9490]	*[power] 	 [107, 2] 
		[8.0392]	*[fuzzy logic controllers] 	 [83, 287, 2062, 2] 
		[8.1331]	*[nonlinear] 	 [271, 2] 
		[8.1339]	*[computer aided design] 	 [157, 2031, 50, 2] 
		[8.3105]	*[finite element analysis] 	 [163, 257, 43, 2] 
		[8.4647]	*[finite state machine] 	 [163, 151, 281, 2] 
		[8.4959]	*[finite state machines] 	 [163, 151, 791, 2] 
		[8.6105]	*[mathematical] 	 [743, 2] 
		[8.6334]	*[motion] 	 [321, 2] 
		[8.7293]	*[3d] 	 [305, 2] 
		[8.8831]	*[graph] 	 [204, 2] 
		[8.9016]	*[volumetric] 	 [3228, 2] 
		[9.0609]	*[linear] 	 [109, 2] 
		[9.1425]	*[particle swarm optimisation] 	 [689, 1313, 1629, 2] 
		[9.1452]	*[finite element methods] 	 [163, 257, 74, 2] 
		[9.2710]	*[multi objective optimisation] 	 [100, 349, 1629, 2] 
		[9.4036]	*[fuzzy logic system] 	 [83, 287, 35, 2] 
		[9.4314]	*[fuzzy] 	 [83, 2] 
		[9.4500]	*[neural] 	 [184, 2] 
		[9.4504]	*[maximum likelihood estimation] 	 [464, 1191, 223, 2] 
		[9.4577]	*[quantum] 	 [594, 2] 
		[9.5073]	*[error] 	 [189, 2] 
		[9.5740]	*[3d ladar lasers] 	 [305, 47817, 7545, 2] 
		[9.7023]	*[gibbs] 	 [4924, 2] 
		[9.8440]	*[3d ladar sounds] 	 [305, 47817, 5545, 2] 
		[9.8477]	*[random forest lithography] 	 [276, 2846, 3006, 2] 
		[10.0537]	*[finite state automaton] 	 [163, 151, 2520, 2] 
		[10.0948]	*[signal] 	 [371, 2] 
		[10.2561]	*[computer] 	 [157, 2] 
		[10.2716]	*[finite state] 	 [163, 151, 2] 
		[10.3082]	*[computer aided] 	 [157, 2031, 2] 
		[10.3111]	*[computational complexity of carriers] 	 [201, 211, 6, 5118, 2] 
		[10.3736]	*[particle] 	 [689, 2] 
		[10.3896]	*[two dimensional] 	 [49, 246, 2] 
		[10.5225]	*[maximum likelihood ratio] 	 [464, 1191, 566, 2] 
		[10.5251]	*[convex] 	 [881, 2] 
		[10.5348]	*[active] 	 [573, 2] 
		[10.5442]	*[random] 	 [276, 2] 
		[10.6093]	*[multi objective] 	 [100, 349, 2] 
		[10.6903]	*[two dimensional markov chain] 	 [49, 246, 752, 596, 2] 
		[11.0582]	*[non reflecting stationary set] 	 [123, 4151, 1882, 79, 2] 
		[11.1382]	*[non reflecting markov chain] 	 [123, 4151, 752, 596, 2] 
		[11.2079]	*[computer aided process planning] 	 [157, 2031, 73, 552, 2] 
		[11.2086]	*[non reflecting stationary approximation] 	 [123, 4151, 1882, 320, 2] 
		[11.2763]	*[particle swarm] 	 [689, 1313, 2] 
		[11.2803]	*[3d ladar] 	 [305, 47817, 2] 
		[11.3624]	*[non reflecting stationary] 	 [123, 4151, 1882, 2] 
		[11.6235]	*[non reflecting subgraph] 	 [123, 4151, 3224, 2] 
		[11.6529]	*[non reflecting stationary condition] 	 [123, 4151, 1882, 609, 2] 
		[11.7009]	*[non reflecting stationary logics] 	 [123, 4151, 1882, 2820, 2] 
		[11.8416]	*[self organized] 	 [339, 2799, 2] 
		[12.0859]	*[computer aided process] 	 [157, 2031, 73, 2] 
		[12.2506]	*[non reflecting markov set] 	 [123, 4151, 752, 79, 2] 
		[12.2557]	*[maximum likelihood ratio test] 	 [464, 1191, 566, 164, 2] 
		[12.3133]	*[non reflecting stationary functions] 	 [123, 4151, 1882, 171, 2] 
		[12.3374]	*[computer aided diagnosis system] 	 [157, 2031, 997, 35, 2] 
		[12.3688]	*[non reflecting stationary problems] 	 [123, 4151, 1882, 88, 2] 
		[12.3954]	*[computer aided process engineering] 	 [157, 2031, 73, 416, 2] 
		[12.3976]	*[non reflecting random lemma] 	 [123, 4151, 276, 5598, 2] 
		[12.5184]	*[non reflecting stationary method] 	 [123, 4151, 1882, 34, 2] 
		[12.5681]	*[non reflecting stationary learning] 	 [123, 4151, 1882, 77, 2] 
		[12.6073]	*[non reflecting stationary network] 	 [123, 4151, 1882, 52, 2] 
		[12.6175]	*[non reflecting stationary lemma] 	 [123, 4151, 1882, 5598, 2] 
		[12.6454]	*[non reflecting stationary model] 	 [123, 4151, 1882, 30, 2] 
		[12.6627]	*[finite state multiple output] 	 [163, 151, 125, 481, 2] 
		[12.6803]	*[non reflecting stationary group] 	 [123, 4151, 1882, 288, 2] 
		[12.8029]	*[non reflecting stationary logic] 	 [123, 4151, 1882, 287, 2] 
		[13.1825]	*[non reflecting random neighbor] 	 [123, 4151, 276, 1932, 2] 
		[13.4792]	*[non reflecting markov] 	 [123, 4151, 752, 2] 
		[14.1404]	*[two dimensional markov] 	 [49, 246, 752, 2] 
		[14.4337]	*[convex hull of] 	 [881, 3335, 6, 2] 
		[15.1515]	*[non reflecting random] 	 [123, 4151, 276, 2] 
		[15.5315]	*[computer aided design and] 	 [157, 2031, 50, 8, 2] 
		[15.7584]	*[finite state multiple] 	 [163, 151, 125, 2] 
		[16.2561]	*[non reflecting stationary linear] 	 [123, 4151, 1882, 109, 2] 
		[16.8490]	*[non reflecting stationary decision] 	 [123, 4151, 1882, 173, 2] 
		[17.2796]	*[non reflecting stationary neural] 	 [123, 4151, 1882, 184, 2] 
		[17.9453]	*[non reflecting markov random] 	 [123, 4151, 752, 276, 2] 

 =======================================================
 ------------------------------------------------- EXACT, k=5
 --- batch precision, recall, fscore: 0.0 , 0.0 , 0.0
 --- total precision, recall, fscore: 0.026373626373626377 , 0.037196930054072916 , 0.02922901872481705
 ------------------------------------------------- EXACT, k=10
 --- batch precision, recall, fscore: 0.0 , 0.0 , 0.0
 --- total precision, recall, fscore: 0.016483516483516484 , 0.04372347229490087 , 0.022356275447147425
 ------------------------------------------------- SOFT, k=5
 --- batch precision, recall, fscore: 0.0 , 0.0 , 0.0
 --- total precision, recall, fscore: 0.045588697323869005 , 0.06952178829352663 , 0.05137834471072444
 ------------------------------------------------- SOFT, k=10
 --- batch precision, recall, fscore: 0.0 , 0.0 , 0.0
 --- total precision, recall, fscore: 0.035825920421561915 , 0.10810271849572005 , 0.050476046350607005
 =======================================================