[Source][181]: an analytical kano model for customer need analysis . in an effort to address the inherent deficiencies of traditional kano method , this paper proposes an analytical kano ( a kano ) model with focus on customer need analysis . kano indices in accordance with the kano principles are proposed to incorporate quantitative measures into customer satisfaction . accordingly , two alternative mechanisms are proposed to provide decision support to product design , ( <digit> ) the kano classifiers are used as tangible criteria for categorizing customer needs , and ( <digit> ) the configuration index is introduced as a decision factor of product configuration design . the merit of product configurations is justified using a kano evaluator , which leverages upon both the customer ' s satisfaction and the producer ' s capacity . a case study of dashboard in automotive design is also presented . it is demonstrated that the a kano model can effectively incorporate customer preferences in product design , while leading to an optimal tradeoff between customer ' s satisfaction and producer ' s capacity . 

Source Input: 
 <s> an analytical kano model for customer need analysis . in an effort to address the inherent deficiencies of traditional kano method , this paper proposes an analytical kano ( a kano ) model with focus on customer need analysis . kano indices in accordance with the kano principles are proposed to incorporate quantitative measures into customer satisfaction . accordingly , two alternative mechanisms are proposed to provide decision support to product design , ( <digit> ) the kano classifiers are used as tangible criteria for categorizing customer needs , and ( <digit> ) the configuration index is introduced as a decision factor of product configuration design . the merit of product configurations is justified using a kano evaluator , which leverages upon both the customer ' s satisfaction and the producer ' s capacity . a case study of <unk> in automotive design is also presented . it is demonstrated that the a kano model can effectively incorporate customer preferences in product design , while leading to an optimal tradeoff between customer ' s satisfaction and producer ' s capacity . </s>
Real Target String [5] 
		[['product', 'design'], ['automotive', 'design'], ['perception'], ['evaluation'], ['kano']] 
Real Target Input:  
		[['<s>', 'product', 'design', '</s>'], ['<s>', 'automotive', 'design', '</s>'], ['<s>', 'perception', '</s>'], ['<s>', 'evaluation', '</s>'], ['<s>', 'kano', '</s>']] 
Real Target Copy:   
		[['product', 'design', '</s>'], ['automotive', 'design', '</s>'], ['perception', '</s>'], ['evaluation', '</s>'], ['kano', '</s>']] 
[GROUND-TRUTH] #(present)/#(all targets)=4/5
		[product design]
		[automotive design]
		perception
		[evaluation]
		[kano]
oov_list:   
		['dashboard'] 
[PREDICTION] #(valid)=113, #(present)=113, #(retained&present)=113, #(all)=113
		[4.4614]	*[computer animation] 	 [157, 1747, 2] 
		[4.7117]	*[decision support system] 	 [173, 130, 35, 2] 
		[4.9080]	*[simulation] 	 [93, 2] 
		[5.3503]	*[quality of service] 	 [141, 6, 162, 2] 
		[5.6728]	*[non natives] 	 [123, 16916, 2] 
		[5.7889]	*[decision support systems] 	 [173, 130, 41, 2] 
		[5.8125]	*[computer vision] 	 [157, 1051, 2] 
		[5.8257]	*[decision making] 	 [173, 428, 2] 
		[5.8774]	*[risk assessment] 	 [599, 671, 2] 
		[5.9110]	*[human computer interaction] 	 [252, 157, 253, 2] 
		[5.9980]	*[virtual characters] 	 [312, 2910, 2] 
		[5.9999]	*[multi agent systems] 	 [100, 465, 41, 2] 
		[6.0073]	*[virtual environment] 	 [312, 227, 2] 
		[6.0556]	*[decision support] 	 [173, 130, 2] 
		[6.0842]	*[learning] 	 [77, 2] 
		[6.1249]	*[cellular automata] 	 [940, 1064, 2] 
		[6.2043]	*[knowledge acquisition] 	 [134, 1575, 2] 
		[6.2485]	*[computational complexity] 	 [201, 211, 2] 
		[6.3443]	*[markov chain] 	 [752, 596, 2] 
		[6.3947]	*[system buses] 	 [35, 6434, 2] 
		[6.4602]	*[self stabilization] 	 [339, 3091, 2] 
		[6.4823]	*[virtual reality] 	 [312, 1920, 2] 
		[6.5115]	*[self organization] 	 [339, 1252, 2] 
		[6.5457]	*[cross validation] 	 [628, 905, 2] 
		[6.5849]	*[artificial neural network] 	 [661, 184, 52, 2] 
		[6.5966]	*[model] 	 [30, 2] 
		[6.6230]	*[computer graphics] 	 [157, 1249, 2] 
		[6.6826]	*[decision analysis] 	 [173, 43, 2] 
		[6.7283]	*[multiple stressors] 	 [125, 14366, 2] 
		[6.7925]	*[human robot interaction] 	 [252, 629, 253, 2] 
		[6.8129]	*[multi agent system] 	 [100, 465, 35, 2] 
		[6.8675]	*[intelligent tutoring system] 	 [843, 5669, 35, 2] 
		[6.8756]	*[multi agent] 	 [100, 465, 2] 
		[6.9974]	*[computer aided design] 	 [157, 2031, 50, 2] 
		[7.0140]	*[intelligent tutoring systems] 	 [843, 5669, 41, 2] 
		[7.1270]	*[knowledge based systems] 	 [134, 26, 41, 2] 
		[7.1690]	*[virtual humans] 	 [312, 2830, 2] 
		[7.1892]	*[market] 	 [942, 2] 
		[7.2859]	*[risk] 	 [599, 2] 
		[7.2933]	*[quality] 	 [141, 2] 
		[7.3376]	*[artificial neural networks] 	 [661, 184, 62, 2] 
		[7.4083]	*[markov chain monte carlo] 	 [752, 596, 1225, 1226, 2] 
		[7.5717]	*[power] 	 [107, 2] 
		[7.5953]	*[multi agent simulation] 	 [100, 465, 93, 2] 
		[7.6265]	*[knowledge] 	 [134, 2] 
		[7.6964]	*[decision] 	 [173, 2] 
		[7.7086]	*[computer aided diagnosis] 	 [157, 2031, 997, 2] 
		[7.7688]	*[human motion] 	 [252, 321, 2] 
		[7.8161]	*[knowledge based system] 	 [134, 26, 35, 2] 
		[7.8262]	*[open] 	 [551, 2] 
		[7.8449]	*[intelligent tutoring] 	 [843, 5669, 2] 
		[7.8649]	*[human motion analysis] 	 [252, 321, 43, 2] 
		[7.9011]	*[adaptive] 	 [194, 2] 
		[7.9617]	*[cellular] 	 [940, 2] 
		[7.9634]	*[information] 	 [47, 2] 
		[8.0228]	*[system] 	 [35, 2] 
		[8.0367]	*[human action recognition] 	 [252, 1063, 255, 2] 
		[8.0459]	*[motion] 	 [321, 2] 
		[8.0524]	*[human action] 	 [252, 1063, 2] 
		[8.2452]	*[universal] 	 [1938, 2] 
		[8.2874]	*[human] 	 [252, 2] 
		[8.4960]	*[learning in rank] 	 [77, 11, 1127, 2] 
		[8.5828]	*[computer] 	 [157, 2] 
		[8.6112]	*[multi agent learning] 	 [100, 465, 77, 2] 
		[8.8520]	*[mobile] 	 [198, 2] 
		[8.9619]	*[human computer interface] 	 [252, 157, 319, 2] 
		[9.0293]	*[knowledge based animation] 	 [134, 26, 1747, 2] 
		[9.2161]	*[decision support simulation] 	 [173, 130, 93, 2] 
		[9.2424]	*[quality of testing] 	 [141, 6, 475, 2] 
		[9.2969]	*[electronic] 	 [786, 2] 
		[9.3597]	*[markov] 	 [752, 2] 
		[9.4034]	*[learning in motion] 	 [77, 11, 321, 2] 
		[9.5088]	*[multi agent decision making] 	 [100, 465, 173, 428, 2] 
		[9.5586]	*[human action analysis] 	 [252, 1063, 43, 2] 
		[9.6635]	*[human computer] 	 [252, 157, 2] 
		[9.6692]	*[knowledge based] 	 [134, 26, 2] 
		[9.8531]	*[computer aided] 	 [157, 2031, 2] 
		[9.8656]	*[quality of experience] 	 [141, 6, 717, 2] 
		[9.8696]	*[decision support analysis] 	 [173, 130, 43, 2] 
		[9.9357]	*[digital] 	 [324, 2] 
		[9.9545]	*[human robot] 	 [252, 629, 2] 
		[10.1175]	*[virtual] 	 [312, 2] 
		[10.3340]	*[computer aided process planning] 	 [157, 2031, 73, 552, 2] 
		[10.4256]	*[learning in the loop] 	 [77, 11, 4, 977, 2] 
		[10.5770]	*[visual] 	 [399, 2] 
		[11.0307]	*[intelligent tutoring system design] 	 [843, 5669, 35, 50, 2] 
		[11.0453]	*[intelligent] 	 [843, 2] 
		[11.0932]	*[intelligent tutoring system development] 	 [843, 5669, 35, 155, 2] 
		[11.3965]	*[quality of service metastasis] 	 [141, 6, 162, 9669, 2] 
		[11.4607]	*[intelligent tutoring systems engineering] 	 [843, 5669, 41, 416, 2] 
		[11.5021]	*[decision support system design] 	 [173, 130, 35, 50, 2] 
		[11.5512]	*[quality of service model] 	 [141, 6, 162, 30, 2] 
		[11.6392]	*[decision support system system] 	 [173, 130, 35, 35, 2] 
		[11.7158]	*[artificial neural] 	 [661, 184, 2] 
		[11.7247]	*[decision support system development] 	 [173, 130, 35, 155, 2] 
		[11.8107]	*[quality of service ratio] 	 [141, 6, 162, 566, 2] 
		[11.8185]	*[intelligent tutoring system system] 	 [843, 5669, 35, 35, 2] 
		[11.8408]	*[intelligent tutoring system engineering] 	 [843, 5669, 35, 416, 2] 
		[11.8653]	*[intelligent tutoring system systems] 	 [843, 5669, 35, 41, 2] 
		[11.9868]	*[decision support system systems] 	 [173, 130, 35, 41, 2] 
		[11.9931]	*[computer aided process engineering] 	 [157, 2031, 73, 416, 2] 
		[12.0636]	*[decision support system tool] 	 [173, 130, 35, 295, 2] 
		[12.5811]	*[computer aided process] 	 [157, 2031, 73, 2] 
		[12.6400]	*[learning in the limit] 	 [77, 11, 4, 1278, 2] 
		[13.4137]	*[multi agent decision support] 	 [100, 465, 173, 130, 2] 
		[13.9073]	*[quality of service and] 	 [141, 6, 162, 8, 2] 
		[13.9997]	*[quality of service of] 	 [141, 6, 162, 6, 2] 
		[14.4526]	*[multi agent decision] 	 [100, 465, 173, 2] 
		[14.7456]	*[computer aided design and] 	 [157, 2031, 50, 8, 2] 
		[15.9220]	*[decision support system and] 	 [173, 130, 35, 8, 2] 
		[16.0416]	*[intelligent tutoring system on] 	 [843, 5669, 35, 19, 2] 
		[16.0974]	*[learning in the a] 	 [77, 11, 4, 9, 2] 
		[16.3330]	*[decision support systems and] 	 [173, 130, 41, 8, 2] 

 =======================================================
 ------------------------------------------------- EXACT, k=5
 --- batch precision, recall, fscore: 0.0 , 0.0 , 0.0
 --- total precision, recall, fscore: 0.026181818181818185 , 0.036926406926406925 , 0.029016444043182016
 ------------------------------------------------- EXACT, k=10
 --- batch precision, recall, fscore: 0.0 , 0.0 , 0.0
 --- total precision, recall, fscore: 0.016363636363636365 , 0.043405483405483405 , 0.022193684352986354
 ------------------------------------------------- SOFT, k=5
 --- batch precision, recall, fscore: 0.0 , 0.0 , 0.0
 --- total precision, recall, fscore: 0.04598441588878632 , 0.07022829649987675 , 0.05191377493101008
 ------------------------------------------------- SOFT, k=10
 --- batch precision, recall, fscore: 0.0 , 0.0 , 0.0
 --- total precision, recall, fscore: 0.036232034943320536 , 0.10953873914092384 , 0.051134588862892065
 =======================================================