[Source][113]: complexity of ring morphism problems . we study the complexity of the isomorphism and automorphism problems for finite rings . we show that both integer factorization and graph isomorphism reduce to the problem of counting automorphisms of a ring . this counting problem is shown to be in the functional version of the complexity class am boolean and coam and hence is not np complete unless the polynomial hierarchy collapses . as a positive result we show that deciding whether a given ring has a non trivial automorphism can be done in deterministic polynomial time . finding such an automorphism is , however , shown to be randomly equivalent to integer factorization . 

Source Input: 
 <s> complexity of ring morphism problems . we study the complexity of the isomorphism and automorphism problems for finite rings . we show that both integer factorization and graph isomorphism reduce to the problem of counting automorphisms of a ring . this counting problem is shown to be in the functional version of the complexity class am boolean and <unk> and hence is not np complete unless the polynomial hierarchy collapses . as a positive result we show that deciding whether a given ring has a non trivial automorphism can be done in deterministic polynomial time . finding such an automorphism is , however , shown to be randomly equivalent to integer factorization . </s> <pad> <pad> <pad>
Real Target String [6] 
		[['ring'], ['isomorphism'], ['automorphism'], ['polynomial', 'hierarchy'], ['graph', 'isomorphism'], ['integer', 'factorization']] 
Real Target Input:  
		[['<s>', 'ring', '</s>'], ['<s>', 'isomorphism', '</s>'], ['<s>', 'automorphism', '</s>'], ['<s>', 'polynomial', 'hierarchy', '</s>'], ['<s>', 'graph', 'isomorphism', '</s>'], ['<s>', 'integer', 'factorization', '</s>']] 
Real Target Copy:   
		[['ring', '</s>'], ['isomorphism', '</s>'], ['automorphism', '</s>'], ['polynomial', 'hierarchy', '</s>'], ['graph', 'isomorphism', '</s>'], ['integer', 'factorization', '</s>']] 
[GROUND-TRUTH] #(present)/#(all targets)=6/6
		[ring]
		[isomorphism]
		[automorphism]
		[polynomial hierarchy]
		[graph isomorphism]
		[integer factorization]
oov_list:   
		['coam'] 
[PREDICTION] #(valid)=110, #(present)=110, #(retained&present)=110, #(all)=110
		[4.0040]	*[genetic algorithm] 	 [340, 37, 2] 
		[4.5941]	*[neural network] 	 [184, 52, 2] 
		[4.6549]	*[genetic algorithms] 	 [340, 75, 2] 
		[4.6820]	*[neural networks] 	 [184, 62, 2] 
		[5.1426]	*[fptas] 	 [15001, 2] 
		[5.3346]	*[particle swarm optimization] 	 [689, 1313, 95, 2] 
		[5.4852]	*[optimization] 	 [95, 2] 
		[5.5592]	*[markov random fields] 	 [752, 276, 842, 2] 
		[5.5853]	*[scheduling] 	 [263, 2] 
		[5.6038]	*[graph recoloring] 	 [204, 14467, 2] 
		[5.6169]	*[evolutionary algorithm] 	 [611, 37, 2] 
		[5.6228]	*[tracking] 	 [480, 2] 
		[5.7296]	*[uncertainty] 	 [685, 2] 
		[5.8119]	*[fuzzy logic] 	 [83, 287, 2] 
		[5.8986]	*[evolutionary algorithms] 	 [611, 75, 2] 
		[5.9207]	*[decision making] 	 [173, 428, 2] 
		[5.9558]	*[approximation algorithms] 	 [320, 75, 2] 
		[6.1059]	*[fuzzy set] 	 [83, 79, 2] 
		[6.1741]	*[computational complexity] 	 [201, 211, 2] 
		[6.1822]	*[gibbs sampler] 	 [4924, 7571, 2] 
		[6.2051]	*[markov chain monte carlo] 	 [752, 596, 1225, 1226, 2] 
		[6.2444]	*[decision support system] 	 [173, 130, 35, 2] 
		[6.2793]	*[graph coloring] 	 [204, 2300, 2] 
		[6.3422]	*[graph algorithms] 	 [204, 75, 2] 
		[6.4123]	*[multi objective optimization] 	 [100, 349, 95, 2] 
		[6.4158]	*[gibbs sampling] 	 [4924, 711, 2] 
		[6.4421]	*[convex optimization] 	 [881, 95, 2] 
		[6.4447]	*[adaptive control] 	 [194, 66, 2] 
		[6.5418]	*[convex hull] 	 [881, 3335, 2] 
		[6.5441]	*[artificial neural network] 	 [661, 184, 52, 2] 
		[6.5624]	*[particle swarm optimizers] 	 [689, 1313, 10752, 2] 
		[6.6599]	*[fuzzy logic controllers] 	 [83, 287, 2062, 2] 
		[6.6842]	*[approximation] 	 [320, 2] 
		[6.7217]	*[approximation algorithm] 	 [320, 37, 2] 
		[6.8244]	*[artificial neural networks] 	 [661, 184, 62, 2] 
		[6.8550]	*[markov chain] 	 [752, 596, 2] 
		[6.9267]	*[adaptive algorithms] 	 [194, 75, 2] 
		[6.9907]	*[adaptive meshing] 	 [194, 6276, 2] 
		[7.1136]	*[linear discriminant analysis] 	 [109, 1785, 43, 2] 
		[7.2210]	*[many objective optimization] 	 [149, 349, 95, 2] 
		[7.4630]	*[artificial bee colony optimization] 	 [661, 5922, 2614, 95, 2] 
		[7.6866]	*[adaptive] 	 [194, 2] 
		[7.8303]	*[particle swarm optimisation] 	 [689, 1313, 1629, 2] 
		[7.8547]	*[graph] 	 [204, 2] 
		[7.9566]	*[decision support systems] 	 [173, 130, 41, 2] 
		[8.1455]	*[fuzzy logic system] 	 [83, 287, 35, 2] 
		[8.4806]	*[decision] 	 [173, 2] 
		[8.4900]	*[markov random field] 	 [752, 276, 236, 2] 
		[8.5652]	*[artificial bee colony algorithm] 	 [661, 5922, 2614, 37, 2] 
		[8.5782]	*[multi objective optimisation] 	 [100, 349, 1629, 2] 
		[8.6375]	*[fuzzy logic systems] 	 [83, 287, 41, 2] 
		[8.6440]	*[decision support] 	 [173, 130, 2] 
		[8.8700]	*[fuzzy logic programming] 	 [83, 287, 160, 2] 
		[8.9348]	*[neural] 	 [184, 2] 
		[9.1024]	*[neural network analysis] 	 [184, 52, 43, 2] 
		[9.1632]	*[stochastic] 	 [529, 2] 
		[9.2508]	*[evolutionary] 	 [611, 2] 
		[9.2956]	*[fuzzy random fields] 	 [83, 276, 842, 2] 
		[9.3290]	*[neural network models] 	 [184, 52, 69, 2] 
		[9.3471]	*[neural network model] 	 [184, 52, 30, 2] 
		[9.3695]	*[markov] 	 [752, 2] 
		[9.3957]	*[fuzzy random forest] 	 [83, 276, 2846, 2] 
		[9.4184]	*[neural network algorithm] 	 [184, 52, 37, 2] 
		[9.4747]	*[soft] 	 [1048, 2] 
		[9.4882]	*[neural network estimation] 	 [184, 52, 223, 2] 
		[9.4998]	*[multi objective evolutionary algorithm] 	 [100, 349, 611, 37, 2] 
		[9.5707]	*[bayesian] 	 [824, 2] 
		[9.6001]	*[genetic] 	 [340, 2] 
		[9.6696]	*[fuzzy logic controller] 	 [83, 287, 767, 2] 
		[9.7228]	*[fuzzy random neighbor] 	 [83, 276, 1932, 2] 
		[9.7432]	*[artificial bee colony system] 	 [661, 5922, 2614, 35, 2] 
		[9.7440]	*[linear] 	 [109, 2] 
		[9.9086]	*[gibbs] 	 [4924, 2] 
		[10.0093]	*[artificial bee colony] 	 [661, 5922, 2614, 2] 
		[10.0238]	*[particle swarm neural network] 	 [689, 1313, 184, 52, 2] 
		[10.0276]	*[particle swarm neural networks] 	 [689, 1313, 184, 62, 2] 
		[10.1504]	*[financial] 	 [2020, 2] 
		[10.1825]	*[particle swarm] 	 [689, 1313, 2] 
		[10.2069]	*[particle] 	 [689, 2] 
		[10.2418]	*[linear discriminant] 	 [109, 1785, 2] 
		[10.4465]	*[artificial bee colony programming] 	 [661, 5922, 2614, 160, 2] 
		[10.4670]	*[artificial bee colony optimisation] 	 [661, 5922, 2614, 1629, 2] 
		[10.5374]	*[artificial bee colony systems] 	 [661, 5922, 2614, 41, 2] 
		[10.7196]	*[multi objective evolutionary algorithms] 	 [100, 349, 611, 75, 2] 
		[10.8172]	*[particle swarm optimization algorithm] 	 [689, 1313, 95, 37, 2] 
		[10.8501]	*[multi objective] 	 [100, 349, 2] 
		[11.0980]	*[artificial bee colony optimizers] 	 [661, 5922, 2614, 10752, 2] 
		[11.3594]	*[artificial bee colony learning] 	 [661, 5922, 2614, 77, 2] 
		[11.4661]	*[artificial bee colony robot] 	 [661, 5922, 2614, 629, 2] 
		[11.4762]	*[artificial bee colony networks] 	 [661, 5922, 2614, 62, 2] 
		[11.5348]	*[particle swarm optimization algorithms] 	 [689, 1313, 95, 75, 2] 
		[11.7341]	*[multi objective evolutionary optimization] 	 [100, 349, 611, 95, 2] 
		[11.8309]	*[multi objective optimization algorithm] 	 [100, 349, 95, 37, 2] 
		[11.8925]	*[markov random field model] 	 [752, 276, 236, 30, 2] 
		[11.9054]	*[artificial bee colony algorithms] 	 [661, 5922, 2614, 75, 2] 
		[11.9241]	*[multi objective optimization algorithms] 	 [100, 349, 95, 75, 2] 
		[11.9336]	*[artificial neural] 	 [661, 184, 2] 
		[12.0694]	*[artificial bee colony network] 	 [661, 5922, 2614, 52, 2] 
		[12.1399]	*[particle swarm optimization problem] 	 [689, 1313, 95, 44, 2] 
		[12.1644]	*[fuzzy random forest model] 	 [83, 276, 2846, 30, 2] 
		[12.3426]	*[many objective] 	 [149, 349, 2] 
		[12.4445]	*[multi objective evolutionary] 	 [100, 349, 611, 2] 
		[12.5978]	*[markov random] 	 [752, 276, 2] 
		[13.2099]	*[artificial bee] 	 [661, 5922, 2] 
		[15.4122]	*[particle swarm neural] 	 [689, 1313, 184, 2] 
		[15.4244]	*[markov random fields and] 	 [752, 276, 842, 8, 2] 
		[16.3029]	*[neural networks and fuzzy] 	 [184, 62, 8, 83, 2] 
		[16.3794]	*[fuzzy logic of fuzzy] 	 [83, 287, 6, 83, 2] 
		[17.1113]	*[fuzzy logic of neural] 	 [83, 287, 6, 184, 2] 
		[17.7613]	*[artificial bee colony neural] 	 [661, 5922, 2614, 184, 2] 

 =======================================================
 ------------------------------------------------- EXACT, k=5
 --- batch precision, recall, fscore: 0.0 , 0.0 , 0.0
 --- total precision, recall, fscore: 0.024657534246575342 , 0.03477658186562296 , 0.02732713052012005
 ------------------------------------------------- EXACT, k=10
 --- batch precision, recall, fscore: 0.0 , 0.0 , 0.0
 --- total precision, recall, fscore: 0.015410958904109588 , 0.040878451837355945 , 0.020901586291339886
 ------------------------------------------------- SOFT, k=5
 --- batch precision, recall, fscore: 0.0 , 0.0 , 0.0
 --- total precision, recall, fscore: 0.04353555150023878 , 0.06636797330862874 , 0.04911970813247006
 ------------------------------------------------- SOFT, k=10
 --- batch precision, recall, fscore: 0.03333333432674408 , 0.055555557211240135 , 0.041666667908430106
 --- total precision, recall, fscore: 0.034864644798105714 , 0.10472160558186984 , 0.049159151580427426
 =======================================================