[Source][193]: an implementation and optimization for scalable dht crawler . kad is one of the largest scale dht based on real applications . measurements on kad is a good approach for researching dht . many different active and passive measurements have been made on those systems , and crawlers are novel approach in active measurement . a crawler begins crawling into the dht with a basic set of given nodes , sending node searching requests to the nodes in the given set for contact information from more unknown nodes . there are three goals in mind while we design the crawler finishing crawling the given nodes set as soon as possible retrieving more nodes information after the crawling getting result while sending as few network packets as possible . the above goals are correlated with each other . optimizing one may impact others . this paper proposes a basic dht crawler framework and discusses possible extension to the framework . after that we exploit the fact that the connectivity in the overlay network is universality , thus we do not need to crawl the whole overlay network space while maintaining the crawling affect . 

Source Input: 
 <s> an implementation and optimization for scalable dht crawler . kad is one of the largest scale dht based on real applications . measurements on kad is a good approach for researching dht . many different active and passive measurements have been made on those systems , and crawlers are novel approach in active measurement . a crawler begins crawling into the dht with a basic set of given nodes , sending node searching requests to the nodes in the given set for contact information from more unknown nodes . there are three goals in mind while we design the crawler finishing crawling the given nodes set as soon as possible retrieving more nodes information after the crawling getting result while sending as few network packets as possible . the above goals are correlated with each other . optimizing one may impact others . this paper proposes a basic dht crawler framework and discusses possible extension to the framework . after that we exploit the fact that the connectivity in the overlay network is universality , thus we do not need to crawl the whole overlay network space while maintaining the crawling affect . </s> <pad> <pad> <pad>
Real Target String [3] 
		[['dht'], ['crawler'], ['network', 'measurements']] 
Real Target Input:  
		[['<s>', 'dht', '</s>'], ['<s>', 'crawler', '</s>'], ['<s>', 'network', 'measurements', '</s>']] 
Real Target Copy:   
		[['dht', '</s>'], ['crawler', '</s>'], ['network', 'measurements', '</s>']] 
[GROUND-TRUTH] #(present)/#(all targets)=2/3
		[dht]
		[crawler]
		network measurements
oov_list:   
		[] 
[PREDICTION] #(valid)=116, #(present)=116, #(retained&present)=116, #(all)=116
		[4.7520]	*[simulation] 	 [93, 2] 
		[4.9350]	*[multi agent systems] 	 [100, 465, 41, 2] 
		[5.2500]	*[decision support system] 	 [173, 130, 35, 2] 
		[5.3966]	*[scheduling] 	 [263, 2] 
		[5.4525]	*[computer animation] 	 [157, 1747, 2] 
		[5.5337]	*[decidability] 	 [5187, 2] 
		[5.6474]	*[reliability] 	 [542, 2] 
		[5.6767]	*[quality of service] 	 [141, 6, 162, 2] 
		[5.8202]	*[genetic algorithm] 	 [340, 37, 2] 
		[5.9713]	*[genetic algorithms] 	 [340, 75, 2] 
		[6.0192]	*[qos] 	 [769, 2] 
		[6.0402]	*[decision support systems] 	 [173, 130, 41, 2] 
		[6.1208]	*[knowledge acquisition] 	 [134, 1575, 2] 
		[6.1224]	*[multi agent system] 	 [100, 465, 35, 2] 
		[6.1959]	*[performance] 	 [45, 2] 
		[6.2103]	*[decision making] 	 [173, 428, 2] 
		[6.2551]	*[intelligent tutoring systems] 	 [843, 5669, 41, 2] 
		[6.2795]	*[software engineering] 	 [98, 416, 2] 
		[6.3626]	*[collaborative filtering] 	 [682, 800, 2] 
		[6.3889]	*[automotive] 	 [4190, 2] 
		[6.4041]	*[model] 	 [30, 2] 
		[6.4762]	*[risk assessment] 	 [599, 671, 2] 
		[6.4929]	*[markov chain] 	 [752, 596, 2] 
		[6.5749]	*[multi agent] 	 [100, 465, 2] 
		[6.5861]	*[learning] 	 [77, 2] 
		[6.6136]	*[model checking] 	 [30, 1069, 2] 
		[6.6846]	*[decision support] 	 [173, 130, 2] 
		[6.6850]	*[collaborative learning] 	 [682, 77, 2] 
		[6.6953]	*[intelligent tutoring system] 	 [843, 5669, 35, 2] 
		[6.7918]	*[system buses] 	 [35, 6434, 2] 
		[6.8147]	*[distributed systems] 	 [156, 41, 2] 
		[6.8220]	*[knowledge representation] 	 [134, 309, 2] 
		[6.8351]	*[multi homing] 	 [100, 9450, 2] 
		[6.9059]	*[performance evaluation] 	 [45, 172, 2] 
		[6.9899]	*[knowledge based systems] 	 [134, 26, 41, 2] 
		[7.0027]	*[multi agent simulation] 	 [100, 465, 93, 2] 
		[7.0243]	*[distributed] 	 [156, 2] 
		[7.1461]	*[model driven engineering] 	 [30, 655, 416, 2] 
		[7.2023]	*[computer graphics] 	 [157, 1249, 2] 
		[7.2264]	*[information retrieval] 	 [47, 323, 2] 
		[7.2355]	*[computer vision] 	 [157, 1051, 2] 
		[7.2366]	*[real time] 	 [102, 38, 2] 
		[7.2837]	*[task scheduling] 	 [294, 263, 2] 
		[7.5067]	*[quality] 	 [141, 2] 
		[7.5707]	*[network] 	 [52, 2] 
		[7.6107]	*[power] 	 [107, 2] 
		[7.6149]	*[markov chain monte carlo] 	 [752, 596, 1225, 1226, 2] 
		[7.6155]	*[real time systems] 	 [102, 38, 41, 2] 
		[7.6725]	*[adaptive] 	 [194, 2] 
		[7.7511]	*[intelligent tutoring] 	 [843, 5669, 2] 
		[7.8202]	*[knowledge] 	 [134, 2] 
		[7.8232]	*[software] 	 [98, 2] 
		[7.8371]	*[knowledge based system] 	 [134, 26, 35, 2] 
		[7.8516]	*[computer aided design] 	 [157, 2031, 50, 2] 
		[7.9767]	*[multi objective optimization] 	 [100, 349, 95, 2] 
		[7.9899]	*[asynchronous] 	 [1869, 2] 
		[8.0081]	*[task] 	 [294, 2] 
		[8.1831]	*[risk] 	 [599, 2] 
		[8.1886]	*[business] 	 [541, 2] 
		[8.2497]	*[real time simulation] 	 [102, 38, 93, 2] 
		[8.3312]	*[decision] 	 [173, 2] 
		[8.3908]	*[business process re engineering] 	 [541, 73, 1222, 416, 2] 
		[8.4436]	*[model based testing] 	 [30, 26, 475, 2] 
		[8.4532]	*[real time animation] 	 [102, 38, 1747, 2] 
		[8.4961]	*[real time system] 	 [102, 38, 35, 2] 
		[8.5585]	*[business process modeling] 	 [541, 73, 148, 2] 
		[8.6700]	*[computer aided diagnosis] 	 [157, 2031, 997, 2] 
		[8.7020]	*[multi agent learning] 	 [100, 465, 77, 2] 
		[8.7765]	*[system] 	 [35, 2] 
		[8.7908]	*[real time scheduling] 	 [102, 38, 263, 2] 
		[8.8174]	*[collaborative] 	 [682, 2] 
		[8.9554]	*[mobile] 	 [198, 2] 
		[8.9721]	*[real time processing] 	 [102, 38, 192, 2] 
		[9.0188]	*[real time rendering] 	 [102, 38, 1243, 2] 
		[9.0323]	*[multi objective programming] 	 [100, 349, 160, 2] 
		[9.0941]	*[information] 	 [47, 2] 
		[9.1470]	*[markov] 	 [752, 2] 
		[9.2214]	*[multi agent applications] 	 [100, 465, 92, 2] 
		[9.2524]	*[multi agent decision making] 	 [100, 465, 173, 428, 2] 
		[9.3459]	*[computer] 	 [157, 2] 
		[9.4307]	*[model driven development] 	 [30, 655, 155, 2] 
		[9.4836]	*[genetic] 	 [340, 2] 
		[9.5221]	*[multi user] 	 [100, 103, 2] 
		[9.6962]	*[model based design] 	 [30, 26, 50, 2] 
		[9.9142]	*[business process] 	 [541, 73, 2] 
		[10.0830]	*[intelligent tutoring systems engineering] 	 [843, 5669, 41, 416, 2] 
		[10.0869]	*[multi agent communication] 	 [100, 465, 180, 2] 
		[10.1627]	*[knowledge based] 	 [134, 26, 2] 
		[10.1771]	*[multi objective] 	 [100, 349, 2] 
		[10.3324]	*[intelligent tutoring system design] 	 [843, 5669, 35, 50, 2] 
		[10.4604]	*[intelligent tutoring system development] 	 [843, 5669, 35, 155, 2] 
		[10.9141]	*[intelligent tutoring system engineering] 	 [843, 5669, 35, 416, 2] 
		[10.9420]	*[computer aided] 	 [157, 2031, 2] 
		[10.9565]	*[intelligent tutoring system systems] 	 [843, 5669, 35, 41, 2] 
		[11.0582]	*[model based] 	 [30, 26, 2] 
		[11.0605]	*[multi agent systems engineering] 	 [100, 465, 41, 416, 2] 
		[11.1553]	*[multi agent communication systems] 	 [100, 465, 180, 41, 2] 
		[11.1631]	*[intelligent tutoring systems systems] 	 [843, 5669, 41, 41, 2] 
		[11.2627]	*[multi agent systems design] 	 [100, 465, 41, 50, 2] 
		[11.4027]	*[intelligent tutoring systems planning] 	 [843, 5669, 41, 552, 2] 
		[11.4396]	*[multi agent system design] 	 [100, 465, 35, 50, 2] 
		[11.4468]	*[intelligent tutoring system system] 	 [843, 5669, 35, 35, 2] 
		[11.4824]	*[intelligent] 	 [843, 2] 
		[11.4936]	*[intelligent tutoring systems design] 	 [843, 5669, 41, 50, 2] 
		[11.5078]	*[multi agent systems optimization] 	 [100, 465, 41, 95, 2] 
		[11.5719]	*[multi agent communication system] 	 [100, 465, 180, 35, 2] 
		[11.5764]	*[intelligent tutoring systems development] 	 [843, 5669, 41, 155, 2] 
		[11.5890]	*[quality of service model] 	 [141, 6, 162, 30, 2] 
		[11.5973]	*[model driven] 	 [30, 655, 2] 
		[11.6111]	*[intelligent tutoring systems system] 	 [843, 5669, 41, 35, 2] 
		[11.6483]	*[real] 	 [102, 2] 
		[14.4152]	*[multi agent decision] 	 [100, 465, 173, 2] 
		[14.6256]	*[quality of service and] 	 [141, 6, 162, 8, 2] 
		[15.1686]	*[quality of service of] 	 [141, 6, 162, 6, 2] 
		[15.5185]	*[computer aided design and] 	 [157, 2031, 50, 8, 2] 
		[16.2255]	*[intelligent tutoring system on] 	 [843, 5669, 35, 19, 2] 

 =======================================================
 ------------------------------------------------- EXACT, k=5
 --- batch precision, recall, fscore: 0.0 , 0.0 , 0.0
 --- total precision, recall, fscore: 0.02440677966101695 , 0.034422921711057305 , 0.02704922749788154
 ------------------------------------------------- EXACT, k=10
 --- batch precision, recall, fscore: 0.0 , 0.0 , 0.0
 --- total precision, recall, fscore: 0.015254237288135594 , 0.04046273876782351 , 0.02068902778668219
 ------------------------------------------------- SOFT, k=5
 --- batch precision, recall, fscore: 0.0 , 0.0 , 0.0
 --- total precision, recall, fscore: 0.04309281707820246 , 0.0656930447665071 , 0.04862018567688562
 ------------------------------------------------- SOFT, k=10
 --- batch precision, recall, fscore: 0.0 , 0.0 , 0.0
 --- total precision, recall, fscore: 0.03451008908829447 , 0.10365664010137625 , 0.04865922800503325
 =======================================================