[Source][160]: transient stability assessment of systems comprising phase shifting facts devices by direct methods . in this paper the concept of a control lyapunov function is used to develop control strategies for thyristor controlled phase shifting transformers ( tcpsts ) . two typical representatives of tcpsts were chosen for consideration a quadrature boosting transformer ( qbt ) and a phase angle regulator ( par ) . for the case of the qbt we showed that the proposed control law can significantly improve the large signal stability in comparison to the control law based on the traditionally used injection model proposed in various references . even if the system parameters are estimated very roughly , our proposed strategy gives better results than the traditional strategy . also , some novel energy functions , which consider the action of an optimally controlled tcpst in a single machine infinite bus ( smib ) system , are presented and validated by a numerical example . 

Source Input: 
 <s> transient stability assessment of systems comprising phase shifting facts devices by direct methods . in this paper the concept of a control lyapunov function is used to develop control strategies for thyristor controlled phase shifting transformers ( <unk> ) . two typical representatives of <unk> were chosen for consideration a quadrature boosting transformer ( <unk> ) and a phase angle regulator ( par ) . for the case of the <unk> we showed that the proposed control law can significantly improve the large signal stability in comparison to the control law based on the traditionally used injection model proposed in various references . even if the system parameters are estimated very roughly , our proposed strategy gives better results than the traditional strategy . also , some novel energy functions , which consider the action of an optimally controlled <unk> in a single machine infinite bus ( smib ) system , are presented and validated by a numerical example . </s> <pad> <pad> <pad>
Real Target String [4] 
		[['thyristor', 'controlled', 'phase', 'shifting', 'transformer'], ['control', 'strategy'], ['energy', 'function'], ['direct', 'method']] 
Real Target Input:  
		[['<s>', 'thyristor', 'controlled', 'phase', 'shifting', 'transformer', '</s>'], ['<s>', 'control', 'strategy', '</s>'], ['<s>', 'energy', 'function', '</s>'], ['<s>', 'direct', 'method', '</s>']] 
Real Target Copy:   
		[['thyristor', 'controlled', 'phase', 'shifting', 'transformer', '</s>'], ['control', 'strategy', '</s>'], ['energy', 'function', '</s>'], ['direct', 'method', '</s>']] 
[GROUND-TRUTH] #(present)/#(all targets)=4/4
		[thyristor controlled phase shifting transformer]
		[control strategy]
		[energy function]
		[direct method]
oov_list:   
		['tcpsts', 'qbt', 'tcpst'] 
[PREDICTION] #(valid)=111, #(present)=111, #(retained&present)=111, #(all)=111
		[5.9629]	*[neural network] 	 [184, 52, 2] 
		[6.0390]	*[computer animation] 	 [157, 1747, 2] 
		[6.0852]	*[neural networks] 	 [184, 62, 2] 
		[6.0960]	*[mri] 	 [2742, 2] 
		[6.1628]	*[genetic algorithm] 	 [340, 37, 2] 
		[6.2817]	*[finite element method] 	 [163, 257, 34, 2] 
		[6.3102]	*[adaptive meshing] 	 [194, 6276, 2] 
		[6.3637]	*[super resolution] 	 [2505, 656, 2] 
		[6.4932]	*[non natives] 	 [123, 16916, 2] 
		[6.4950]	*[genetic algorithms] 	 [340, 75, 2] 
		[6.5841]	*[self organized criticality] 	 [339, 2799, 9670, 2] 
		[6.5939]	*[anisotropic diffusion] 	 [2626, 783, 2] 
		[6.6313]	*[finite elements] 	 [163, 477, 2] 
		[6.6721]	*[computational complexity] 	 [201, 211, 2] 
		[6.7122]	*[bzier curves] 	 [7307, 1316, 2] 
		[6.7959]	*[computer vision] 	 [157, 1051, 2] 
		[6.8948]	*[signal processing] 	 [371, 192, 2] 
		[6.9047]	*[motion estimation] 	 [321, 223, 2] 
		[7.0390]	*[finite element] 	 [163, 257, 2] 
		[7.0481]	*[computational geometry] 	 [201, 937, 2] 
		[7.0707]	*[signal transduction] 	 [371, 8710, 2] 
		[7.0770]	*[computer aided diagnosis] 	 [157, 2031, 997, 2] 
		[7.0957]	*[structure] 	 [143, 2] 
		[7.1389]	*[active steering] 	 [573, 5318, 2] 
		[7.1556]	*[volumetric details] 	 [3228, 1692, 2] 
		[7.1597]	*[multilayer] 	 [3406, 2] 
		[7.1659]	*[shape priors] 	 [334, 6145, 2] 
		[7.2483]	*[fuzzy logic] 	 [83, 287, 2] 
		[7.3089]	*[bzier curve] 	 [7307, 1014, 2] 
		[7.3276]	*[particle swarm optimization] 	 [689, 1313, 95, 2] 
		[7.3354]	*[pearson correlation] 	 [7209, 652, 2] 
		[7.3956]	*[active contour] 	 [573, 1832, 2] 
		[7.4515]	*[structure from motion] 	 [143, 32, 321, 2] 
		[7.5117]	*[3d ladar scanning] 	 [305, 47817, 2770, 2] 
		[7.5800]	*[adaptive] 	 [194, 2] 
		[7.6412]	*[finite element analysis] 	 [163, 257, 43, 2] 
		[7.6934]	*[multi objective optimization] 	 [100, 349, 95, 2] 
		[7.9383]	*[power] 	 [107, 2] 
		[7.9557]	*[particle swarm optimizers] 	 [689, 1313, 10752, 2] 
		[8.0290]	*[nonlinear] 	 [271, 2] 
		[8.2222]	*[computer aided design] 	 [157, 2031, 50, 2] 
		[8.2938]	*[3d] 	 [305, 2] 
		[8.3058]	*[shape] 	 [334, 2] 
		[8.3664]	*[finite element methods] 	 [163, 257, 74, 2] 
		[8.4538]	*[fuzzy logic controllers] 	 [83, 287, 2062, 2] 
		[8.5956]	*[motion] 	 [321, 2] 
		[8.9056]	*[volumetric] 	 [3228, 2] 
		[9.0329]	*[mathematical] 	 [743, 2] 
		[9.0455]	*[confidence] 	 [1770, 2] 
		[9.2419]	*[neural] 	 [184, 2] 
		[9.2436]	*[bzier] 	 [7307, 2] 
		[9.3209]	*[3d ladar lasers] 	 [305, 47817, 7545, 2] 
		[9.4823]	*[particle swarm optimisation] 	 [689, 1313, 1629, 2] 
		[9.5328]	*[active contour models] 	 [573, 1832, 69, 2] 
		[9.7604]	*[3d ladar modulation] 	 [305, 47817, 1664, 2] 
		[9.7780]	*[multi objective optimisation] 	 [100, 349, 1629, 2] 
		[9.7978]	*[fuzzy logic system] 	 [83, 287, 35, 2] 
		[9.9310]	*[3d ladar sounds] 	 [305, 47817, 5545, 2] 
		[9.9760]	*[active contour model] 	 [573, 1832, 30, 2] 
		[10.0280]	*[fuzzy] 	 [83, 2] 
		[10.0736]	*[gibbs] 	 [4924, 2] 
		[10.1092]	*[3d ladar mask] 	 [305, 47817, 3176, 2] 
		[10.1935]	*[signal] 	 [371, 2] 
		[10.2386]	*[finite element modeling] 	 [163, 257, 148, 2] 
		[10.2560]	*[finite element model] 	 [163, 257, 30, 2] 
		[10.3194]	*[neural network analysis] 	 [184, 52, 43, 2] 
		[10.3649]	*[3d ladar operation] 	 [305, 47817, 610, 2] 
		[10.3957]	*[3d ladar lithography] 	 [305, 47817, 3006, 2] 
		[10.4675]	*[particle] 	 [689, 2] 
		[10.5215]	*[computer aided] 	 [157, 2031, 2] 
		[10.6274]	*[pearson] 	 [7209, 2] 
		[10.8852]	*[active] 	 [573, 2] 
		[11.0550]	*[non reflecting markov chain] 	 [123, 4151, 752, 596, 2] 
		[11.0598]	*[non reflecting stationary logics] 	 [123, 4151, 1882, 2820, 2] 
		[11.0829]	*[genetic] 	 [340, 2] 
		[11.0884]	*[computer] 	 [157, 2] 
		[11.1566]	*[3d ladar] 	 [305, 47817, 2] 
		[11.2221]	*[multi objective] 	 [100, 349, 2] 
		[11.4673]	*[non reflecting stationary set] 	 [123, 4151, 1882, 79, 2] 
		[11.5300]	*[non reflecting stationary condition] 	 [123, 4151, 1882, 609, 2] 
		[11.5422]	*[computer aided process planning] 	 [157, 2031, 73, 552, 2] 
		[11.5593]	*[non reflecting stationary approximation] 	 [123, 4151, 1882, 320, 2] 
		[11.5815]	*[non reflecting stationary] 	 [123, 4151, 1882, 2] 
		[11.6700]	*[non reflecting stationary decomposition] 	 [123, 4151, 1882, 634, 2] 
		[11.7090]	*[non reflecting subgraph] 	 [123, 4151, 3224, 2] 
		[11.9586]	*[non reflecting stationary functions] 	 [123, 4151, 1882, 171, 2] 
		[12.0646]	*[non reflecting stationary method] 	 [123, 4151, 1882, 34, 2] 
		[12.1104]	*[particle swarm] 	 [689, 1313, 2] 
		[12.1179]	*[non reflecting random lemma] 	 [123, 4151, 276, 5598, 2] 
		[12.1196]	*[non reflecting stationary formulation] 	 [123, 4151, 1882, 600, 2] 
		[12.2270]	*[computer aided process] 	 [157, 2031, 73, 2] 
		[12.2826]	*[non reflecting stationary problems] 	 [123, 4151, 1882, 88, 2] 
		[12.2888]	*[non reflecting subgraph learning] 	 [123, 4151, 3224, 77, 2] 
		[12.3023]	*[non reflecting markov set] 	 [123, 4151, 752, 79, 2] 
		[12.4194]	*[non reflecting stationary learning] 	 [123, 4151, 1882, 77, 2] 
		[12.4506]	*[computer aided process engineering] 	 [157, 2031, 73, 416, 2] 
		[12.5477]	*[non reflecting ordered logics] 	 [123, 4151, 1748, 2820, 2] 
		[12.5796]	*[non reflecting stationary lemma] 	 [123, 4151, 1882, 5598, 2] 
		[12.8543]	*[self organized] 	 [339, 2799, 2] 
		[12.8722]	*[non reflecting stationary logic] 	 [123, 4151, 1882, 287, 2] 
		[12.9561]	*[non reflecting random neighbor] 	 [123, 4151, 276, 1932, 2] 
		[13.2530]	*[non reflecting stationary group] 	 [123, 4151, 1882, 288, 2] 
		[13.6590]	*[non reflecting markov] 	 [123, 4151, 752, 2] 
		[14.8131]	*[non reflecting ordered] 	 [123, 4151, 1748, 2] 
		[16.1499]	*[computer aided design and] 	 [157, 2031, 50, 8, 2] 
		[16.2660]	*[non reflecting stationary linear] 	 [123, 4151, 1882, 109, 2] 
		[16.6238]	*[non reflecting stationary output] 	 [123, 4151, 1882, 481, 2] 
		[16.8666]	*[non reflecting stationary neural] 	 [123, 4151, 1882, 184, 2] 
		[17.4564]	*[non reflecting stationary decision] 	 [123, 4151, 1882, 173, 2] 
		[17.5936]	*[non reflecting markov random] 	 [123, 4151, 752, 276, 2] 
		[18.0023]	*[non reflecting stationary wavelet] 	 [123, 4151, 1882, 615, 2] 

 =======================================================
 ------------------------------------------------- EXACT, k=5
 --- batch precision, recall, fscore: 0.0 , 0.0 , 0.0
 --- total precision, recall, fscore: 0.024203821656050954 , 0.03499393387928419 , 0.027118587253469238
 ------------------------------------------------- EXACT, k=10
 --- batch precision, recall, fscore: 0.0 , 0.0 , 0.0
 --- total precision, recall, fscore: 0.015605095541401276 , 0.04332221211202103 , 0.021478626872920025
 ------------------------------------------------- SOFT, k=5
 --- batch precision, recall, fscore: 0.0 , 0.0 , 0.0
 --- total precision, recall, fscore: 0.044097159371064724 , 0.06846654732774606 , 0.05030958487325667
 ------------------------------------------------- SOFT, k=10
 --- batch precision, recall, fscore: 0.025 , 0.0625 , 0.03571428571428572
 --- total precision, recall, fscore: 0.03575118828303875 , 0.1100025861729337 , 0.05092460545434633
 =======================================================