[Source][101]: long term optimization of radial primary distribution networks by conductor replacements . a method dealing with the technoeconomical long term optimization of currently operating radial primary power distribution networks is developed in this paper . this method , taking into account the realistic locations and growth of the load served by the examined network and specific technoeconomical constraints , results in the proposal of conductor replacements which must be realized in the network segments at specified years of the plan period . this is in order to optimize the network technically as much as possible , defraying the minimum cost . 

Source Input: 
 <s> long term optimization of radial primary distribution networks by conductor replacements . a method dealing with the <unk> long term optimization of currently operating radial primary power distribution networks is developed in this paper . this method , taking into account the realistic locations and growth of the load served by the examined network and specific <unk> constraints , results in the proposal of conductor replacements which must be realized in the network segments at specified years of the plan period . this is in order to optimize the network technically as much as possible , <unk> the minimum cost . </s> <pad> <pad> <pad>
Real Target String [3] 
		[['distribution', 'networks'], ['technoeconomical', 'long', 'term', 'optimization'], ['conductor', 'replacements']] 
Real Target Input:  
		[['<s>', 'distribution', 'networks', '</s>'], ['<s>', '<unk>', 'long', 'term', 'optimization', '</s>'], ['<s>', 'conductor', 'replacements', '</s>']] 
Real Target Copy:   
		[['distribution', 'networks', '</s>'], ['technoeconomical', 'long', 'term', 'optimization', '</s>'], ['conductor', 'replacements', '</s>']] 
[GROUND-TRUTH] #(present)/#(all targets)=3/3
		[distribution networks]
		[technoeconomical long term optimization]
		[conductor replacements]
oov_list:   
		['technoeconomical', 'defraying'] 
[PREDICTION] #(valid)=114, #(present)=114, #(retained&present)=114, #(all)=114
		[5.0714]	*[computer animation] 	 [157, 1747, 2] 
		[5.2787]	*[classification] 	 [181, 2] 
		[5.3892]	*[tracking] 	 [480, 2] 
		[5.6410]	*[prediction] 	 [380, 2] 
		[5.7330]	*[quality of service] 	 [141, 6, 162, 2] 
		[6.0864]	*[markov chain] 	 [752, 596, 2] 
		[6.1832]	*[genetic algorithm] 	 [340, 37, 2] 
		[6.1853]	*[data mining] 	 [29, 409, 2] 
		[6.2193]	*[computer vision] 	 [157, 1051, 2] 
		[6.2639]	*[genetic algorithms] 	 [340, 75, 2] 
		[6.2796]	*[motion estimation] 	 [321, 223, 2] 
		[6.2997]	*[decision support system] 	 [173, 130, 35, 2] 
		[6.3608]	*[markov random fields] 	 [752, 276, 842, 2] 
		[6.4468]	*[non natives] 	 [123, 16916, 2] 
		[6.4770]	*[multi agent systems] 	 [100, 465, 41, 2] 
		[6.6223]	*[markov chain monte carlo] 	 [752, 596, 1225, 1226, 2] 
		[6.7074]	*[visual attention] 	 [399, 821, 2] 
		[6.7258]	*[model] 	 [30, 2] 
		[6.7548]	*[signal processing] 	 [371, 192, 2] 
		[6.7913]	*[knowledge acquisition] 	 [134, 1575, 2] 
		[6.8564]	*[signal transduction] 	 [371, 8710, 2] 
		[6.8722]	*[feature] 	 [187, 2] 
		[6.8839]	*[visual impairment] 	 [399, 5792, 2] 
		[6.9024]	*[graph recoloring] 	 [204, 14467, 2] 
		[6.9732]	*[human computer interaction] 	 [252, 157, 253, 2] 
		[7.0025]	*[motion capture] 	 [321, 1110, 2] 
		[7.0115]	*[knowledge representation] 	 [134, 309, 2] 
		[7.0198]	*[virtual characters] 	 [312, 2910, 2] 
		[7.0207]	*[decision making] 	 [173, 428, 2] 
		[7.0341]	*[feature selection] 	 [187, 240, 2] 
		[7.0995]	*[leakage power] 	 [1874, 107, 2] 
		[7.1003]	*[computational complexity] 	 [201, 211, 2] 
		[7.2331]	*[test] 	 [164, 2] 
		[7.2923]	*[multi agent system] 	 [100, 465, 35, 2] 
		[7.3246]	*[computer aided diagnosis] 	 [157, 2031, 997, 2] 
		[7.4517]	*[multi agent] 	 [100, 465, 2] 
		[7.4825]	*[power] 	 [107, 2] 
		[7.4989]	*[quality] 	 [141, 2] 
		[7.5340]	*[multi objective optimization] 	 [100, 349, 95, 2] 
		[7.5458]	*[decision support systems] 	 [173, 130, 41, 2] 
		[7.6306]	*[decision support] 	 [173, 130, 2] 
		[7.6592]	*[motion] 	 [321, 2] 
		[7.8784]	*[adaptive] 	 [194, 2] 
		[7.9078]	*[data] 	 [29, 2] 
		[7.9219]	*[human motion analysis] 	 [252, 321, 43, 2] 
		[8.0570]	*[computer aided design] 	 [157, 2031, 50, 2] 
		[8.0648]	*[multi agent simulation] 	 [100, 465, 93, 2] 
		[8.0775]	*[3d] 	 [305, 2] 
		[8.1591]	*[3d ladar scanning] 	 [305, 47817, 2770, 2] 
		[8.2296]	*[knowledge based systems] 	 [134, 26, 41, 2] 
		[8.2638]	*[human motion] 	 [252, 321, 2] 
		[8.3089]	*[video] 	 [215, 2] 
		[8.4006]	*[bayesian] 	 [824, 2] 
		[8.4338]	*[model based testing] 	 [30, 26, 475, 2] 
		[8.5175]	*[graph] 	 [204, 2] 
		[8.5852]	*[knowledge based system] 	 [134, 26, 35, 2] 
		[8.6645]	*[knowledge] 	 [134, 2] 
		[8.7506]	*[leakage] 	 [1874, 2] 
		[8.8084]	*[spatial] 	 [332, 2] 
		[8.9550]	*[markov random field] 	 [752, 276, 236, 2] 
		[8.9607]	*[quality of testing] 	 [141, 6, 475, 2] 
		[8.9640]	*[image] 	 [89, 2] 
		[8.9933]	*[human] 	 [252, 2] 
		[9.0509]	*[multi agent learning] 	 [100, 465, 77, 2] 
		[9.0880]	*[decision] 	 [173, 2] 
		[9.1272]	*[markov] 	 [752, 2] 
		[9.4274]	*[multi objective optimisation] 	 [100, 349, 1629, 2] 
		[9.4719]	*[knowledge based animation] 	 [134, 26, 1747, 2] 
		[9.8290]	*[3d ladar angiography] 	 [305, 47817, 6828, 2] 
		[9.8319]	*[computer] 	 [157, 2] 
		[9.8333]	*[multi objective programming] 	 [100, 349, 160, 2] 
		[9.9210]	*[human computer interface] 	 [252, 157, 319, 2] 
		[9.9360]	*[quality of experience] 	 [141, 6, 717, 2] 
		[9.9461]	*[visual] 	 [399, 2] 
		[10.0018]	*[multi agent decision making] 	 [100, 465, 173, 428, 2] 
		[10.0196]	*[3d ladar cryptosystem] 	 [305, 47817, 6665, 2] 
		[10.0433]	*[3d ladar disease] 	 [305, 47817, 1200, 2] 
		[10.0464]	*[3d ladar operation] 	 [305, 47817, 610, 2] 
		[10.1265]	*[signal] 	 [371, 2] 
		[10.3615]	*[human computer] 	 [252, 157, 2] 
		[10.3915]	*[knowledge based] 	 [134, 26, 2] 
		[10.4493]	*[multi objective] 	 [100, 349, 2] 
		[10.4964]	*[model based design] 	 [30, 26, 50, 2] 
		[10.5429]	*[genetic] 	 [340, 2] 
		[10.6416]	*[computer aided] 	 [157, 2031, 2] 
		[10.8414]	*[multi objective evolutionary algorithm] 	 [100, 349, 611, 37, 2] 
		[10.8767]	*[3d ladar] 	 [305, 47817, 2] 
		[11.0110]	*[model based] 	 [30, 26, 2] 
		[11.2279]	*[quality of service ratio] 	 [141, 6, 162, 566, 2] 
		[11.4271]	*[quality of service metastasis] 	 [141, 6, 162, 9669, 2] 
		[11.7383]	*[quality of service model] 	 [141, 6, 162, 30, 2] 
		[11.9160]	*[multi objective evolutionary algorithms] 	 [100, 349, 611, 75, 2] 
		[12.0673]	*[quality of service rate] 	 [141, 6, 162, 209, 2] 
		[12.1060]	*[quality of service selection] 	 [141, 6, 162, 240, 2] 
		[12.2331]	*[quality of service extraction] 	 [141, 6, 162, 591, 2] 
		[12.3036]	*[quality of service decay] 	 [141, 6, 162, 3728, 2] 
		[12.3932]	*[quality of service analysis] 	 [141, 6, 162, 43, 2] 
		[12.4555]	*[computer aided diagnosis systems] 	 [157, 2031, 997, 41, 2] 
		[12.4824]	*[computer aided diagnosis system] 	 [157, 2031, 997, 35, 2] 
		[12.5545]	*[quality of service function] 	 [141, 6, 162, 114, 2] 
		[12.5980]	*[multi objective evolutionary] 	 [100, 349, 611, 2] 
		[12.6392]	*[quality of service prediction] 	 [141, 6, 162, 380, 2] 
		[12.7279]	*[multi agent systems optimization] 	 [100, 465, 41, 95, 2] 
		[12.7729]	*[markov random] 	 [752, 276, 2] 
		[12.8035]	*[quality of service constraints] 	 [141, 6, 162, 306, 2] 
		[12.8360]	*[quality of service protection] 	 [141, 6, 162, 1611, 2] 
		[13.7340]	*[multi agent decision support] 	 [100, 465, 173, 130, 2] 
		[14.2474]	*[quality of service and] 	 [141, 6, 162, 8, 2] 
		[14.6467]	*[quality of service of] 	 [141, 6, 162, 6, 2] 
		[15.1038]	*[multi agent decision] 	 [100, 465, 173, 2] 
		[15.6139]	*[computer aided design and] 	 [157, 2031, 50, 8, 2] 
		[15.6909]	*[markov random fields and] 	 [752, 276, 842, 8, 2] 
		[16.6030]	*[computer aided diagnosis and] 	 [157, 2031, 997, 8, 2] 
		[17.4052]	*[decision support system and] 	 [173, 130, 35, 8, 2] 

 =======================================================
 ------------------------------------------------- EXACT, k=5
 --- batch precision, recall, fscore: 0.0 , 0.0 , 0.0
 --- total precision, recall, fscore: 0.02370820668693009 , 0.03415834418873932 , 0.026557624984229672
 ------------------------------------------------- EXACT, k=10
 --- batch precision, recall, fscore: 0.0 , 0.0 , 0.0
 --- total precision, recall, fscore: 0.015197568389057751 , 0.04210691368746079 , 0.020933574410194625
 ------------------------------------------------- SOFT, k=5
 --- batch precision, recall, fscore: 0.0 , 0.0 , 0.0
 --- total precision, recall, fscore: 0.04325179750705563 , 0.06749796110692918 , 0.04948734541035323
 ------------------------------------------------- SOFT, k=10
 --- batch precision, recall, fscore: 0.0 , 0.0 , 0.0
 --- total precision, recall, fscore: 0.035235683259902395 , 0.10926791918993783 , 0.05032882450902485
 =======================================================