[Source][68]: total ionizing dose effects and reliability of carbon nanotube fet devices . relative stability is observed during constant voltage stress for carbon nanotube field effect transistors . we report irradiation post rad annealing under positive gate bias induces more degradation . the degradation after <digit> kev x ray irradiation depends on bias . cycling of the on off state leads to significant degradation in the memory window . 

Source Input: 
 <s> total ionizing dose effects and reliability of carbon nanotube fet devices . relative stability is observed during constant voltage stress for carbon nanotube field effect transistors . we report irradiation post rad annealing under positive gate bias induces more degradation . the degradation after <digit> kev x ray irradiation depends on bias . cycling of the on off state leads to significant degradation in the memory window . </s> <pad> <pad> <pad>
Real Target String [3] 
		[['cntfet'], ['total', 'ionizing', 'dose'], ['border', 'traps']] 
Real Target Input:  
		[['<s>', '<unk>', '</s>'], ['<s>', 'total', 'ionizing', 'dose', '</s>'], ['<s>', 'border', 'traps', '</s>']] 
Real Target Copy:   
		[['<unk>', '</s>'], ['total', 'ionizing', 'dose', '</s>'], ['border', 'traps', '</s>']] 
[GROUND-TRUTH] #(present)/#(all targets)=1/3
		cntfet
		[total ionizing dose]
		border traps
oov_list:   
		[] 
[PREDICTION] #(valid)=111, #(present)=111, #(retained&present)=111, #(all)=111
		[4.7961]	*[surface pretreatment] 	 [317, 13946, 2] 
		[4.8842]	*[surface roughness] 	 [317, 3230, 2] 
		[4.8991]	*[finite element method] 	 [163, 257, 34, 2] 
		[5.0498]	*[fem] 	 [3219, 2] 
		[5.0561]	*[mri] 	 [2742, 2] 
		[5.2145]	*[drie] 	 [31935, 2] 
		[5.2911]	*[thin film] 	 [1743, 2218, 2] 
		[5.3186]	*[finite element] 	 [163, 257, 2] 
		[5.4113]	*[imprint lithography] 	 [6135, 3006, 2] 
		[5.4299]	*[deformation] 	 [1516, 2] 
		[5.5076]	*[finite elements] 	 [163, 477, 2] 
		[5.5107]	*[stress] 	 [864, 2] 
		[5.5322]	*[molecular dynamics] 	 [943, 455, 2] 
		[5.6067]	*[thin films] 	 [1743, 2468, 2] 
		[5.6862]	*[anisotropic diffusion] 	 [2626, 783, 2] 
		[5.9193]	*[surface fitting] 	 [317, 1762, 2] 
		[5.9853]	*[b splines] 	 [561, 3572, 2] 
		[6.1935]	*[contact] 	 [1418, 2] 
		[6.2408]	*[pressure] 	 [1043, 2] 
		[6.2727]	*[super resolution] 	 [2505, 656, 2] 
		[6.3110]	*[diffusion] 	 [783, 2] 
		[6.3662]	*[thin film lithography] 	 [1743, 2218, 3006, 2] 
		[6.3739]	*[finite element analysis] 	 [163, 257, 43, 2] 
		[6.4153]	*[plasma] 	 [2005, 2] 
		[6.4179]	*[b cells] 	 [561, 677, 2] 
		[6.5028]	*[stress alleviator] 	 [864, 35554, 2] 
		[6.6299]	*[surface tension] 	 [317, 3089, 2] 
		[6.7195]	*[surface] 	 [317, 2] 
		[6.7359]	*[finite element methods] 	 [163, 257, 74, 2] 
		[6.8233]	*[silicon nitride] 	 [1957, 7322, 2] 
		[6.8554]	*[bounding derivative] 	 [3563, 1953, 2] 
		[6.8708]	*[molecular docking] 	 [943, 3493, 2] 
		[6.9882]	*[capillary flow] 	 [6211, 178, 2] 
		[7.1388]	*[silicon carbide] 	 [1957, 12498, 2] 
		[7.2181]	*[mri effect] 	 [2742, 311, 2] 
		[7.2354]	*[molecular mechanics] 	 [943, 2566, 2] 
		[7.2367]	*[shape] 	 [334, 2] 
		[7.2368]	*[shape optimization] 	 [334, 95, 2] 
		[7.2940]	*[imprint] 	 [6135, 2] 
		[7.2982]	*[magnetic field] 	 [1047, 236, 2] 
		[7.3983]	*[free surface] 	 [388, 317, 2] 
		[7.5050]	*[shear] 	 [2067, 2] 
		[7.5220]	*[substrate] 	 [2332, 2] 
		[7.5711]	*[capillary] 	 [6211, 2] 
		[7.6036]	*[b spline] 	 [561, 2075, 2] 
		[7.6103]	*[molecular] 	 [943, 2] 
		[7.7173]	*[high order] 	 [84, 80, 2] 
		[7.7304]	*[diffusion tensor imaging] 	 [783, 2000, 987, 2] 
		[7.7547]	*[phase] 	 [352, 2] 
		[8.0018]	*[thin film imaging] 	 [1743, 2218, 987, 2] 
		[8.0411]	*[3d] 	 [305, 2] 
		[8.5723]	*[b] 	 [561, 2] 
		[8.6732]	*[stress intensity factors] 	 [864, 1570, 422, 2] 
		[8.8707]	*[relativistic] 	 [7841, 2] 
		[8.9270]	*[diffusion tensor equation] 	 [783, 2000, 402, 2] 
		[8.9486]	*[finite element modeling] 	 [163, 257, 148, 2] 
		[8.9704]	*[stress intensity] 	 [864, 1570, 2] 
		[9.0337]	*[non reflecting lens] 	 [123, 4151, 4793, 2] 
		[9.0477]	*[3d shape] 	 [305, 334, 2] 
		[9.1121]	*[magnetic field lithography] 	 [1047, 236, 3006, 2] 
		[9.1225]	*[magnetic field junction] 	 [1047, 236, 4573, 2] 
		[9.3673]	*[high order perceptron] 	 [84, 80, 4204, 2] 
		[9.3743]	*[3d shape optimization] 	 [305, 334, 95, 2] 
		[9.4010]	*[finite element models] 	 [163, 257, 69, 2] 
		[9.4177]	*[finite element model] 	 [163, 257, 30, 2] 
		[9.6108]	*[thin film transistor] 	 [1743, 2218, 3165, 2] 
		[9.6133]	*[diffusion tensor] 	 [783, 2000, 2] 
		[9.7801]	*[thin film mask] 	 [1743, 2218, 3176, 2] 
		[9.8311]	*[high order modeling] 	 [84, 80, 148, 2] 
		[9.8793]	*[3d shape analysis] 	 [305, 334, 43, 2] 
		[9.8822]	*[thin film junction] 	 [1743, 2218, 4573, 2] 
		[9.9620]	*[magnetic field decomposition] 	 [1047, 236, 634, 2] 
		[10.1195]	*[thin film machining] 	 [1743, 2218, 2922, 2] 
		[10.2669]	*[non reflecting stationary formulation] 	 [123, 4151, 1882, 600, 2] 
		[10.4601]	*[silicon capillary] 	 [1957, 6211, 2] 
		[10.9675]	*[non reflecting contact] 	 [123, 4151, 1418, 2] 
		[11.0788]	*[non reflecting boundary condition] 	 [123, 4151, 303, 609, 2] 
		[11.1442]	*[b spline kinase] 	 [561, 2075, 4582, 2] 
		[11.5824]	*[high order finite element] 	 [84, 80, 163, 257, 2] 
		[11.5825]	*[thin film mass lithography] 	 [1743, 2218, 1346, 3006, 2] 
		[11.6472]	*[non reflecting stationary] 	 [123, 4151, 1882, 2] 
		[11.6669]	*[high order mass lithography] 	 [84, 80, 1346, 3006, 2] 
		[11.7178]	*[thin film mass] 	 [1743, 2218, 1346, 2] 
		[11.7215]	*[b spline kinase <digit>] 	 [561, 2075, 4582, 20, 2] 
		[11.7258]	*[non reflecting stationary condition] 	 [123, 4151, 1882, 609, 2] 
		[11.7273]	*[non reflecting contact method] 	 [123, 4151, 1418, 34, 2] 
		[11.7528]	*[thin film mass disease] 	 [1743, 2218, 1346, 1200, 2] 
		[11.7754]	*[high order finite elements] 	 [84, 80, 163, 477, 2] 
		[11.8266]	*[non reflecting stationary derivative] 	 [123, 4151, 1882, 1953, 2] 
		[11.8428]	*[b spline kinase disease] 	 [561, 2075, 4582, 1200, 2] 
		[12.0201]	*[non reflecting stationary functions] 	 [123, 4151, 1882, 171, 2] 
		[12.0641]	*[non reflecting stationary method] 	 [123, 4151, 1882, 34, 2] 
		[12.0683]	*[non reflecting stationary preconditioners] 	 [123, 4151, 1882, 6118, 2] 
		[12.2237]	*[high order volumetric] 	 [84, 80, 3228, 2] 
		[12.2622]	*[high order volumetric mask] 	 [84, 80, 3228, 3176, 2] 
		[12.2778]	*[non reflecting stationary decomposition] 	 [123, 4151, 1882, 634, 2] 
		[12.2974]	*[high order mass] 	 [84, 80, 1346, 2] 
		[12.3716]	*[non reflecting stationary lens] 	 [123, 4151, 1882, 4793, 2] 
		[12.4701]	*[thin film mass mask] 	 [1743, 2218, 1346, 3176, 2] 
		[12.5687]	*[b spline kinase mask] 	 [561, 2075, 4582, 3176, 2] 
		[12.5829]	*[non reflecting stationary concrete] 	 [123, 4151, 1882, 1617, 2] 
		[12.6102]	*[thin film mass diode] 	 [1743, 2218, 1346, 5195, 2] 
		[12.9379]	*[non reflecting stationary element] 	 [123, 4151, 1882, 257, 2] 
		[13.2351]	*[non reflecting boundary] 	 [123, 4151, 303, 2] 
		[13.7758]	*[high order compact] 	 [84, 80, 1435, 2] 
		[13.9283]	*[non reflecting boundary integral] 	 [123, 4151, 303, 938, 2] 
		[14.0282]	*[non reflecting boundary element] 	 [123, 4151, 303, 257, 2] 
		[14.0873]	*[non reflecting stationary integral] 	 [123, 4151, 1882, 938, 2] 
		[14.5648]	*[non reflecting boundary value] 	 [123, 4151, 303, 254, 2] 
		[15.6235]	*[non reflecting stationary boundary] 	 [123, 4151, 1882, 303, 2] 
		[16.3772]	*[finite element method and] 	 [163, 257, 34, 8, 2] 

 =======================================================
 ------------------------------------------------- EXACT, k=5
 --- batch precision, recall, fscore: 0.0 , 0.0 , 0.0
 --- total precision, recall, fscore: 0.02437673130193906 , 0.033738652852226256 , 0.026192130582669417
 ------------------------------------------------- EXACT, k=10
 --- batch precision, recall, fscore: 0.0 , 0.0 , 0.0
 --- total precision, recall, fscore: 0.016066481994459834 , 0.04273043054206489 , 0.02140281886994077
 ------------------------------------------------- SOFT, k=5
 --- batch precision, recall, fscore: 0.0 , 0.0 , 0.0
 --- total precision, recall, fscore: 0.046278415669859935 , 0.06783287870593115 , 0.05018630260456077
 ------------------------------------------------- SOFT, k=10
 --- batch precision, recall, fscore: 0.0 , 0.0 , 0.0
 --- total precision, recall, fscore: 0.037444708587142564 , 0.10957791091696141 , 0.051419391822236725
 =======================================================