[Source][118]: convergence for a family of discrete advectionreaction operators . we define a family of discrete advectionreaction operators , denoted by aa a a , which associate to a given scalar sequence s sn s s n the sequence given by aa ( s ) bn a a ( s ) b n , where bn an 2sn 1+ nsn b n a n <digit> s n <digit> + n s n for n <digit> , <digit> , n <digit> , <digit> , . for aa a a we explicitly find their iterates and study their convergence properties . finally , we show the relationship between the family of discrete operators with the continuous one dimensional advectionreaction equation . 

Source Input: 
 <s> convergence for a family of discrete <unk> operators . we define a family of discrete <unk> operators , denoted by aa a a , which associate to a given scalar sequence s sn s s n the sequence given by aa ( s ) bn a a ( s ) b n , where bn an <unk> 1+ <unk> b n a n <digit> s n <digit> + n s n for n <digit> , <digit> , n <digit> , <digit> , . for aa a a we explicitly find their iterates and study their convergence properties . finally , we show the relationship between the family of discrete operators with the continuous one dimensional <unk> equation . </s> <pad> <pad> <pad>
Real Target String [2] 
		[['advectionreaction', 'operator'], ['iterates']] 
Real Target Input:  
		[['<s>', '<unk>', 'operator', '</s>'], ['<s>', 'iterates', '</s>']] 
Real Target Copy:   
		[['advectionreaction', 'operator', '</s>'], ['iterates', '</s>']] 
[GROUND-TRUTH] #(present)/#(all targets)=2/2
		[advectionreaction operator]
		[iterates]
oov_list:   
		['advectionreaction', '2sn', 'nsn'] 
[PREDICTION] #(valid)=109, #(present)=109, #(retained&present)=109, #(all)=109
		[5.2891]	*[double vowels] 	 [1671, 10060, 2] 
		[5.5222]	*[hypercube] 	 [3805, 2] 
		[5.5499]	*[np completeness] 	 [1218, 2659, 2] 
		[5.6516]	*[computational complexity] 	 [201, 211, 2] 
		[5.6895]	*[self organized criticality] 	 [339, 2799, 9670, 2] 
		[5.8998]	*[cyclic codes] 	 [2135, 495, 2] 
		[6.0737]	*[cellular automata] 	 [940, 1064, 2] 
		[6.1666]	*[approximation algorithms] 	 [320, 75, 2] 
		[6.1744]	*[approximation] 	 [320, 2] 
		[6.3991]	*[np complete] 	 [1218, 572, 2] 
		[6.5018]	*[ideal] 	 [1586, 2] 
		[6.5055]	*[convex hull] 	 [881, 3335, 2] 
		[6.5784]	*[strong stationarity] 	 [950, 8271, 2] 
		[6.6055]	*[self stabilization] 	 [339, 3091, 2] 
		[6.6474]	*[current mode] 	 [251, 697, 2] 
		[6.7569]	*[graph recoloring] 	 [204, 14467, 2] 
		[6.7584]	*[graph coloring] 	 [204, 2300, 2] 
		[6.8546]	*[computational geometry] 	 [201, 937, 2] 
		[7.0063]	*[double cardinal] 	 [1671, 6838, 2] 
		[7.0396]	*[computer animation] 	 [157, 1747, 2] 
		[7.1571]	*[quantum measurements] 	 [594, 875, 2] 
		[7.1710]	*[self organization] 	 [339, 1252, 2] 
		[7.1876]	*[non natives] 	 [123, 16916, 2] 
		[7.3277]	*[time series] 	 [38, 462, 2] 
		[7.3431]	*[fixed point] 	 [586, 206, 2] 
		[7.5971]	*[finite element] 	 [163, 257, 2] 
		[7.6181]	*[free distance] 	 [388, 307, 2] 
		[7.7479]	*[finite element method] 	 [163, 257, 34, 2] 
		[7.9381]	*[quantum] 	 [594, 2] 
		[8.0268]	*[hair] 	 [6831, 2] 
		[8.1291]	*[edge] 	 [657, 2] 
		[8.1415]	*[perfect] 	 [1741, 2] 
		[8.1949]	*[gauss jordan] 	 [4676, 8080, 2] 
		[8.2135]	*[fixed parameter tractability] 	 [586, 420, 7724, 2] 
		[8.2465]	*[gauss jordan algebras] 	 [4676, 8080, 2212, 2] 
		[8.3080]	*[adaptive] 	 [194, 2] 
		[8.3156]	*[current mode circuits] 	 [251, 697, 730, 2] 
		[8.3265]	*[universal] 	 [1938, 2] 
		[8.4116]	*[self dual codes] 	 [339, 888, 495, 2] 
		[8.5427]	*[linear] 	 [109, 2] 
		[8.6082]	*[graph] 	 [204, 2] 
		[8.6733]	*[cyclic] 	 [2135, 2] 
		[8.7235]	*[finite element analysis] 	 [163, 257, 43, 2] 
		[8.7935]	*[self dual] 	 [339, 888, 2] 
		[8.8623]	*[gauss jordan codes] 	 [4676, 8080, 495, 2] 
		[8.9876]	*[fixed] 	 [586, 2] 
		[9.0057]	*[finite state machines] 	 [163, 151, 791, 2] 
		[9.0059]	*[fixed point theorem] 	 [586, 206, 1139, 2] 
		[9.1319]	*[gauss jordan function] 	 [4676, 8080, 114, 2] 
		[9.1961]	*[fixed parameter tractable] 	 [586, 420, 4651, 2] 
		[9.1975]	*[current mode control] 	 [251, 697, 66, 2] 
		[9.1975]	*[gauss jordan functions] 	 [4676, 8080, 171, 2] 
		[9.2083]	*[fixed parameter] 	 [586, 420, 2] 
		[9.2096]	*[fixed point approximation] 	 [586, 206, 320, 2] 
		[9.2230]	*[fixed parameter shop] 	 [586, 420, 3280, 2] 
		[9.2597]	*[np complete problem] 	 [1218, 572, 44, 2] 
		[9.3357]	*[ideal of squares] 	 [1586, 6, 1289, 2] 
		[9.3665]	*[current] 	 [251, 2] 
		[9.3903]	*[finite state machine] 	 [163, 151, 281, 2] 
		[9.4034]	*[locally twisted codes] 	 [2061, 8201, 495, 2] 
		[9.4167]	*[fixed point arithmetic] 	 [586, 206, 1961, 2] 
		[9.5212]	*[time series analysis] 	 [38, 462, 43, 2] 
		[9.5758]	*[gauss jordan set] 	 [4676, 8080, 79, 2] 
		[9.5862]	*[fixed parameter simulation] 	 [586, 420, 93, 2] 
		[9.6192]	*[gauss jordan equations] 	 [4676, 8080, 283, 2] 
		[9.6736]	*[fuzzy] 	 [83, 2] 
		[9.6974]	*[convex] 	 [881, 2] 
		[9.7486]	*[cellular] 	 [940, 2] 
		[9.7662]	*[gibbs] 	 [4924, 2] 
		[9.9511]	*[computer] 	 [157, 2] 
		[10.0048]	*[computational complexity of carriers] 	 [201, 211, 6, 5118, 2] 
		[10.4294]	*[current mode power] 	 [251, 697, 107, 2] 
		[10.4332]	*[finite state] 	 [163, 151, 2] 
		[10.4392]	*[two dimensional] 	 [49, 246, 2] 
		[10.5850]	*[ideal of cowan codes] 	 [1586, 6, 22462, 495, 2] 
		[10.6553]	*[non reflecting stationary set] 	 [123, 4151, 1882, 79, 2] 
		[10.7230]	*[time] 	 [38, 2] 
		[10.8656]	*[non reflecting stationary approximation] 	 [123, 4151, 1882, 320, 2] 
		[10.9987]	*[locally twisted] 	 [2061, 8201, 2] 
		[11.1468]	*[non reflecting stationary] 	 [123, 4151, 1882, 2] 
		[11.2054]	*[ideal of squared error] 	 [1586, 6, 4129, 189, 2] 
		[11.2708]	*[fixed point of squares] 	 [586, 206, 6, 1289, 2] 
		[11.4637]	*[ideal of cowan disease] 	 [1586, 6, 22462, 1200, 2] 
		[11.5284]	*[current mode time] 	 [251, 697, 38, 2] 
		[11.6983]	*[non reflecting stationary condition] 	 [123, 4151, 1882, 609, 2] 
		[11.7329]	*[current mode time delay] 	 [251, 697, 38, 302, 2] 
		[11.8283]	*[self organized] 	 [339, 2799, 2] 
		[11.8345]	*[non reflecting stationary group] 	 [123, 4151, 1882, 288, 2] 
		[11.8580]	*[current mode time series] 	 [251, 697, 38, 462, 2] 
		[11.9229]	*[current mode power flow] 	 [251, 697, 107, 178, 2] 
		[12.2030]	*[ideal of cowan array] 	 [1586, 6, 22462, 1129, 2] 
		[12.2291]	*[current mode time windows] 	 [251, 697, 38, 2311, 2] 
		[12.2999]	*[ideal of cowan polynomials] 	 [1586, 6, 22462, 1870, 2] 
		[12.3556]	*[fixed point of ordinals] 	 [586, 206, 6, 10928, 2] 
		[12.3719]	*[non reflecting stationary problems] 	 [123, 4151, 1882, 88, 2] 
		[12.3983]	*[ideal of squared test] 	 [1586, 6, 4129, 164, 2] 
		[12.4345]	*[ideal of squared constraints] 	 [1586, 6, 4129, 306, 2] 
		[12.4885]	*[ideal of cowan equation] 	 [1586, 6, 22462, 402, 2] 
		[12.4890]	*[non reflecting stationary channels] 	 [123, 4151, 1882, 756, 2] 
		[12.5168]	*[non reflecting stationary lemma] 	 [123, 4151, 1882, 5598, 2] 
		[12.5639]	*[computational complexity of noncompactness] 	 [201, 211, 6, 16578, 2] 
		[12.6211]	*[current mode time mode] 	 [251, 697, 38, 697, 2] 
		[12.6415]	*[ideal of cowan elimination] 	 [1586, 6, 22462, 2305, 2] 
		[12.6443]	*[current mode power ratio] 	 [251, 697, 107, 566, 2] 
		[13.1177]	*[ideal of cowan] 	 [1586, 6, 22462, 2] 
		[13.8540]	*[ideal of squared] 	 [1586, 6, 4129, 2] 
		[14.2844]	*[current mode time block] 	 [251, 697, 38, 627, 2] 
		[14.7905]	*[non reflecting stationary time] 	 [123, 4151, 1882, 38, 2] 
		[18.1825]	*[non reflecting stationary neural] 	 [123, 4151, 1882, 184, 2] 

 =======================================================
 ------------------------------------------------- EXACT, k=5
 --- batch precision, recall, fscore: 0.0 , 0.0 , 0.0
 --- total precision, recall, fscore: 0.026923076923076925 , 0.039561133311133305 , 0.028808002359647842
 ------------------------------------------------- EXACT, k=10
 --- batch precision, recall, fscore: 0.0 , 0.0 , 0.0
 --- total precision, recall, fscore: 0.017788461538461538 , 0.04945633070633071 , 0.02353754369531054
 ------------------------------------------------- SOFT, k=5
 --- batch precision, recall, fscore: 0.0 , 0.0 , 0.0
 --- total precision, recall, fscore: 0.0501117982937453 , 0.07693461274835861 , 0.05473494096390308
 ------------------------------------------------- SOFT, k=10
 --- batch precision, recall, fscore: 0.0 , 0.0 , 0.0
 --- total precision, recall, fscore: 0.03997806048987863 , 0.12089049902115656 , 0.05500757198920384
 =======================================================