[Source][218]: distributed global id assignment for wireless sensor networks . a sensor network consists of a set of battery powered nodes , which collaborate to perform sensing tasks in a given environment . it may contain one or more base stations to collect sensed data and possibly relay it to a central processing and storage system . these networks are characterized by scarcity of resources , in particular the available energy . we present a distributed algorithm to solve the unique id assignment problem . the proposed solution starts by assigning long unique ids and organizing nodes in a tree structure . this tree structure is used to compute the size of the network . then , unique ids are assigned using the minimum number of bytes . globally unique ids are useful in providing many network functions , e . g . configuration , monitoring of individual nodes , and various security mechanisms . theoretical and simulation analyses of the proposed solution have been performed . the results demonstrate that a high percentage of nodes ( more than <digit> % ) are assigned globally unique ids at the termination of the algorithm when the algorithm parameters are set properly . furthermore , the algorithm terminates in a relatively short time that scales well with the network size . 

Source Input: 
 <s> distributed global id assignment for wireless sensor networks . a sensor network consists of a set of battery powered nodes , which collaborate to perform sensing tasks in a given environment . it may contain one or more base stations to collect sensed data and possibly relay it to a central processing and storage system . these networks are characterized by scarcity of resources , in particular the available energy . we present a distributed algorithm to solve the unique id assignment problem . the proposed solution starts by assigning long unique ids and organizing nodes in a tree structure . this tree structure is used to compute the size of the network . then , unique ids are assigned using the minimum number of bytes . globally unique ids are useful in providing many network functions , e . g . configuration , monitoring of individual nodes , and various security mechanisms . theoretical and simulation analyses of the proposed solution have been performed . the results demonstrate that a high percentage of nodes ( more than <digit> % ) are assigned globally unique ids at the termination of the algorithm when the algorithm parameters are set properly . furthermore , the algorithm terminates in a relatively short time that scales well with the network size . </s> <pad> <pad> <pad>
Real Target String [3] 
		[['id', 'assignment'], ['sensor', 'networks'], ['distributed', 'algorithms']] 
Real Target Input:  
		[['<s>', 'id', 'assignment', '</s>'], ['<s>', 'sensor', 'networks', '</s>'], ['<s>', 'distributed', 'algorithms', '</s>']] 
Real Target Copy:   
		[['id', 'assignment', '</s>'], ['sensor', 'networks', '</s>'], ['distributed', 'algorithms', '</s>']] 
[GROUND-TRUTH] #(present)/#(all targets)=3/3
		[id assignment]
		[sensor networks]
		[distributed algorithms]
oov_list:   
		[] 
[PREDICTION] #(valid)=114, #(present)=114, #(retained&present)=114, #(all)=114
		[3.7966]	*[scheduling] 	 [263, 2] 
		[4.8582]	*[routing] 	 [241, 2] 
		[5.0395]	*[qos] 	 [769, 2] 
		[5.1471]	*[genetic algorithm] 	 [340, 37, 2] 
		[5.4578]	*[genetic algorithms] 	 [340, 75, 2] 
		[5.6017]	*[congestion control] 	 [1669, 66, 2] 
		[5.6700]	*[graph recoloring] 	 [204, 14467, 2] 
		[5.8362]	*[markov random fields] 	 [752, 276, 842, 2] 
		[5.8502]	*[neural network] 	 [184, 52, 2] 
		[5.8848]	*[decision support system] 	 [173, 130, 35, 2] 
		[6.0124]	*[wireless sensor networks] 	 [208, 237, 62, 2] 
		[6.0281]	*[wireless] 	 [208, 2] 
		[6.0664]	*[multi agent systems] 	 [100, 465, 41, 2] 
		[6.0680]	*[markov chain] 	 [752, 596, 2] 
		[6.0943]	*[energy efficiency] 	 [167, 220, 2] 
		[6.1683]	*[approximation algorithms] 	 [320, 75, 2] 
		[6.2121]	*[wireless sensor network] 	 [208, 237, 52, 2] 
		[6.2301]	*[wireless mesh networks] 	 [208, 623, 62, 2] 
		[6.2302]	*[wireless networks] 	 [208, 62, 2] 
		[6.3127]	*[resource allocation] 	 [366, 528, 2] 
		[6.3249]	*[graph coloring] 	 [204, 2300, 2] 
		[6.3318]	*[graph algorithms] 	 [204, 75, 2] 
		[6.3818]	*[approximation] 	 [320, 2] 
		[6.3870]	*[ad hoc networks] 	 [757, 827, 62, 2] 
		[6.4174]	*[neural networks] 	 [184, 62, 2] 
		[6.4349]	*[computational complexity] 	 [201, 211, 2] 
		[6.4418]	*[network] 	 [52, 2] 
		[6.4600]	*[performance] 	 [45, 2] 
		[6.5116]	*[sensor network] 	 [237, 52, 2] [correct!]
		[6.5336]	*[multicast] 	 [1182, 2] 
		[6.5582]	*[data mining] 	 [29, 409, 2] 
		[6.5607]	*[ad hoc network] 	 [757, 827, 52, 2] 
		[6.5887]	*[approximation algorithm] 	 [320, 37, 2] 
		[6.6492]	*[wireless ad hoc networks] 	 [208, 757, 827, 62, 2] 
		[6.7025]	*[network coding] 	 [52, 522, 2] 
		[6.7138]	*[decision making] 	 [173, 428, 2] 
		[6.7154]	*[network shop] 	 [52, 3280, 2] 
		[6.7563]	*[scheduling algorithm] 	 [263, 37, 2] 
		[6.8690]	*[multi objective optimization] 	 [100, 349, 95, 2] 
		[6.8829]	*[multi agent system] 	 [100, 465, 35, 2] 
		[6.8842]	*[markov chain monte carlo] 	 [752, 596, 1225, 1226, 2] 
		[6.8925]	*[sensor] 	 [237, 2] 
		[6.9391]	*[ad hoc] 	 [757, 827, 2] 
		[6.9573]	*[distributed] 	 [156, 2] 
		[7.0246]	*[traffic] 	 [291, 2] 
		[7.0367]	*[graph] 	 [204, 2] 
		[7.1551]	*[mobile ad hoc networks] 	 [198, 757, 827, 62, 2] 
		[7.1920]	*[real time] 	 [102, 38, 2] 
		[7.2597]	*[wireless ad hoc network] 	 [208, 757, 827, 52, 2] 
		[7.3420]	*[mobile ad hoc network] 	 [198, 757, 827, 52, 2] 
		[7.3788]	*[real time scheduling] 	 [102, 38, 263, 2] 
		[7.3811]	*[decision support systems] 	 [173, 130, 41, 2] 
		[7.3991]	*[mobile robot] 	 [198, 629, 2] 
		[7.4227]	*[multi agent] 	 [100, 465, 2] 
		[7.5111]	*[wireless mesh network] 	 [208, 623, 52, 2] 
		[7.7117]	*[congestion] 	 [1669, 2] 
		[7.8035]	*[decision support] 	 [173, 130, 2] 
		[7.8525]	*[power] 	 [107, 2] 
		[7.8897]	*[multi agent simulation] 	 [100, 465, 93, 2] 
		[8.0792]	*[data] 	 [29, 2] 
		[8.1477]	*[real time systems] 	 [102, 38, 41, 2] 
		[8.2642]	*[adaptive] 	 [194, 2] 
		[8.3733]	*[real time simulation] 	 [102, 38, 93, 2] 
		[8.4198]	*[real time system] 	 [102, 38, 35, 2] 
		[8.5037]	*[multi objective optimisation] 	 [100, 349, 1629, 2] 
		[8.6086]	*[stochastic] 	 [529, 2] 
		[8.6564]	*[decision] 	 [173, 2] 
		[8.7404]	*[mobile] 	 [198, 2] 
		[8.8562]	*[markov] 	 [752, 2] 
		[8.9250]	*[multi objective programming] 	 [100, 349, 160, 2] 
		[8.9428]	*[real time processing] 	 [102, 38, 192, 2] 
		[8.9912]	*[real time animation] 	 [102, 38, 1747, 2] 
		[9.0059]	*[markov random field] 	 [752, 276, 236, 2] 
		[9.0523]	*[network shop control] 	 [52, 3280, 66, 2] 
		[9.0644]	*[wireless ad hoc] 	 [208, 757, 827, 2] 
		[9.1709]	*[real time rendering] 	 [102, 38, 1243, 2] 
		[9.2093]	*[energy] 	 [167, 2] 
		[9.2216]	*[multi objective evolutionary algorithm] 	 [100, 349, 611, 37, 2] 
		[9.2799]	*[resource] 	 [366, 2] 
		[9.3150]	*[ad hoc fusion] 	 [757, 827, 1125, 2] 
		[9.3762]	*[multi agent learning] 	 [100, 465, 77, 2] 
		[9.5246]	*[multi objective] 	 [100, 349, 2] 
		[9.7455]	*[multi agent decision making] 	 [100, 465, 173, 428, 2] 
		[9.8306]	*[wireless sensor] 	 [208, 237, 2] 
		[9.8428]	*[genetic] 	 [340, 2] 
		[10.4323]	*[wireless mesh] 	 [208, 623, 2] 
		[10.4726]	*[neural] 	 [184, 2] 
		[10.6070]	*[real time data] 	 [102, 38, 29, 2] 
		[10.6687]	*[time] 	 [38, 2] 
		[10.8058]	*[multi objective evolutionary algorithms] 	 [100, 349, 611, 75, 2] 
		[10.8199]	*[wireless ad hoc system] 	 [208, 757, 827, 35, 2] 
		[11.4669]	*[wireless ad hoc fusion] 	 [208, 757, 827, 1125, 2] 
		[11.4682]	*[real time data processing] 	 [102, 38, 29, 192, 2] 
		[11.5709]	*[wireless sensor network analysis] 	 [208, 237, 52, 43, 2] 
		[11.7340]	*[real] 	 [102, 2] 
		[11.8763]	*[multi objective evolutionary] 	 [100, 349, 611, 2] 
		[11.8991]	*[mobile ad hoc] 	 [198, 757, 827, 2] 
		[11.9087]	*[wireless ad hoc systems] 	 [208, 757, 827, 41, 2] 
		[11.9320]	*[real time scheduling problem] 	 [102, 38, 263, 44, 2] 
		[12.0318]	*[ad hoc network realization] 	 [757, 827, 52, 3159, 2] 
		[12.1705]	*[real time scheduling algorithm] 	 [102, 38, 263, 37, 2] 
		[12.1814]	*[mobile ad hoc system] 	 [198, 757, 827, 35, 2] 
		[12.3256]	*[multi objective evolutionary programming] 	 [100, 349, 611, 160, 2] 
		[12.3531]	*[multi agent systems optimization] 	 [100, 465, 41, 95, 2] 
		[12.3652]	*[multi objective evolutionary optimization] 	 [100, 349, 611, 95, 2] 
		[12.4157]	*[multi objective optimization algorithm] 	 [100, 349, 95, 37, 2] 
		[12.4304]	*[multi objective evolutionary systems] 	 [100, 349, 611, 41, 2] 
		[12.4869]	*[real time scheduling algorithms] 	 [102, 38, 263, 75, 2] 
		[12.4874]	*[markov random] 	 [752, 276, 2] 
		[14.7322]	*[multi agent decision support] 	 [100, 465, 173, 130, 2] 
		[14.8486]	*[multi agent decision] 	 [100, 465, 173, 2] 
		[15.4539]	*[markov random fields and] 	 [752, 276, 842, 8, 2] 
		[15.9499]	*[real time systems and] 	 [102, 38, 41, 8, 2] 
		[16.9864]	*[decision support system and] 	 [173, 130, 35, 8, 2] 

 =======================================================
 ------------------------------------------------- EXACT, k=5
 --- batch precision, recall, fscore: 0.0 , 0.0 , 0.0
 --- total precision, recall, fscore: 0.026415094339622643 , 0.03881469683356475 , 0.02826445514531486
 ------------------------------------------------- EXACT, k=10
 --- batch precision, recall, fscore: 0.0 , 0.0 , 0.0
 --- total precision, recall, fscore: 0.017452830188679245 , 0.04852319239111692 , 0.02309343909728581
 ------------------------------------------------- SOFT, k=5
 --- batch precision, recall, fscore: 0.13333333730697633 , 0.22222222884496054 , 0.16666667163372043
 --- total precision, recall, fscore: 0.05059711030983137 , 0.07773668509761804 , 0.055437126224156044
 ------------------------------------------------- SOFT, k=10
 --- batch precision, recall, fscore: 0.10000000298023223 , 0.3333333432674408 , 0.1538461584311265
 --- total precision, recall, fscore: 0.0402025310691657 , 0.12174109764318955 , 0.05545282102768939
 =======================================================