[Source][102]: designing the user interface for pen and speech multimedia applications . this workshop will bring together a small group of researchers and practitioners to discuss how to design applications with both a verbal user interface ( the user hears and speaks to the application ) and a visual user interface ( the user draws writes and sees the application ) . our goal is to better understand the issues that face designers of applications with multimedia interfaces integrating both visual and verbal interaction styles , exchange ideas and information , and increase communication among the diverse groups involved in multimedia interfaces . 

Source Input: 
 <s> designing the user interface for pen and speech multimedia applications . this workshop will bring together a small group of researchers and practitioners to discuss how to design applications with both a verbal user interface ( the user <unk> and speaks to the application ) and a visual user interface ( the user draws writes and sees the application ) . our goal is to better understand the issues that face designers of applications with multimedia interfaces integrating both visual and verbal interaction styles , exchange ideas and information , and increase communication among the diverse groups involved in multimedia interfaces . </s> <pad> <pad> <pad>
Real Target String [6] 
		[['automatic', 'speech', 'recognition'], ['pen', 'input'], ['multimedia'], ['handwriting', 'recognition'], ['visual', 'user', 'interface'], ['verbal', 'user', 'interface']] 
Real Target Input:  
		[['<s>', 'automatic', 'speech', 'recognition', '</s>'], ['<s>', 'pen', 'input', '</s>'], ['<s>', 'multimedia', '</s>'], ['<s>', 'handwriting', 'recognition', '</s>'], ['<s>', 'visual', 'user', 'interface', '</s>'], ['<s>', 'verbal', 'user', 'interface', '</s>']] 
Real Target Copy:   
		[['automatic', 'speech', 'recognition', '</s>'], ['pen', 'input', '</s>'], ['multimedia', '</s>'], ['handwriting', 'recognition', '</s>'], ['visual', 'user', 'interface', '</s>'], ['verbal', 'user', 'interface', '</s>']] 
[GROUND-TRUTH] #(present)/#(all targets)=3/6
		automatic speech recognition
		pen input
		[multimedia]
		handwriting recognition
		[visual user interface]
		[verbal user interface]
oov_list:   
		['hears'] 
[PREDICTION] #(valid)=122, #(present)=122, #(retained&present)=122, #(all)=122
		[4.1706]	*[collaboration] 	 [1201, 2] 
		[4.5844]	*[management] 	 [144, 2] 
		[4.6247]	*[computer animation] 	 [157, 1747, 2] 
		[4.6474]	*[usability] 	 [1552, 2] 
		[4.6575]	*[research] 	 [119, 2] 
		[4.7770]	*[evaluation] 	 [172, 2] 
		[4.8034]	*[software engineering] 	 [98, 416, 2] 
		[4.9488]	*[design] 	 [50, 2] 
		[5.0313]	*[information retrieval] 	 [47, 323, 2] 
		[5.1221]	*[collaborative learning] 	 [682, 77, 2] 
		[5.1669]	*[interaction] 	 [253, 2] 
		[5.3263]	*[internet] 	 [401, 2] 
		[5.3553]	*[tools] 	 [347, 2] 
		[5.4165]	*[behavior] 	 [298, 2] 
		[5.5298]	*[ontology] 	 [784, 2] 
		[5.5789]	*[systems] 	 [41, 2] 
		[5.7050]	*[user] 	 [103, 2] 
		[5.7082]	*[e learning] 	 [129, 77, 2] 
		[5.7853]	*[information seeking] 	 [47, 2870, 2] 
		[5.8123]	*[web categorisation] 	 [124, 21278, 2] 
		[5.8598]	*[knowledge management] 	 [134, 144, 2] 
		[5.8791]	*[knowledge acquisition] 	 [134, 1575, 2] 
		[5.9116]	*[learning] 	 [77, 2] 
		[5.9521]	*[computer science] 	 [157, 770, 2] 
		[6.0053]	*[multimedia] 	 [654, 2] [correct!]
		[6.0074]	*[collaborative filtering] 	 [682, 800, 2] 
		[6.0429]	*[computer science curriculum] 	 [157, 770, 2911, 2] 
		[6.0631]	*[user studies] 	 [103, 279, 2] 
		[6.0989]	*[computer learning] 	 [157, 77, 2] 
		[6.1041]	*[web accessibility] 	 [124, 2555, 2] 
		[6.1158]	*[project] 	 [540, 2] 
		[6.1558]	*[virtual environment] 	 [312, 227, 2] 
		[6.2008]	*[human computer interaction] 	 [252, 157, 253, 2] 
		[6.2190]	*[business] 	 [541, 2] 
		[6.2288]	*[usability evaluation] 	 [1552, 172, 2] 
		[6.3180]	*[information integration] 	 [47, 437, 2] 
		[6.3254]	*[interaction design] 	 [253, 50, 2] 
		[6.3650]	*[virtual laboratory] 	 [312, 1905, 2] 
		[6.3922]	*[information] 	 [47, 2] 
		[6.4107]	*[information systems] 	 [47, 41, 2] 
		[6.4160]	*[software] 	 [98, 2] 
		[6.4213]	*[knowledge] 	 [134, 2] 
		[6.4888]	*[computer graphics] 	 [157, 1249, 2] 
		[6.4968]	*[scenario] 	 [1563, 2] 
		[6.5335]	*[case study] 	 [128, 67, 2] 
		[6.5994]	*[context] 	 [248, 2] 
		[6.6046]	*[information technology] 	 [47, 235, 2] 
		[6.6197]	*[case based reasoning] 	 [128, 26, 812, 2] 
		[6.6209]	*[project management] 	 [540, 144, 2] 
		[6.7181]	*[computer supported cooperative work] 	 [157, 1250, 1273, 138, 2] 
		[6.7641]	*[social network] 	 [273, 52, 2] 
		[6.7824]	*[computer mediated communication] 	 [157, 2197, 180, 2] 
		[6.8234]	*[web] 	 [124, 2] 
		[6.8927]	*[collaborative] 	 [682, 2] 
		[7.0983]	*[knowledge based systems] 	 [134, 26, 41, 2] 
		[7.2480]	*[computer supported collaborative learning] 	 [157, 1250, 682, 77, 2] 
		[7.3662]	*[case] 	 [128, 2] 
		[7.3808]	*[business process re engineering] 	 [541, 73, 1222, 416, 2] 
		[7.4108]	*[computer] 	 [157, 2] 
		[7.6824]	*[social] 	 [273, 2] 
		[7.6991]	*[business process] 	 [541, 73, 2] 
		[7.7539]	*[computer supported collaborative work] 	 [157, 1250, 682, 138, 2] 
		[7.9917]	*[service] 	 [162, 2] 
		[8.0380]	*[computer science education] 	 [157, 770, 995, 2] 
		[8.1677]	*[business process modeling] 	 [541, 73, 148, 2] 
		[8.1781]	*[information technology curriculum] 	 [47, 235, 2911, 2] 
		[8.2742]	*[social network sites] 	 [273, 52, 1290, 2] 
		[8.4014]	*[scenario based design] 	 [1563, 26, 50, 2] 
		[8.5741]	*[collaborative learning environments] 	 [682, 77, 432, 2] 
		[8.6045]	*[knowledge based system] 	 [134, 26, 35, 2] 
		[8.6173]	*[human] 	 [252, 2] 
		[8.8582]	*[business process management] 	 [541, 73, 144, 2] 
		[8.9133]	*[information seeking design] 	 [47, 2870, 50, 2] 
		[8.9379]	*[business process system] 	 [541, 73, 35, 2] 
		[8.9527]	*[business process systems] 	 [541, 73, 41, 2] 
		[9.1357]	*[scenario based reasoning] 	 [1563, 26, 812, 2] 
		[9.1398]	*[mobile] 	 [198, 2] 
		[9.1589]	*[information systems curriculum] 	 [47, 41, 2911, 2] 
		[9.1878]	*[software engineering design] 	 [98, 416, 50, 2] 
		[9.1922]	*[e] 	 [129, 2] 
		[9.2262]	*[information seeking management] 	 [47, 2870, 144, 2] 
		[9.3016]	*[business process models] 	 [541, 73, 69, 2] 
		[9.3038]	*[information seeking analysis] 	 [47, 2870, 43, 2] 
		[9.3237]	*[information seeking model] 	 [47, 2870, 30, 2] 
		[9.3568]	*[information seeking education] 	 [47, 2870, 995, 2] 
		[9.3572]	*[knowledge management systems] 	 [134, 144, 41, 2] 
		[9.4989]	*[scenario based software engineering] 	 [1563, 26, 98, 416, 2] 
		[9.5572]	*[information technology benefit realization] 	 [47, 235, 1700, 3159, 2] 
		[9.5661]	*[knowledge based] 	 [134, 26, 2] 
		[9.5967]	*[scenario based] 	 [1563, 26, 2] 
		[9.8763]	*[scenario based information retrieval] 	 [1563, 26, 47, 323, 2] 
		[9.9102]	*[human computer] 	 [252, 157, 2] 
		[10.2652]	*[virtual] 	 [312, 2] 
		[10.3433]	*[scenario based information systems] 	 [1563, 26, 47, 41, 2] 
		[10.7647]	*[computer mediated] 	 [157, 2197, 2] 
		[10.8591]	*[computer supported collaborative technology] 	 [157, 1250, 682, 235, 2] 
		[10.8600]	*[scenario based information seeking] 	 [1563, 26, 47, 2870, 2] 
		[10.8698]	*[information systems and retrieval] 	 [47, 41, 8, 323, 2] 
		[10.9692]	*[computer supported cooperative systems] 	 [157, 1250, 1273, 41, 2] 
		[11.1415]	*[computer supported cooperative learning] 	 [157, 1250, 1273, 77, 2] 
		[11.1485]	*[scenario based information needs] 	 [1563, 26, 47, 872, 2] 
		[11.1893]	*[scenario based information technology] 	 [1563, 26, 47, 235, 2] 
		[11.2169]	*[computer supported collaborative systems] 	 [157, 1250, 682, 41, 2] 
		[11.2231]	*[business process re development] 	 [541, 73, 1222, 155, 2] 
		[11.2902]	*[computer supported collaborative games] 	 [157, 1250, 682, 1065, 2] 
		[11.4279]	*[scenario based information] 	 [1563, 26, 47, 2] 
		[11.5888]	*[computer supported collaborative design] 	 [157, 1250, 682, 50, 2] 
		[11.6223]	*[scenario based information system] 	 [1563, 26, 47, 35, 2] 
		[11.6296]	*[computer supported collaborative applications] 	 [157, 1250, 682, 92, 2] 
		[11.6884]	*[computer supported collaborative] 	 [157, 1250, 682, 2] 
		[11.7438]	*[computer supported collaborative environment] 	 [157, 1250, 682, 227, 2] 
		[11.8254]	*[business process re outsourcing] 	 [541, 73, 1222, 3322, 2] 
		[11.9466]	*[computer supported collaborative communication] 	 [157, 1250, 682, 180, 2] 
		[12.1198]	*[scenario based software development] 	 [1563, 26, 98, 155, 2] 
		[12.4982]	*[information technology benefit] 	 [47, 235, 1700, 2] 
		[12.6495]	*[computer science curriculum and] 	 [157, 770, 2911, 8, 2] 
		[13.0265]	*[case based] 	 [128, 26, 2] 
		[13.0391]	*[computer supported collaborative information] 	 [157, 1250, 682, 47, 2] 
		[13.8390]	*[business process re] 	 [541, 73, 1222, 2] 
		[14.7054]	*[scenario based software] 	 [1563, 26, 98, 2] 
		[15.8218]	*[information seeking design and] 	 [47, 2870, 50, 8, 2] 
		[15.8660]	*[information technology curriculum and] 	 [47, 235, 2911, 8, 2] 

 =======================================================
 ------------------------------------------------- EXACT, k=5
 --- batch precision, recall, fscore: 0.0 , 0.0 , 0.0
 --- total precision, recall, fscore: 0.02592592592592593 , 0.038095906151461696 , 0.027741039309290512
 ------------------------------------------------- EXACT, k=10
 --- batch precision, recall, fscore: 0.0 , 0.0 , 0.0
 --- total precision, recall, fscore: 0.01712962962962963 , 0.047624614754244385 , 0.022665782817706443
 ------------------------------------------------- SOFT, k=5
 --- batch precision, recall, fscore: 0.0 , 0.0 , 0.0
 --- total precision, recall, fscore: 0.04989160826705672 , 0.07745452426247697 , 0.05479631524469636
 ------------------------------------------------- SOFT, k=10
 --- batch precision, recall, fscore: 0.0 , 0.0 , 0.0
 --- total precision, recall, fscore: 0.03965094098993749 , 0.12090124193318251 , 0.05475506310060131
 =======================================================