[Source][70]: on minimizing the weighted number of late jobs in unit execution time open shops . we study unit execution time open shops with integer release dates . this paper shows that , in this environment , the minimum weighted number of late jobs can be computed in polynomial time by dynamic programming . the complexity status of the corresponding problem om pij <digit> , ri wiui was unknown before . 

Source Input: 
 <s> on minimizing the weighted number of late jobs in unit execution time open shops . we study unit execution time open shops with integer release dates . this paper shows that , in this environment , the minimum weighted number of late jobs can be computed in polynomial time by dynamic programming . the complexity status of the corresponding problem om <unk> <digit> , ri <unk> was unknown before . </s> <pad> <pad> <pad>
Real Target String [5] 
		[['scheduling'], ['open', 'shop'], ['unit', 'execution', 'time'], ['dynamic', 'programming'], ['late', 'jobs']] 
Real Target Input:  
		[['<s>', 'scheduling', '</s>'], ['<s>', 'open', 'shop', '</s>'], ['<s>', 'unit', 'execution', 'time', '</s>'], ['<s>', 'dynamic', 'programming', '</s>'], ['<s>', 'late', 'jobs', '</s>']] 
Real Target Copy:   
		[['scheduling', '</s>'], ['open', 'shop', '</s>'], ['unit', 'execution', 'time', '</s>'], ['dynamic', 'programming', '</s>'], ['late', 'jobs', '</s>']] 
[GROUND-TRUTH] #(present)/#(all targets)=4/5
		scheduling
		[open shop]
		[unit execution time]
		[dynamic programming]
		[late jobs]
oov_list:   
		['pij', 'wiui'] 
[PREDICTION] #(valid)=115, #(present)=115, #(retained&present)=115, #(all)=115
		[4.3048]	*[scheduling] 	 [263, 2] 
		[4.7650]	*[decidability] 	 [5187, 2] 
		[4.7898]	*[decision support system] 	 [173, 130, 35, 2] 
		[4.9105]	*[deteriorating jobs] 	 [6195, 1949, 2] 
		[4.9275]	*[decision making] 	 [173, 428, 2] 
		[5.2477]	*[transportation] 	 [2261, 2] 
		[5.3100]	*[system buses] 	 [35, 6434, 2] 
		[5.3871]	*[computational complexity] 	 [201, 211, 2] 
		[5.6835]	*[simulation] 	 [93, 2] 
		[5.6882]	*[inventory] 	 [1740, 2] 
		[5.7622]	*[genetic algorithm] 	 [340, 37, 2] 
		[5.7965]	*[artificial neural network] 	 [661, 184, 52, 2] 
		[5.9021]	*[self stabilization] 	 [339, 3091, 2] 
		[5.9210]	*[multi agent systems] 	 [100, 465, 41, 2] 
		[5.9916]	*[cellular automata] 	 [940, 1064, 2] 
		[6.0127]	*[facility location] 	 [2039, 430, 2] 
		[6.1175]	*[fuzzy logic] 	 [83, 287, 2] 
		[6.1297]	*[genetic algorithms] 	 [340, 75, 2] 
		[6.1933]	*[self organization] 	 [339, 1252, 2] 
		[6.2448]	*[decision support systems] 	 [173, 130, 41, 2] 
		[6.2545]	*[fuzzy set] 	 [83, 79, 2] 
		[6.3111]	*[supply chain] 	 [719, 596, 2] 
		[6.3611]	*[fuzzy logic controllers] 	 [83, 287, 2062, 2] 
		[6.4549]	*[distributed systems] 	 [156, 41, 2] 
		[6.4740]	*[decision theory] 	 [173, 179, 2] 
		[6.5057]	*[system identification] 	 [35, 590, 2] 
		[6.5086]	*[network minimisation] 	 [52, 7527, 2] 
		[6.5969]	*[artificial neural networks] 	 [661, 184, 62, 2] 
		[6.6008]	*[self organized criticality] 	 [339, 2799, 9670, 2] 
		[6.6176]	*[decision analysis] 	 [173, 43, 2] 
		[6.6403]	*[multi agent system] 	 [100, 465, 35, 2] 
		[6.7330]	*[supply chain management] 	 [719, 596, 144, 2] 
		[6.7455]	*[real time] 	 [102, 38, 2] 
		[6.7690]	*[computer animation] 	 [157, 1747, 2] 
		[6.8492]	*[multi objective optimization] 	 [100, 349, 95, 2] 
		[6.8890]	*[inventory control] 	 [1740, 66, 2] 
		[6.9284]	*[group] 	 [288, 2] 
		[7.1066]	*[system] 	 [35, 2] 
		[7.1913]	*[decision] 	 [173, 2] 
		[7.1914]	*[decision tree] 	 [173, 296, 2] 
		[7.2654]	*[decision support] 	 [173, 130, 2] 
		[7.3104]	*[network] 	 [52, 2] 
		[7.4529]	*[distributed] 	 [156, 2] 
		[7.4936]	*[group key cryptosystem] 	 [288, 261, 6665, 2] 
		[7.6916]	*[multi agent simulation] 	 [100, 465, 93, 2] 
		[7.8121]	*[real time system] 	 [102, 38, 35, 2] 
		[7.8357]	*[multi agent] 	 [100, 465, 2] 
		[7.8812]	*[real time systems] 	 [102, 38, 41, 2] 
		[7.9176]	*[real time simulation] 	 [102, 38, 93, 2] 
		[7.9469]	*[real time scheduling] 	 [102, 38, 263, 2] 
		[8.1301]	*[artificial bee colony system] 	 [661, 5922, 2614, 35, 2] 
		[8.1819]	*[decision making system] 	 [173, 428, 35, 2] 
		[8.1846]	*[fuzzy logic system] 	 [83, 287, 35, 2] 
		[8.2886]	*[adaptive] 	 [194, 2] 
		[8.3137]	*[supply chain system] 	 [719, 596, 35, 2] 
		[8.3199]	*[group key distribution] 	 [288, 261, 207, 2] 
		[8.3384]	*[universal audiovisual] 	 [1938, 7158, 2] 
		[8.3436]	*[artificial bee colony algorithm] 	 [661, 5922, 2614, 37, 2] 
		[8.3663]	*[universal] 	 [1938, 2] 
		[8.4559]	*[self organizing map] 	 [339, 2029, 578, 2] 
		[8.4980]	*[multi objective optimisation] 	 [100, 349, 1629, 2] 
		[8.5548]	*[open] 	 [551, 2] 
		[8.5576]	*[artificial bee colony optimization] 	 [661, 5922, 2614, 95, 2] 
		[8.5629]	*[artificial bee colony systems] 	 [661, 5922, 2614, 41, 2] 
		[8.6021]	*[artificial bee colony] 	 [661, 5922, 2614, 2] 
		[8.6489]	*[decision makers] 	 [173, 3390, 2] 
		[8.6572]	*[multi objective programming] 	 [100, 349, 160, 2] 
		[8.6670]	*[fuzzy logic systems] 	 [83, 287, 41, 2] 
		[8.6680]	*[multi objective systems] 	 [100, 349, 41, 2] 
		[8.6701]	*[stochastic] 	 [529, 2] 
		[8.6882]	*[fuzzy] 	 [83, 2] 
		[8.7112]	*[supply chain planning] 	 [719, 596, 552, 2] 
		[8.7265]	*[supply chain systems] 	 [719, 596, 41, 2] 
		[9.0419]	*[group key agreement] 	 [288, 261, 1458, 2] 
		[9.0811]	*[multi objective] 	 [100, 349, 2] 
		[9.2691]	*[cellular] 	 [940, 2] 
		[9.5309]	*[multi objective evolutionary algorithm] 	 [100, 349, 611, 37, 2] 
		[9.5674]	*[quantum] 	 [594, 2] 
		[9.5777]	*[group key out] 	 [288, 261, 326, 2] 
		[9.9046]	*[artificial bee colony programming] 	 [661, 5922, 2614, 160, 2] 
		[9.9074]	*[computer] 	 [157, 2] 
		[10.0847]	*[genetic] 	 [340, 2] 
		[10.1499]	*[self organizing] 	 [339, 2029, 2] 
		[10.2807]	*[artificial bee colony networks] 	 [661, 5922, 2614, 62, 2] 
		[10.3049]	*[computational complexity of carriers] 	 [201, 211, 6, 5118, 2] 
		[10.5023]	*[random] 	 [276, 2] 
		[10.5490]	*[artificial bee colony optimizers] 	 [661, 5922, 2614, 10752, 2] 
		[10.5813]	*[deteriorating] 	 [6195, 2] 
		[10.5995]	*[self organized] 	 [339, 2799, 2] 
		[10.6401]	*[artificial bee colony optimisation] 	 [661, 5922, 2614, 1629, 2] 
		[10.6897]	*[artificial bee colony network] 	 [661, 5922, 2614, 52, 2] 
		[10.7430]	*[supply chain management system] 	 [719, 596, 144, 35, 2] 
		[10.8243]	*[artificial bee] 	 [661, 5922, 2] 
		[10.9150]	*[real] 	 [102, 2] 
		[10.9178]	*[time] 	 [38, 2] 
		[11.0259]	*[multi objective evolutionary algorithms] 	 [100, 349, 611, 75, 2] 
		[11.0734]	*[multi objective evolutionary] 	 [100, 349, 611, 2] 
		[11.1615]	*[decision support system design] 	 [173, 130, 35, 50, 2] 
		[11.1653]	*[artificial bee colony robot] 	 [661, 5922, 2614, 629, 2] 
		[11.1730]	*[artificial bee colony learning] 	 [661, 5922, 2614, 77, 2] 
		[11.2019]	*[multi objective evolutionary systems] 	 [100, 349, 611, 41, 2] 
		[11.3851]	*[artificial neural] 	 [661, 184, 2] 
		[11.4590]	*[group key] 	 [288, 261, 2] 
		[11.4976]	*[supply] 	 [719, 2] 
		[11.5522]	*[artificial bee colony games] 	 [661, 5922, 2614, 1065, 2] 
		[11.5966]	*[decision support system development] 	 [173, 130, 35, 155, 2] 
		[11.6212]	*[decision support system systems] 	 [173, 130, 35, 41, 2] 
		[11.7212]	*[decision support system system] 	 [173, 130, 35, 35, 2] 
		[12.8598]	*[artificial bee colony support] 	 [661, 5922, 2614, 130, 2] 
		[13.1966]	*[supply chain planning and] 	 [719, 596, 552, 8, 2] 
		[15.4484]	*[artificial bee colony decision] 	 [661, 5922, 2614, 173, 2] 
		[15.4712]	*[real time systems and] 	 [102, 38, 41, 8, 2] 
		[15.9519]	*[decision support system and] 	 [173, 130, 35, 8, 2] 
		[16.0969]	*[decision support systems and] 	 [173, 130, 41, 8, 2] 
		[17.7047]	*[artificial bee colony neural] 	 [661, 5922, 2614, 184, 2] 

 =======================================================
 ------------------------------------------------- EXACT, k=5
 --- batch precision, recall, fscore: 0.0 , 0.0 , 0.0
 --- total precision, recall, fscore: 0.02610619469026549 , 0.03711934574766433 , 0.027407454393039616
 ------------------------------------------------- EXACT, k=10
 --- batch precision, recall, fscore: 0.0 , 0.0 , 0.0
 --- total precision, recall, fscore: 0.017699115044247787 , 0.04673698147149475 , 0.022901329172444328
 ------------------------------------------------- SOFT, k=5
 --- batch precision, recall, fscore: 0.06666666865348816 , 0.0833333358168602 , 0.07407407628165352
 --- total precision, recall, fscore: 0.04980053416725281 , 0.07632197782744898 , 0.05429453088858531
 ------------------------------------------------- SOFT, k=10
 --- batch precision, recall, fscore: 0.03333333432674408 , 0.0833333358168602 , 0.04761904903820583
 --- total precision, recall, fscore: 0.03988393770811041 , 0.11968425938940504 , 0.05462101310307598
 =======================================================