[Source][195]: an access delay model for ieee <digit> . 11e edca . we analyze the mac access delay of the ieee <digit> . 11e enhanced distributed channel access ( edca ) mechanism under saturation . we develop a detailed analytical model to evaluate the influence of all edca differentiation parameters , namely aifs , cwmin , cwmax , and txop limit , as well as the backoff multiplier beta . explicit expressions for the mean , standard deviation , and generating function of the access delay distribution are derived . by applying numerical inversion on the generating function , we are able to efficiently compute values of the distribution . comparison with simulation confirms the accuracy of our analytical model over a wide range of operating conditions . we derive simple asymptotics and approximations for the mean and standard deviation of the access delay , which reveal the salient model parameters for performance under different differentiation mechanisms . we also use the model to numerically study the differentiation performance and find that beta differentiation , though rejected during the standardization process , is an effective differentiation mechanism that has some advantages over the other mechanisms . 

Source Input: 
 <s> an access delay model for ieee <digit> . 11e edca . we analyze the mac access delay of the ieee <digit> . 11e enhanced distributed channel access ( edca ) mechanism under saturation . we develop a detailed analytical model to evaluate the influence of all edca differentiation parameters , namely aifs , <unk> , <unk> , and <unk> limit , as well as the backoff multiplier beta . explicit expressions for the mean , standard deviation , and generating function of the access delay distribution are derived . by applying numerical inversion on the generating function , we are able to efficiently compute values of the distribution . comparison with simulation confirms the accuracy of our analytical model over a wide range of operating conditions . we derive simple asymptotics and approximations for the mean and standard deviation of the access delay , which reveal the salient model parameters for performance under different differentiation mechanisms . we also use the model to numerically study the differentiation performance and find that beta differentiation , though rejected during the standardization process , is an effective differentiation mechanism that has some advantages over the other mechanisms . </s>
Real Target String [6] 
		[['medium', 'access', 'delay'], ['ieee', '<digit>', '.', '11e'], ['qos'], ['edca'], ['service', 'differentiation'], ['generating', 'function']] 
Real Target Input:  
		[['<s>', 'medium', 'access', 'delay', '</s>'], ['<s>', 'ieee', '<digit>', '.', '11e', '</s>'], ['<s>', 'qos', '</s>'], ['<s>', 'edca', '</s>'], ['<s>', 'service', 'differentiation', '</s>'], ['<s>', 'generating', 'function', '</s>']] 
Real Target Copy:   
		[['medium', 'access', 'delay', '</s>'], ['ieee', '<digit>', '.', '11e', '</s>'], ['qos', '</s>'], ['edca', '</s>'], ['service', 'differentiation', '</s>'], ['generating', 'function', '</s>']] 
[GROUND-TRUTH] #(present)/#(all targets)=3/6
		medium access delay
		[ieee <digit> . 11e]
		qos
		[edca]
		service differentiation
		[generating function]
oov_list:   
		['cwmin', 'cwmax', 'txop'] 
[PREDICTION] #(valid)=110, #(present)=110, #(retained&present)=110, #(all)=110
		[5.4521]	*[gsmith] 	 [48525, 2] 
		[5.6399]	*[radiograph] 	 [14858, 2] 
		[5.7097]	*[reversibility] 	 [8488, 2] 
		[5.8894]	*[non natives] 	 [123, 16916, 2] 
		[6.0742]	*[computer animation] 	 [157, 1747, 2] 
		[6.3430]	*[computational complexity] 	 [201, 211, 2] 
		[6.4319]	*[cellular automata] 	 [940, 1064, 2] 
		[6.4701]	*[self organized criticality] 	 [339, 2799, 9670, 2] 
		[6.8082]	*[multilayer] 	 [3406, 2] 
		[6.8393]	*[interconnect] 	 [2143, 2] 
		[6.8463]	*[comparative study] 	 [1637, 67, 2] 
		[6.9173]	*[bzier curves] 	 [7307, 1316, 2] 
		[6.9207]	*[computational geometry] 	 [201, 937, 2] 
		[7.0275]	*[computer vision] 	 [157, 1051, 2] 
		[7.1374]	*[self stabilization] 	 [339, 3091, 2] 
		[7.3112]	*[adaptive meshing] 	 [194, 6276, 2] 
		[7.3740]	*[current mode] 	 [251, 697, 2] 
		[7.4993]	*[self tuned] 	 [339, 3888, 2] 
		[7.5300]	*[comparative genomics] 	 [1637, 6307, 2] 
		[7.5508]	*[bzier curve] 	 [7307, 1014, 2] 
		[7.5520]	*[gibbs sampler] 	 [4924, 7571, 2] 
		[7.5796]	*[finite elements] 	 [163, 477, 2] 
		[7.6028]	*[cryptanalytic] 	 [20643, 2] 
		[7.6300]	*[self organization] 	 [339, 1252, 2] 
		[7.6305]	*[computational efficiency] 	 [201, 220, 2] 
		[7.6918]	*[finite element method] 	 [163, 257, 34, 2] 
		[7.7123]	*[3d ladar scanning] 	 [305, 47817, 2770, 2] 
		[7.7538]	*[computer aided diagnosis] 	 [157, 2031, 997, 2] 
		[7.7994]	*[free distance] 	 [388, 307, 2] 
		[7.8171]	*[computer aided design] 	 [157, 2031, 50, 2] 
		[7.8489]	*[multilayer perceptron] 	 [3406, 4204, 2] 
		[7.8734]	*[coronary disease] 	 [4424, 1200, 2] 
		[7.9068]	*[mathematical programming] 	 [743, 160, 2] 
		[8.0606]	*[finite element] 	 [163, 257, 2] 
		[8.1395]	*[power] 	 [107, 2] 
		[8.1654]	*[zip] 	 [12002, 2] 
		[8.1995]	*[adaptive] 	 [194, 2] 
		[8.2211]	*[current mode circuits] 	 [251, 697, 730, 2] 
		[8.2452]	*[multi objective optimization] 	 [100, 349, 95, 2] 
		[8.4409]	*[finite element analysis] 	 [163, 257, 43, 2] 
		[8.5950]	*[alpha] 	 [2008, 2] 
		[8.9490]	*[self organizing map] 	 [339, 2029, 578, 2] 
		[8.9533]	*[bzier] 	 [7307, 2] 
		[8.9926]	*[pentagonal slot states] 	 [18916, 3822, 782, 2] 
		[9.0717]	*[<digit>] 	 [20, 2] 
		[9.1308]	*[finite state machines] 	 [163, 151, 791, 2] 
		[9.1856]	*[mathematical] 	 [743, 2] 
		[9.3080]	*[universal] 	 [1938, 2] 
		[9.3190]	*[current mode control] 	 [251, 697, 66, 2] 
		[9.4560]	*[finite state machine] 	 [163, 151, 281, 2] 
		[9.6525]	*[pentagonal slot damper] 	 [18916, 3822, 8137, 2] 
		[9.6605]	*[3d] 	 [305, 2] 
		[9.6933]	*[current] 	 [251, 2] 
		[9.7242]	*[quantum] 	 [594, 2] 
		[9.7581]	*[<digit> wolfram circuits] 	 [20, 14081, 730, 2] 
		[9.7753]	*[finite element methods] 	 [163, 257, 74, 2] 
		[9.7785]	*[self organizing maps] 	 [339, 2029, 979, 2] 
		[9.8122]	*[current mode signal processing] 	 [251, 697, 371, 192, 2] 
		[9.8140]	*[multi objective optimisation] 	 [100, 349, 1629, 2] 
		[9.8953]	*[current mode design] 	 [251, 697, 50, 2] 
		[9.9850]	*[3d ladar lasers] 	 [305, 47817, 7545, 2] 
		[10.1318]	*[current mode process] 	 [251, 697, 73, 2] 
		[10.2269]	*[pentagonal slot] 	 [18916, 3822, 2] 
		[10.3706]	*[cellular] 	 [940, 2] 
		[10.4249]	*[computer aided] 	 [157, 2031, 2] 
		[10.4680]	*[gibbs] 	 [4924, 2] 
		[10.4786]	*[non reflecting stationary logics] 	 [123, 4151, 1882, 2820, 2] 
		[10.5864]	*[<digit> wolfram cellular automata] 	 [20, 14081, 940, 1064, 2] 
		[10.5981]	*[current mode voltage] 	 [251, 697, 862, 2] 
		[10.7381]	*[computational complexity of carriers] 	 [201, 211, 6, 5118, 2] 
		[10.7777]	*[computer] 	 [157, 2] 
		[10.8329]	*[non reflecting stationary set] 	 [123, 4151, 1882, 79, 2] 
		[10.9150]	*[computer aided process planning] 	 [157, 2031, 73, 552, 2] 
		[10.9653]	*[multi objective] 	 [100, 349, 2] 
		[10.9979]	*[current mode power] 	 [251, 697, 107, 2] 
		[11.0302]	*[non reflecting stationary] 	 [123, 4151, 1882, 2] 
		[11.0799]	*[finite state] 	 [163, 151, 2] 
		[11.1173]	*[computational efficiency of carriers] 	 [201, 220, 6, 5118, 2] 
		[11.1825]	*[non reflecting stationary approximation] 	 [123, 4151, 1882, 320, 2] 
		[11.3824]	*[self organizing] 	 [339, 2029, 2] 
		[11.4015]	*[non reflecting stationary condition] 	 [123, 4151, 1882, 609, 2] 
		[11.4144]	*[comparative] 	 [1637, 2] 
		[11.4519]	*[non reflecting subgraph] 	 [123, 4151, 3224, 2] 
		[11.5076]	*[non reflecting stationary formulation] 	 [123, 4151, 1882, 600, 2] 
		[11.9023]	*[non reflecting stationary network] 	 [123, 4151, 1882, 52, 2] 
		[11.9557]	*[non reflecting stationary functions] 	 [123, 4151, 1882, 171, 2] 
		[11.9872]	*[3d ladar] 	 [305, 47817, 2] 
		[11.9956]	*[non reflecting stationary automata] 	 [123, 4151, 1882, 1064, 2] 
		[12.0401]	*[non reflecting stationary problems] 	 [123, 4151, 1882, 88, 2] 
		[12.1823]	*[non reflecting stationary logic] 	 [123, 4151, 1882, 287, 2] 
		[12.1880]	*[non reflecting stationary method] 	 [123, 4151, 1882, 34, 2] 
		[12.1936]	*[non reflecting stationary channels] 	 [123, 4151, 1882, 756, 2] 
		[12.2392]	*[non reflecting stationary model] 	 [123, 4151, 1882, 30, 2] 
		[12.2465]	*[non reflecting stationary decomposition] 	 [123, 4151, 1882, 634, 2] 
		[12.2659]	*[non reflecting stationary systems] 	 [123, 4151, 1882, 41, 2] 
		[12.3039]	*[non reflecting stationary group] 	 [123, 4151, 1882, 288, 2] 
		[12.3177]	*[current mode time series] 	 [251, 697, 38, 462, 2] 
		[12.3228]	*[current mode power estimation] 	 [251, 697, 107, 223, 2] 
		[12.4216]	*[current mode power flow] 	 [251, 697, 107, 178, 2] 
		[12.5637]	*[computer aided process] 	 [157, 2031, 73, 2] 
		[12.7286]	*[self organized] 	 [339, 2799, 2] 
		[12.9844]	*[current mode time] 	 [251, 697, 38, 2] 
		[13.7737]	*[current mode signal] 	 [251, 697, 371, 2] 
		[15.2668]	*[computer aided design and] 	 [157, 2031, 50, 8, 2] 
		[15.4906]	*[<digit> wolfram cellular] 	 [20, 14081, 940, 2] 
		[16.0207]	*[non reflecting stationary linear] 	 [123, 4151, 1882, 109, 2] 
		[16.3441]	*[non reflecting stationary output] 	 [123, 4151, 1882, 481, 2] 
		[16.8876]	*[non reflecting stationary decision] 	 [123, 4151, 1882, 173, 2] 
		[17.3203]	*[non reflecting stationary neural] 	 [123, 4151, 1882, 184, 2] 
		[18.1805]	*[<digit> wolfram cellular neural] 	 [20, 14081, 940, 184, 2] 

 =======================================================
 ------------------------------------------------- EXACT, k=5
 --- batch precision, recall, fscore: 0.0 , 0.0 , 0.0
 --- total precision, recall, fscore: 0.02531120331950207 , 0.037402374020631284 , 0.026854201122841207
 ------------------------------------------------- EXACT, k=10
 --- batch precision, recall, fscore: 0.0 , 0.0 , 0.0
 --- total precision, recall, fscore: 0.017012448132780085 , 0.04642140171185814 , 0.022149535499211948
 ------------------------------------------------- SOFT, k=5
 --- batch precision, recall, fscore: 0.0 , 0.0 , 0.0
 --- total precision, recall, fscore: 0.04863729208893301 , 0.07658547854168306 , 0.05347837698781782
 ------------------------------------------------- SOFT, k=10
 --- batch precision, recall, fscore: 0.0 , 0.0 , 0.0
 --- total precision, recall, fscore: 0.038981756260348055 , 0.11900946688693917 , 0.053650419353016565
 =======================================================