[Source][75]: geographic image retrieval in mobile guides . this paper describes an application that is based on geographic queries to retrieve personal pictures when visiting points of interest using mobile devices such as pdas . the retrieved information can be visualized in different ways , including the spatial visualization of the pictures of the places visited . the paper describes the user interface features and the experiments that were made to illustrate the proposed methods . 

Source Input: 
 <s> geographic image retrieval in mobile guides . this paper describes an application that is based on geographic queries to retrieve personal pictures when visiting points of interest using mobile devices such as pdas . the retrieved information can be visualized in different ways , including the spatial visualization of the pictures of the places visited . the paper describes the user interface features and the experiments that were made to illustrate the proposed methods . </s> <pad> <pad> <pad>
Real Target String [3] 
		[['personal', 'memories'], ['mobile', 'guides'], ['geographic', 'image', 'retrieval']] 
Real Target Input:  
		[['<s>', 'personal', 'memories', '</s>'], ['<s>', 'mobile', 'guides', '</s>'], ['<s>', 'geographic', 'image', 'retrieval', '</s>']] 
Real Target Copy:   
		[['personal', 'memories', '</s>'], ['mobile', 'guides', '</s>'], ['geographic', 'image', 'retrieval', '</s>']] 
[GROUND-TRUTH] #(present)/#(all targets)=2/3
		personal memories
		[mobile guides]
		[geographic image retrieval]
oov_list:   
		[] 
[PREDICTION] #(valid)=119, #(present)=119, #(retained&present)=119, #(all)=119
		[4.5454]	*[computer animation] 	 [157, 1747, 2] 
		[4.7033]	*[performance] 	 [45, 2] 
		[4.9178]	*[animation] 	 [1747, 2] 
		[5.1084]	*[visualization] 	 [616, 2] 
		[5.1182]	*[evaluation] 	 [172, 2] 
		[5.1760]	*[measurement] 	 [588, 2] 
		[5.2027]	*[paper] 	 [28, 2] 
		[5.4681]	*[visual impairment] 	 [399, 5792, 2] 
		[5.5117]	*[data mining] 	 [29, 409, 2] 
		[5.5598]	*[information retrieval] 	 [47, 323, 2] 
		[5.5726]	*[knowledge acquisition] 	 [134, 1575, 2] 
		[5.6455]	*[support] 	 [130, 2] 
		[5.6545]	*[design] 	 [50, 2] 
		[5.6647]	*[data] 	 [29, 2] 
		[5.6911]	*[feature] 	 [187, 2] 
		[5.7750]	*[process] 	 [73, 2] 
		[5.8573]	*[research] 	 [119, 2] 
		[5.8636]	*[object] 	 [210, 2] 
		[5.8951]	*[performance evaluation] 	 [45, 172, 2] 
		[5.9446]	*[quality of service] 	 [141, 6, 162, 2] 
		[5.9709]	*[case based reasoning] 	 [128, 26, 812, 2] 
		[6.0229]	*[multi agent systems] 	 [100, 465, 41, 2] 
		[6.0607]	*[collaborative learning] 	 [682, 77, 2] 
		[6.1660]	*[multimedia] 	 [654, 2] 
		[6.1723]	*[data integration] 	 [29, 437, 2] 
		[6.2265]	*[knowledge representation] 	 [134, 309, 2] 
		[6.2779]	*[software engineering] 	 [98, 416, 2] 
		[6.3652]	*[computer vision] 	 [157, 1051, 2] 
		[6.3806]	*[object oriented] 	 [210, 435, 2] 
		[6.3972]	*[model] 	 [30, 2] 
		[6.4227]	*[support vector machines] 	 [130, 310, 791, 2] 
		[6.4458]	*[performance analysis] 	 [45, 43, 2] 
		[6.4500]	*[model checking] 	 [30, 1069, 2] 
		[6.4640]	*[computer graphics] 	 [157, 1249, 2] 
		[6.5027]	*[collaborative filtering] 	 [682, 800, 2] 
		[6.5594]	*[virtual environment] 	 [312, 227, 2] 
		[6.5899]	*[text] 	 [550, 2] 
		[6.6022]	*[image retrieval] 	 [89, 323, 2] 
		[6.6106]	*[human computer interaction] 	 [252, 157, 253, 2] 
		[6.6549]	*[text mining] 	 [550, 409, 2] 
		[6.7955]	*[computer learning] 	 [157, 77, 2] 
		[6.7986]	*[model driven engineering] 	 [30, 655, 416, 2] 
		[6.8290]	*[knowledge based systems] 	 [134, 26, 41, 2] 
		[6.8735]	*[task] 	 [294, 2] 
		[6.8823]	*[web categorisation] 	 [124, 21278, 2] 
		[6.9057]	*[quality] 	 [141, 2] 
		[6.9316]	*[object oriented design] 	 [210, 435, 50, 2] 
		[7.0277]	*[knowledge] 	 [134, 2] 
		[7.2773]	*[multi agent system] 	 [100, 465, 35, 2] 
		[7.3136]	*[software] 	 [98, 2] 
		[7.3904]	*[multi agent] 	 [100, 465, 2] 
		[7.5135]	*[support vector machine] 	 [130, 310, 281, 2] 
		[7.5637]	*[information] 	 [47, 2] 
		[7.6477]	*[image] 	 [89, 2] 
		[7.7096]	*[case] 	 [128, 2] 
		[7.7599]	*[business] 	 [541, 2] 
		[7.7801]	*[computer aided design] 	 [157, 2031, 50, 2] 
		[7.7885]	*[video] 	 [215, 2] 
		[7.8092]	*[web] 	 [124, 2] 
		[7.8652]	*[object oriented programming] 	 [210, 435, 160, 2] 
		[8.1071]	*[object oriented language] 	 [210, 435, 224, 2] 
		[8.1707]	*[business process re engineering] 	 [541, 73, 1222, 416, 2] 
		[8.2134]	*[knowledge based system] 	 [134, 26, 35, 2] 
		[8.3594]	*[computer] 	 [157, 2] 
		[8.4165]	*[collaborative] 	 [682, 2] 
		[8.4653]	*[knowledge based animation] 	 [134, 26, 1747, 2] 
		[8.4804]	*[visual] 	 [399, 2] 
		[8.5150]	*[model based testing] 	 [30, 26, 475, 2] 
		[8.5576]	*[model driven development] 	 [30, 655, 155, 2] 
		[8.5778]	*[business process modeling] 	 [541, 73, 148, 2] 
		[8.6767]	*[object oriented languages] 	 [210, 435, 598, 2] 
		[8.6840]	*[object oriented metrics] 	 [210, 435, 939, 2] 
		[8.7098]	*[computer aided diagnosis] 	 [157, 2031, 997, 2] 
		[8.7251]	*[object oriented modeling] 	 [210, 435, 148, 2] 
		[8.7616]	*[multi agent simulation] 	 [100, 465, 93, 2] 
		[8.7710]	*[object oriented analysis] 	 [210, 435, 43, 2] 
		[8.9354]	*[knowledge based retrieval] 	 [134, 26, 323, 2] 
		[8.9440]	*[object oriented applications] 	 [210, 435, 92, 2] 
		[8.9535]	*[human] 	 [252, 2] 
		[8.9916]	*[object oriented methods] 	 [210, 435, 74, 2] 
		[9.0517]	*[object oriented systems] 	 [210, 435, 41, 2] 
		[9.1510]	*[object oriented computing] 	 [210, 435, 188, 2] 
		[9.1581]	*[support vector memory] 	 [130, 310, 225, 2] 
		[9.1820]	*[business process] 	 [541, 73, 2] 
		[9.2079]	*[object based design] 	 [210, 26, 50, 2] 
		[9.4636]	*[knowledge based] 	 [134, 26, 2] 
		[9.5267]	*[object based] 	 [210, 26, 2] 
		[10.1940]	*[human computer] 	 [252, 157, 2] 
		[10.3697]	*[support vector] 	 [130, 310, 2] 
		[10.4180]	*[model driven] 	 [30, 655, 2] 
		[10.4424]	*[computer aided] 	 [157, 2031, 2] 
		[10.7608]	*[model based] 	 [30, 26, 2] 
		[10.8730]	*[object oriented language analysis] 	 [210, 435, 224, 43, 2] 
		[10.9254]	*[virtual] 	 [312, 2] 
		[11.0514]	*[object oriented language system] 	 [210, 435, 224, 35, 2] 
		[11.1760]	*[object oriented language model] 	 [210, 435, 224, 30, 2] 
		[11.2484]	*[object oriented language management] 	 [210, 435, 224, 144, 2] 
		[11.3829]	*[object oriented language models] 	 [210, 435, 224, 69, 2] 
		[11.6192]	*[object oriented language extraction] 	 [210, 435, 224, 591, 2] 
		[11.7486]	*[object oriented language systems] 	 [210, 435, 224, 41, 2] 
		[11.8618]	*[object oriented language design] 	 [210, 435, 224, 50, 2] 
		[11.9252]	*[quality of service realization] 	 [141, 6, 162, 3159, 2] 
		[11.9781]	*[quality of service management] 	 [141, 6, 162, 144, 2] 
		[12.1407]	*[quality of service development] 	 [141, 6, 162, 155, 2] 
		[12.2525]	*[quality of service model] 	 [141, 6, 162, 30, 2] 
		[12.3403]	*[quality of service metastasis] 	 [141, 6, 162, 9669, 2] 
		[12.3741]	*[object oriented language modeling] 	 [210, 435, 224, 148, 2] 
		[12.5589]	*[quality of service engineering] 	 [141, 6, 162, 416, 2] 
		[12.5722]	*[quality of service behavior] 	 [141, 6, 162, 298, 2] 
		[12.6168]	*[quality of service analysis] 	 [141, 6, 162, 43, 2] 
		[12.6795]	*[knowledge based systems development] 	 [134, 26, 41, 155, 2] 
		[12.6796]	*[object oriented language retrieval] 	 [210, 435, 224, 323, 2] 
		[12.7567]	*[quality of service information] 	 [141, 6, 162, 47, 2] 
		[12.7605]	*[case based] 	 [128, 26, 2] 
		[12.8027]	*[model driven engineering design] 	 [30, 655, 416, 50, 2] 
		[14.5004]	*[quality of service and] 	 [141, 6, 162, 8, 2] 
		[14.7698]	*[business process re] 	 [541, 73, 1222, 2] 
		[15.4264]	*[computer aided design and] 	 [157, 2031, 50, 8, 2] 
		[16.0508]	*[quality of service of] 	 [141, 6, 162, 6, 2] 

 =======================================================
 ------------------------------------------------- EXACT, k=5
 --- batch precision, recall, fscore: 0.0 , 0.0 , 0.0
 --- total precision, recall, fscore: 0.0288659793814433 , 0.038880706921944036 , 0.029464881860273007
 ------------------------------------------------- EXACT, k=10
 --- batch precision, recall, fscore: 0.0 , 0.0 , 0.0
 --- total precision, recall, fscore: 0.01752577319587629 , 0.04695630829651449 , 0.02321185777506993
 ------------------------------------------------- SOFT, k=5
 --- batch precision, recall, fscore: 0.0 , 0.0 , 0.0
 --- total precision, recall, fscore: 0.05108983839295574 , 0.07420634981290523 , 0.05511371938241543
 ------------------------------------------------- SOFT, k=10
 --- batch precision, recall, fscore: 0.025 , 0.125 , 0.04166666666666667
 --- total precision, recall, fscore: 0.03624202292604545 , 0.11463344912970541 , 0.05136257807861779
 =======================================================